ASxxxx Assembler V02.00 + NoICE + SDCC mods  (Zilog Z80 / Hitachi HD64180 / ZX-Next / eZ80)                   Page 1
Hexadecimal [24-Bits]

Symbol Table

    .__.$$$.                                                    =  002710 L
    .__.ABS.                                                    =  000000 G
    .__.CPU.                                                    =  000000 L
    .__.H$L.                                                    =  000000 L
  0 A$default_state$100                                            000006 GR
  0 A$default_state$62                                             000000 GR
  0 A$default_state$75                                             000001 GR
  0 A$default_state$83                                             000003 GR
  0 C$default_state.c$11$0_0$17                                 =  000001 GR
  0 C$default_state.c$12$1_0$17                                 =  000001 GR
  0 C$default_state.c$13$1_0$17                                 =  000003 GR
  0 C$default_state.c$15$1_0$20                                 =  000006 GR
  0 C$default_state.c$17$1_0$20                                 =  000006 GR
  0 C$default_state.c$7$0_0$15                                  =  000000 GR
  0 C$default_state.c$9$0_0$15                                  =  000000 GR
  0 G$default_state_start$0$0                                   =  000000 GR
  0 G$default_state_stop$0$0                                    =  000006 GR
  0 G$default_state_update$0$0                                  =  000001 GR
  0 XG$default_state_start$0$0                                  =  000000 GR
  0 XG$default_state_stop$0$0                                   =  000006 GR
  0 XG$default_state_update$0$0                                 =  000003 GR
  0 _default_state_start                                           000000 GR
  0 _default_state_stop                                            000006 GR
  0 _default_state_update                                          000001 GR
    _transition_to_state                                           ****** GX


ASxxxx Assembler V02.00 + NoICE + SDCC mods  (Zilog Z80 / Hitachi HD64180 / ZX-Next / eZ80)                   Page 2
Hexadecimal [24-Bits]

Area Table

   0 _CODE                                      size      7   flags    0
   1 _DATA                                      size      0   flags    0
   2 _INITIALIZED                               size      0   flags    0
   3 _DABS                                      size      0   flags    8
   4 _HOME                                      size      0   flags    0
   5 _GSINIT                                    size      0   flags    0
   6 _GSFINAL                                   size      0   flags    0
   7 _INITIALIZER                               size      0   flags    0
   8 _CABS                                      size      0   flags    8

