ASxxxx Assembler V02.00 + NoICE + SDCC mods  (Zilog Z80 / Hitachi HD64180 / ZX-Next / eZ80)                   Page 1
Hexadecimal [24-Bits]

Symbol Table

    .__.$$$.                                                    =  002710 L
    .__.ABS.                                                    =  000000 G
    .__.CPU.                                                    =  000000 L
    .__.H$L.                                                    =  000000 L
  0 A$demo_state$109                                               000000 GR
  0 A$demo_state$110                                               000003 GR
  0 A$demo_state$114                                               000005 GR
  0 A$demo_state$118                                               000008 GR
  0 A$demo_state$122                                               00000B GR
  0 A$demo_state$123                                               00000E GR
  0 A$demo_state$127                                               000010 GR
  0 A$demo_state$128                                               000013 GR
  0 A$demo_state$132                                               000016 GR
  0 A$demo_state$136                                               000019 GR
  0 A$demo_state$137                                               00001C GR
  0 A$demo_state$141                                               00001F GR
  0 A$demo_state$142                                               000023 GR
  0 A$demo_state$146                                               000027 GR
  0 A$demo_state$154                                               00002A GR
  0 A$demo_state$167                                               00002B GR
  0 A$demo_state$168                                               00002E GR
  0 A$demo_state$169                                               00002F GR
  0 A$demo_state$173                                               000031 GR
  0 A$demo_state$177                                               000034 GR
  0 A$demo_state$178                                               000037 GR
  0 A$demo_state$182                                               00003A GR
  0 A$demo_state$183                                               00003C GR
  0 A$demo_state$187                                               00003F GR
  0 A$demo_state$188                                               000042 GR
  0 A$demo_state$189                                               000044 GR
  0 A$demo_state$194                                               000045 GR
  0 A$demo_state$195                                               000048 GR
  0 A$demo_state$196                                               000049 GR
  0 A$demo_state$200                                               00004B GR
  0 A$demo_state$201                                               00004E GR
  0 A$demo_state$206                                               000051 GR
  0 A$demo_state$207                                               000054 GR
  0 A$demo_state$208                                               000057 GR
  0 A$demo_state$209                                               000058 GR
  0 A$demo_state$210                                               00005A GR
  0 A$demo_state$214                                               00005C GR
  0 A$demo_state$215                                               00005F GR
  0 A$demo_state$220                                               000061 GR
  0 A$demo_state$221                                               000064 GR
  0 A$demo_state$222                                               000066 GR
  0 A$demo_state$227                                               000067 GR
  0 A$demo_state$228                                               00006A GR
  0 A$demo_state$229                                               00006C GR
  0 A$demo_state$233                                               00006E GR
  0 A$demo_state$237                                               000071 GR
  0 A$demo_state$238                                               000074 GR
  0 A$demo_state$239                                               000075 GR
  0 A$demo_state$240                                               000076 GR
  0 A$demo_state$241                                               000077 GR
  0 A$demo_state$244                                               000079 GR
ASxxxx Assembler V02.00 + NoICE + SDCC mods  (Zilog Z80 / Hitachi HD64180 / ZX-Next / eZ80)                   Page 2
Hexadecimal [24-Bits]

Symbol Table

  0 A$demo_state$245                                               00007B GR
  0 A$demo_state$249                                               00007E GR
  0 A$demo_state$250                                               000081 GR
  0 A$demo_state$251                                               000082 GR
  0 A$demo_state$254                                               000084 GR
  0 A$demo_state$255                                               000086 GR
  0 A$demo_state$259                                               000089 GR
  0 A$demo_state$260                                               00008C GR
  0 A$demo_state$263                                               00008E GR
  0 A$demo_state$266                                               00008F GR
  0 A$demo_state$267                                               000090 GR
  0 A$demo_state$268                                               000091 GR
  0 A$demo_state$269                                               000092 GR
  0 A$demo_state$270                                               000093 GR
  0 A$demo_state$271                                               000094 GR
  0 A$demo_state$272                                               000095 GR
  0 A$demo_state$273                                               000096 GR
  0 A$demo_state$274                                               000097 GR
  0 A$demo_state$277                                               000099 GR
  0 A$demo_state$278                                               00009B GR
  0 A$demo_state$282                                               00009E GR
  0 A$demo_state$283                                               0000A1 GR
  0 A$demo_state$284                                               0000A2 GR
  0 A$demo_state$287                                               0000A4 GR
  0 A$demo_state$288                                               0000A6 GR
  0 A$demo_state$292                                               0000A9 GR
  0 A$demo_state$293                                               0000AC GR
  0 A$demo_state$294                                               0000AD GR
  0 A$demo_state$297                                               0000AF GR
  0 A$demo_state$298                                               0000B1 GR
  0 A$demo_state$302                                               0000B4 GR
  0 A$demo_state$306                                               0000B7 GR
  0 A$demo_state$307                                               0000BA GR
  0 A$demo_state$308                                               0000BC GR
  0 A$demo_state$313                                               0000BD GR
  0 A$demo_state$314                                               0000C0 GR
  0 A$demo_state$315                                               0000C2 GR
  0 A$demo_state$319                                               0000C5 GR
  0 A$demo_state$320                                               0000C8 GR
  0 A$demo_state$321                                               0000CA GR
  0 A$demo_state$322                                               0000CC GR
  0 A$demo_state$323                                               0000CF GR
  0 A$demo_state$324                                               0000D2 GR
  0 A$demo_state$325                                               0000D3 GR
  0 A$demo_state$326                                               0000D5 GR
  0 A$demo_state$330                                               0000D7 GR
  0 A$demo_state$334                                               0000DA GR
  0 A$demo_state$338                                               0000DD GR
  0 A$demo_state$342                                               0000E0 GR
  0 A$demo_state$343                                               0000E3 GR
  0 A$demo_state$344                                               0000E5 GR
  0 A$demo_state$345                                               0000E7 GR
  0 A$demo_state$346                                               0000EA GR
  0 A$demo_state$347                                               0000EC GR
  0 A$demo_state$352                                               0000EE GR
ASxxxx Assembler V02.00 + NoICE + SDCC mods  (Zilog Z80 / Hitachi HD64180 / ZX-Next / eZ80)                   Page 3
Hexadecimal [24-Bits]

Symbol Table

  0 A$demo_state$356                                               0000F1 GR
  0 A$demo_state$360                                               0000F4 GR
  0 A$demo_state$364                                               0000F7 GR
  0 A$demo_state$368                                               0000FA GR
  0 A$demo_state$369                                               0000FD GR
  0 A$demo_state$374                                               000100 GR
  0 A$demo_state$375                                               000103 GR
  0 A$demo_state$376                                               000106 GR
  0 A$demo_state$377                                               000107 GR
  0 A$demo_state$378                                               000109 GR
  0 A$demo_state$382                                               00010B GR
  0 A$demo_state$383                                               00010E GR
  0 A$demo_state$388                                               000110 GR
  0 A$demo_state$392                                               000113 GR
  0 A$demo_state$396                                               000116 GR
  0 A$demo_state$397                                               000119 GR
  0 A$demo_state$402                                               00011B GR
  0 A$demo_state$406                                               00011E GR
  0 A$demo_state$407                                               000121 GR
  0 A$demo_state$408                                               000122 GR
  0 A$demo_state$409                                               000125 GR
  0 A$demo_state$414                                               000126 GR
  0 A$demo_state$418                                               000129 GR
  0 A$demo_state$422                                               00012C GR
  0 A$demo_state$426                                               00012F GR
  0 A$demo_state$430                                               000132 GR
  0 A$demo_state$431                                               000135 GR
  0 A$demo_state$436                                               000138 GR
  0 A$demo_state$437                                               00013B GR
  0 A$demo_state$438                                               00013E GR
  0 A$demo_state$439                                               00013F GR
  0 A$demo_state$440                                               000141 GR
  0 A$demo_state$444                                               000143 GR
  0 A$demo_state$445                                               000146 GR
  0 A$demo_state$450                                               000148 GR
  0 A$demo_state$454                                               00014B GR
  0 A$demo_state$458                                               00014E GR
  0 A$demo_state$459                                               000151 GR
  0 A$demo_state$460                                               000153 GR
  0 A$demo_state$465                                               000154 GR
  0 A$demo_state$466                                               000157 GR
  0 A$demo_state$467                                               000159 GR
  0 A$demo_state$471                                               00015B GR
  0 A$demo_state$472                                               00015D GR
  0 A$demo_state$477                                               000160 GR
  0 A$demo_state$478                                               000163 GR
  0 A$demo_state$479                                               000165 GR
  0 A$demo_state$483                                               000166 GR
  0 A$demo_state$491                                               000168 GR
  0 A$demo_state$515                                               000175 GR
  0 C$demo_state.c$19$0_0$236                                   =  000000 GR
  0 C$demo_state.c$20$1_0$236                                   =  000000 GR
  0 C$demo_state.c$21$1_0$236                                   =  000005 GR
  0 C$demo_state.c$22$1_0$236                                   =  000008 GR
  0 C$demo_state.c$23$1_0$236                                   =  00000B GR
ASxxxx Assembler V02.00 + NoICE + SDCC mods  (Zilog Z80 / Hitachi HD64180 / ZX-Next / eZ80)                   Page 4
Hexadecimal [24-Bits]

Symbol Table

  0 C$demo_state.c$24$1_0$236                                   =  000010 GR
  0 C$demo_state.c$25$1_0$236                                   =  000016 GR
  0 C$demo_state.c$26$1_0$236                                   =  000019 GR
  0 C$demo_state.c$27$1_0$236                                   =  00001F GR
  0 C$demo_state.c$28$1_0$236                                   =  000027 GR
  0 C$demo_state.c$29$1_0$236                                   =  00002A GR
  0 C$demo_state.c$31$1_0$238                                   =  00002B GR
  0 C$demo_state.c$32$1_0$238                                   =  00002B GR
  0 C$demo_state.c$33$2_0$239                                   =  000031 GR
  0 C$demo_state.c$34$2_0$239                                   =  000034 GR
  0 C$demo_state.c$35$2_0$239                                   =  00003A GR
  0 C$demo_state.c$36$2_0$239                                   =  00003F GR
  0 C$demo_state.c$37$1_0$238                                   =  000045 GR
  0 C$demo_state.c$38$2_0$240                                   =  00004B GR
  0 C$demo_state.c$39$2_0$240                                   =  000051 GR
  0 C$demo_state.c$40$3_0$241                                   =  00005C GR
  0 C$demo_state.c$42$2_0$240                                   =  000061 GR
  0 C$demo_state.c$43$1_0$238                                   =  000067 GR
  0 C$demo_state.c$44$2_0$242                                   =  00006E GR
  0 C$demo_state.c$45$2_0$242                                   =  000071 GR
  0 C$demo_state.c$46$2_0$242                                   =  00007E GR
  0 C$demo_state.c$47$2_0$242                                   =  000089 GR
  0 C$demo_state.c$48$2_0$242                                   =  00009E GR
  0 C$demo_state.c$49$2_0$242                                   =  0000A9 GR
  0 C$demo_state.c$50$2_0$242                                   =  0000B4 GR
  0 C$demo_state.c$51$2_0$242                                   =  0000B7 GR
  0 C$demo_state.c$52$1_0$238                                   =  0000BD GR
  0 C$demo_state.c$53$2_0$243                                   =  0000C5 GR
  0 C$demo_state.c$54$3_0$244                                   =  0000D7 GR
  0 C$demo_state.c$55$3_0$244                                   =  0000DA GR
  0 C$demo_state.c$56$3_0$244                                   =  0000DD GR
  0 C$demo_state.c$57$3_0$244                                   =  0000E0 GR
  0 C$demo_state.c$58$4_0$245                                   =  0000EE GR
  0 C$demo_state.c$59$4_0$245                                   =  0000F1 GR
  0 C$demo_state.c$60$4_0$245                                   =  0000F4 GR
  0 C$demo_state.c$61$4_0$245                                   =  0000F7 GR
  0 C$demo_state.c$62$4_0$245                                   =  0000FA GR
  0 C$demo_state.c$63$4_0$245                                   =  000100 GR
  0 C$demo_state.c$64$5_0$246                                   =  00010B GR
  0 C$demo_state.c$66$4_0$245                                   =  000110 GR
  0 C$demo_state.c$67$4_0$245                                   =  000113 GR
  0 C$demo_state.c$68$4_0$245                                   =  000116 GR
  0 C$demo_state.c$70$3_0$244                                   =  00011B GR
  0 C$demo_state.c$71$3_0$244                                   =  00011E GR
  0 C$demo_state.c$73$3_0$247                                   =  000126 GR
  0 C$demo_state.c$74$3_0$247                                   =  000129 GR
  0 C$demo_state.c$75$3_0$247                                   =  00012C GR
  0 C$demo_state.c$76$3_0$247                                   =  00012F GR
  0 C$demo_state.c$77$3_0$247                                   =  000132 GR
  0 C$demo_state.c$78$3_0$247                                   =  000138 GR
  0 C$demo_state.c$79$4_0$248                                   =  000143 GR
  0 C$demo_state.c$81$3_0$247                                   =  000148 GR
  0 C$demo_state.c$82$3_0$247                                   =  00014B GR
  0 C$demo_state.c$83$3_0$247                                   =  00014E GR
  0 C$demo_state.c$85$1_0$238                                   =  000154 GR
ASxxxx Assembler V02.00 + NoICE + SDCC mods  (Zilog Z80 / Hitachi HD64180 / ZX-Next / eZ80)                   Page 5
Hexadecimal [24-Bits]

Symbol Table

  0 C$demo_state.c$86$2_0$249                                   =  00015B GR
  0 C$demo_state.c$87$1_0$238                                   =  000160 GR
  0 C$demo_state.c$88$2_0$250                                   =  000166 GR
  0 C$demo_state.c$90$1_0$238                                   =  000168 GR
  0 C$demo_state.c$92$1_0$252                                   =  000175 GR
  0 C$demo_state.c$93$1_0$252                                   =  000175 GR
  0 C$demo_state.c$94$1_0$252                                   =  000175 GR
  0 Fdemo_state$__str_0$0_0$0                                   =  00016B GR
  7 Fdemo_state$__xinit_demo_state_status$0_0$0                 =  000000 GR
  7 Fdemo_state$__xinit_startLevel$0_0$0                        =  000001 GR
    G$ROM_bank_to_be_mapped_on_slot0$0_0$0                      =  00FFFD G
    G$ROM_bank_to_be_mapped_on_slot1$0_0$0                      =  00FFFE G
    G$ROM_bank_to_be_mapped_on_slot2$0_0$0                      =  00FFFF G
    G$SMS_SRAM$0_0$0                                            =  008000 G
    G$SRAM_bank_to_be_mapped_on_slot2$0_0$0                     =  00FFFC G
  1 G$demo_duration$0_0$0                                       =  000000 GR
  0 G$demo_state_start$0$0                                      =  000000 GR
  2 G$demo_state_status$0_0$0                                   =  000000 GR
  0 G$demo_state_stop$0$0                                       =  000175 GR
  0 G$demo_state_update$0$0                                     =  00002B GR
  2 G$startLevel$0_0$0                                          =  000001 GR
  0 XG$demo_state_start$0$0                                     =  00002A GR
  0 XG$demo_state_stop$0$0                                      =  000175 GR
  0 XG$demo_state_update$0$0                                    =  000168 GR
    _ROM_bank_to_be_mapped_on_slot0                             =  00FFFD G
    _ROM_bank_to_be_mapped_on_slot1                             =  00FFFE G
    _ROM_bank_to_be_mapped_on_slot2                             =  00FFFF G
    _SMS_SRAM                                                   =  008000 G
    _SMS_zeroBGPalette                                             ****** GX
    _SMS_zeroSpritePalette                                         ****** GX
    _SRAM_bank_to_be_mapped_on_slot2                            =  00FFFC G
  0 ___str_0                                                       00016B R
  7 __xinit__demo_state_status                                     000000 R
  7 __xinit__startLevel                                            000001 R
    _clear_game_lists                                              ****** GX
    _clear_input                                                   ****** GX
  1 _demo_duration                                                 000000 GR
  0 _demo_state_start                                              000000 GR
  2 _demo_state_status                                             000000 GR
  0 _demo_state_stop                                               000175 GR
  0 _demo_state_update                                             00002B GR
    _draw_game_background                                          ****** GX
    _draw_game_screen                                              ****** GX
    _end_demo                                                      ****** GX
    _execute_game_logic                                            ****** GX
    _frame_cnt                                                     ****** GX
    _game_fade_in                                                  ****** GX
    _game_status                                                   ****** GX
    _general_fade_out                                              ****** GX
    _getButtonsPressed                                             ****** GX
    _get_game_actions                                              ****** GX
    _get_rand                                                      ****** GX
    _init_board                                                    ****** GX
    _init_gamestatus                                               ****** GX
    _initialize_game_lists                                         ****** GX
ASxxxx Assembler V02.00 + NoICE + SDCC mods  (Zilog Z80 / Hitachi HD64180 / ZX-Next / eZ80)                   Page 6
Hexadecimal [24-Bits]

Symbol Table

    _level                                                         ****** GX
    _load_game_assets                                              ****** GX
    _number_human_players                                          ****** GX
    _play_song                                                     ****** GX
    _print_level_number                                            ****** GX
    _print_score_value                                             ****** GX
    _print_string                                                  ****** GX
    _score_p1                                                      ****** GX
    _score_p2                                                      ****** GX
  2 _startLevel                                                    000001 GR
    _start_fadein_music                                            ****** GX
    _transition_to_state                                           ****** GX
    _update_input                                                  ****** GX
    _waitForFrame                                                  ****** GX


ASxxxx Assembler V02.00 + NoICE + SDCC mods  (Zilog Z80 / Hitachi HD64180 / ZX-Next / eZ80)                   Page 7
Hexadecimal [24-Bits]

Area Table

   0 _CODE                                      size    178   flags    0
   1 _DATA                                      size      2   flags    0
   2 _INITIALIZED                               size      2   flags    0
   3 _DABS                                      size      0   flags    8
   4 _HOME                                      size      0   flags    0
   5 _GSINIT                                    size      0   flags    0
   6 _GSFINAL                                   size      0   flags    0
   7 _INITIALIZER                               size      2   flags    0
   8 _CABS                                      size      0   flags    8

