ASxxxx Assembler V02.00 + NoICE + SDCC mods  (Zilog Z80 / Hitachi HD64180 / ZX-Next / eZ80)                   Page 1
Hexadecimal [24-Bits]

Symbol Table

    .__.$$$.                                                    =  002710 L
    .__.ABS.                                                    =  000000 G
    .__.CPU.                                                    =  000000 L
    .__.H$L.                                                    =  000000 L
  0 A$end_game_state$103                                           000010 GR
  0 A$end_game_state$107                                           000013 GR
  0 A$end_game_state$111                                           000016 GR
  0 A$end_game_state$114                                           000018 GR
  0 A$end_game_state$115                                           00001A GR
  0 A$end_game_state$119                                           00001D GR
  0 A$end_game_state$122                                           00001F GR
  0 A$end_game_state$123                                           000021 GR
  0 A$end_game_state$127                                           000024 GR
  0 A$end_game_state$135                                           000026 GR
  0 A$end_game_state$148                                           000029 GR
  0 A$end_game_state$149                                           00002C GR
  0 A$end_game_state$150                                           00002D GR
  0 A$end_game_state$154                                           00002F GR
  0 A$end_game_state$155                                           000031 GR
  0 A$end_game_state$159                                           000034 GR
  0 A$end_game_state$163                                           000037 GR
  0 A$end_game_state$167                                           00003A GR
  0 A$end_game_state$170                                           00003C GR
  0 A$end_game_state$171                                           00003E GR
  0 A$end_game_state$175                                           000041 GR
  0 A$end_game_state$178                                           000043 GR
  0 A$end_game_state$179                                           000045 GR
  0 A$end_game_state$183                                           000048 GR
  0 A$end_game_state$187                                           00004B GR
  0 A$end_game_state$188                                           00004E GR
  0 A$end_game_state$189                                           000050 GR
  0 A$end_game_state$194                                           000051 GR
  0 A$end_game_state$195                                           000054 GR
  0 A$end_game_state$196                                           000055 GR
  0 A$end_game_state$200                                           000058 GR
  0 A$end_game_state$201                                           00005C GR
  0 A$end_game_state$202                                           00005F GR
  0 A$end_game_state$203                                           000061 GR
  0 A$end_game_state$204                                           000063 GR
  0 A$end_game_state$205                                           000064 GR
  0 A$end_game_state$209                                           000066 GR
  0 A$end_game_state$210                                           000069 GR
  0 A$end_game_state$214                                           00006B GR
  0 A$end_game_state$215                                           00006E GR
  0 A$end_game_state$219                                           000071 GR
  0 A$end_game_state$220                                           000074 GR
  0 A$end_game_state$221                                           000076 GR
  0 A$end_game_state$222                                           000078 GR
  0 A$end_game_state$223                                           00007A GR
  0 A$end_game_state$224                                           00007C GR
  0 A$end_game_state$225                                           00007E GR
  0 A$end_game_state$226                                           000080 GR
  0 A$end_game_state$227                                           000084 GR
  0 A$end_game_state$232                                           000087 GR
  0 A$end_game_state$233                                           00008A GR
ASxxxx Assembler V02.00 + NoICE + SDCC mods  (Zilog Z80 / Hitachi HD64180 / ZX-Next / eZ80)                   Page 2
Hexadecimal [24-Bits]

Symbol Table

  0 A$end_game_state$234                                           00008C GR
  0 A$end_game_state$238                                           00008F GR
  0 A$end_game_state$239                                           000092 GR
  0 A$end_game_state$240                                           000094 GR
  0 A$end_game_state$243                                           000095 GR
  0 A$end_game_state$244                                           000098 GR
  0 A$end_game_state$245                                           000099 GR
  0 A$end_game_state$246                                           00009B GR
  0 A$end_game_state$247                                           00009D GR
  0 A$end_game_state$248                                           00009E GR
  0 A$end_game_state$249                                           00009F GR
  0 A$end_game_state$250                                           0000A0 GR
  0 A$end_game_state$254                                           0000A3 GR
  0 A$end_game_state$255                                           0000A7 GR
  0 A$end_game_state$259                                           0000AA GR
  0 A$end_game_state$260                                           0000AD GR
  0 A$end_game_state$261                                           0000AF GR
  0 A$end_game_state$262                                           0000B2 GR
  0 A$end_game_state$263                                           0000B5 GR
  0 A$end_game_state$264                                           0000B7 GR
  0 A$end_game_state$265                                           0000B9 GR
  0 A$end_game_state$266                                           0000BC GR
  0 A$end_game_state$267                                           0000BE GR
  0 A$end_game_state$268                                           0000C0 GR
  0 A$end_game_state$276                                           0000C3 GR
  0 A$end_game_state$280                                           0000C6 GR
  0 A$end_game_state$284                                           0000C9 GR
  0 A$end_game_state$292                                           0000CC GR
  0 A$end_game_state$296                                           0000CF GR
  0 A$end_game_state$299                                           0000D1 GR
  0 A$end_game_state$300                                           0000D3 GR
  0 A$end_game_state$307                                           0000D6 GR
  0 A$end_game_state$312                                           0000D9 GR
  0 A$end_game_state$313                                           0000DC GR
  0 A$end_game_state$314                                           0000DE GR
  0 A$end_game_state$318                                           0000E0 GR
  0 A$end_game_state$319                                           0000E3 GR
  0 A$end_game_state$324                                           0000E6 GR
  0 A$end_game_state$325                                           0000E9 GR
  0 A$end_game_state$326                                           0000EC GR
  0 A$end_game_state$327                                           0000ED GR
  0 A$end_game_state$328                                           0000EF GR
  0 A$end_game_state$332                                           0000F1 GR
  0 A$end_game_state$333                                           0000F4 GR
  0 A$end_game_state$338                                           0000F6 GR
  0 A$end_game_state$339                                           0000F9 GR
  0 A$end_game_state$343                                           0000FC GR
  0 A$end_game_state$348                                           0000FF GR
  0 A$end_game_state$349                                           000102 GR
  0 A$end_game_state$350                                           000105 GR
  0 A$end_game_state$351                                           000106 GR
  0 A$end_game_state$352                                           000108 GR
  0 A$end_game_state$356                                           00010A GR
  0 A$end_game_state$360                                           00010D GR
  0 A$end_game_state$361                                           000110 GR
ASxxxx Assembler V02.00 + NoICE + SDCC mods  (Zilog Z80 / Hitachi HD64180 / ZX-Next / eZ80)                   Page 3
Hexadecimal [24-Bits]

Symbol Table

  0 A$end_game_state$366                                           000112 GR
  0 A$end_game_state$367                                           000115 GR
  0 A$end_game_state$368                                           000117 GR
  0 A$end_game_state$373                                           000118 GR
  0 A$end_game_state$374                                           00011B GR
  0 A$end_game_state$375                                           00011D GR
  0 A$end_game_state$379                                           00011F GR
  0 A$end_game_state$383                                           000122 GR
  0 A$end_game_state$384                                           000125 GR
  0 A$end_game_state$389                                           000128 GR
  0 A$end_game_state$390                                           00012B GR
  0 A$end_game_state$391                                           00012E GR
  0 A$end_game_state$392                                           00012F GR
  0 A$end_game_state$393                                           000131 GR
  0 A$end_game_state$397                                           000133 GR
  0 A$end_game_state$398                                           000136 GR
  0 A$end_game_state$403                                           000138 GR
  0 A$end_game_state$407                                           00013B GR
  0 A$end_game_state$411                                           00013E GR
  0 A$end_game_state$412                                           000141 GR
  0 A$end_game_state$416                                           000143 GR
  0 A$end_game_state$417                                           000146 GR
  0 A$end_game_state$421                                           000149 GR
  0 A$end_game_state$426                                           00014C GR
  0 A$end_game_state$427                                           00014F GR
  0 A$end_game_state$428                                           000152 GR
  0 A$end_game_state$429                                           000153 GR
  0 A$end_game_state$430                                           000155 GR
  0 A$end_game_state$434                                           000156 GR
  0 A$end_game_state$435                                           000159 GR
  0 A$end_game_state$440                                           00015B GR
  0 A$end_game_state$441                                           00015E GR
  0 A$end_game_state$442                                           000160 GR
  0 A$end_game_state$446                                           000161 GR
  0 A$end_game_state$450                                           000164 GR
  0 A$end_game_state$458                                           000166 GR
  0 A$end_game_state$471                                           000169 GR
  0 A$end_game_state$482                                           00016C GR
  0 A$end_game_state$88                                            000000 GR
  0 A$end_game_state$89                                            000003 GR
  0 A$end_game_state$93                                            000006 GR
  0 A$end_game_state$94                                            000009 GR
  0 A$end_game_state$98                                            00000B GR
  0 A$end_game_state$99                                            00000E GR
  0 C$end_game_state.c$16$0_0$133                               =  000000 GR
  0 C$end_game_state.c$17$1_0$133                               =  000000 GR
  0 C$end_game_state.c$18$1_0$133                               =  000006 GR
  0 C$end_game_state.c$19$1_0$133                               =  00000B GR
  0 C$end_game_state.c$20$1_0$133                               =  000010 GR
  0 C$end_game_state.c$21$1_0$133                               =  000013 GR
  0 C$end_game_state.c$22$1_0$133                               =  000016 GR
  0 C$end_game_state.c$23$1_0$133                               =  00001D GR
  0 C$end_game_state.c$24$1_0$133                               =  000024 GR
  0 C$end_game_state.c$25$1_0$133                               =  000026 GR
  0 C$end_game_state.c$27$1_0$135                               =  000029 GR
ASxxxx Assembler V02.00 + NoICE + SDCC mods  (Zilog Z80 / Hitachi HD64180 / ZX-Next / eZ80)                   Page 4
Hexadecimal [24-Bits]

Symbol Table

  0 C$end_game_state.c$28$1_0$135                               =  000029 GR
  0 C$end_game_state.c$29$2_0$136                               =  00002F GR
  0 C$end_game_state.c$30$2_0$136                               =  000034 GR
  0 C$end_game_state.c$31$2_0$136                               =  000037 GR
  0 C$end_game_state.c$32$2_0$136                               =  00003A GR
  0 C$end_game_state.c$33$2_0$136                               =  000041 GR
  0 C$end_game_state.c$34$2_0$136                               =  000048 GR
  0 C$end_game_state.c$35$2_0$136                               =  00004B GR
  0 C$end_game_state.c$36$1_0$135                               =  000051 GR
  0 C$end_game_state.c$37$2_0$137                               =  000058 GR
  0 C$end_game_state.c$38$3_0$138                               =  000066 GR
  0 C$end_game_state.c$39$3_0$138                               =  00006B GR
  0 C$end_game_state.c$40$3_0$138                               =  000071 GR
  0 C$end_game_state.c$42$2_0$137                               =  000087 GR
  0 C$end_game_state.c$43$3_0$139                               =  00008F GR
  0 C$end_game_state.c$44$3_0$139                               =  0000A3 GR
  0 C$end_game_state.c$45$3_0$139                               =  0000AA GR
  0 C$end_game_state.c$50$4_0$140                               =  0000C3 GR
  0 C$end_game_state.c$51$4_0$140                               =  0000C3 GR
  0 C$end_game_state.c$52$4_0$140                               =  0000C6 GR
  0 C$end_game_state.c$53$4_0$140                               =  0000C9 GR
  0 C$end_game_state.c$54$4_0$140                               =  0000CC GR
  0 C$end_game_state.c$55$4_0$140                               =  0000CC GR
  0 C$end_game_state.c$56$4_0$140                               =  0000CF GR
  0 C$end_game_state.c$60$2_0$137                               =  0000D6 GR
  0 C$end_game_state.c$62$2_0$137                               =  0000D6 GR
  0 C$end_game_state.c$63$1_0$135                               =  0000D9 GR
  0 C$end_game_state.c$64$2_0$141                               =  0000E0 GR
  0 C$end_game_state.c$65$2_0$141                               =  0000E6 GR
  0 C$end_game_state.c$66$3_0$142                               =  0000F1 GR
  0 C$end_game_state.c$68$2_0$141                               =  0000F6 GR
  0 C$end_game_state.c$69$2_0$141                               =  0000FC GR
  0 C$end_game_state.c$70$2_0$141                               =  0000FF GR
  0 C$end_game_state.c$71$3_0$143                               =  00010A GR
  0 C$end_game_state.c$72$3_0$143                               =  00010D GR
  0 C$end_game_state.c$74$2_0$141                               =  000112 GR
  0 C$end_game_state.c$75$1_0$135                               =  000118 GR
  0 C$end_game_state.c$76$2_0$144                               =  00011F GR
  0 C$end_game_state.c$77$2_0$144                               =  000122 GR
  0 C$end_game_state.c$78$2_0$144                               =  000128 GR
  0 C$end_game_state.c$79$3_0$145                               =  000133 GR
  0 C$end_game_state.c$81$2_0$144                               =  000138 GR
  0 C$end_game_state.c$82$2_0$144                               =  00013B GR
  0 C$end_game_state.c$83$2_0$144                               =  00013E GR
  0 C$end_game_state.c$84$2_0$144                               =  000143 GR
  0 C$end_game_state.c$85$2_0$144                               =  000149 GR
  0 C$end_game_state.c$86$2_0$144                               =  00014C GR
  0 C$end_game_state.c$87$3_0$146                               =  000156 GR
  0 C$end_game_state.c$89$1_0$135                               =  00015B GR
  0 C$end_game_state.c$90$2_0$147                               =  000161 GR
  0 C$end_game_state.c$91$2_0$147                               =  000164 GR
  0 C$end_game_state.c$93$1_0$135                               =  000166 GR
  0 C$end_game_state.c$95$1_0$149                               =  000169 GR
  0 C$end_game_state.c$96$1_0$149                               =  000169 GR
  0 C$end_game_state.c$97$1_0$149                               =  00016C GR
ASxxxx Assembler V02.00 + NoICE + SDCC mods  (Zilog Z80 / Hitachi HD64180 / ZX-Next / eZ80)                   Page 5
Hexadecimal [24-Bits]

Symbol Table

  0 C$end_game_state.c$98$1_0$149                               =  00016C GR
  7 Fend_game_state$__xinit_end_currentLine$0_0$0               =  000001 GR
  7 Fend_game_state$__xinit_end_state_status$0_0$0              =  000000 GR
  2 G$end_currentLine$0_0$0                                     =  000001 GR
  0 G$end_game_state_start$0$0                                  =  000000 GR
  0 G$end_game_state_stop$0$0                                   =  000169 GR
  0 G$end_game_state_update$0$0                                 =  000029 GR
  2 G$end_state_status$0_0$0                                    =  000000 GR
  0 XG$end_game_state_start$0$0                                 =  000026 GR
  0 XG$end_game_state_stop$0$0                                  =  00016C GR
  0 XG$end_game_state_update$0$0                                =  000166 GR
    _PSGSFXStop                                                    ****** GX
    _PSGStop                                                       ****** GX
  7 __xinit__end_currentLine                                       000001 R
  7 __xinit__end_state_status                                      000000 R
    _background_fade_in                                            ****** GX
    _background_fade_out                                           ****** GX
    _clear_cursor_sprites                                          ****** GX
    _clear_tilemap                                                 ****** GX
    _create_dialog_box                                             ****** GX
    _currentScrollColumn                                           ****** GX
  2 _end_currentLine                                               000001 GR
  0 _end_game_state_start                                          000000 GR
  0 _end_game_state_stop                                           000169 GR
  0 _end_game_state_update                                         000029 GR
  2 _end_state_status                                              000000 GR
    _endingScrollFinish                                            ****** GX
    _ending_sprites                                                ****** GX
    _ending_update_face                                            ****** GX
    _frame_cnt                                                     ****** GX
    _load_ending1_assets                                           ****** GX
    _load_ending2_assets                                           ****** GX
    _load_tilemap                                                  ****** GX
    _load_tileset                                                  ****** GX
    _play_song                                                     ****** GX
    _scroll_ending                                                 ****** GX
    _scroll_x                                                      ****** GX
    _sprite_fade_in                                                ****** GX
    _sprite_fade_out                                               ****** GX
    _start_fadein_music                                            ****** GX
    _start_fadeout_music                                           ****** GX
    _transition_to_state                                           ****** GX
    _update_dialog_box                                             ****** GX
    _waitForFrame                                                  ****** GX

ASxxxx Assembler V02.00 + NoICE + SDCC mods  (Zilog Z80 / Hitachi HD64180 / ZX-Next / eZ80)                   Page 6
Hexadecimal [24-Bits]

Area Table

   0 _CODE                                      size    16F   flags    0
   1 _DATA                                      size      0   flags    0
   2 _INITIALIZED                               size      2   flags    0
   3 _DABS                                      size      0   flags    8
   4 _HOME                                      size      0   flags    0
   5 _GSINIT                                    size      0   flags    0
   6 _GSFINAL                                   size      0   flags    0
   7 _INITIALIZER                               size      2   flags    0
   8 _CABS                                      size      0   flags    8

