                                      1 ;--------------------------------------------------------
                                      2 ; File Created by SDCC : free open source ISO C Compiler 
                                      3 ; Version 4.2.12 #13827 (Linux)
                                      4 ;--------------------------------------------------------
                                      5 	.module game
                                      6 	.optsdcc -mz80
                                      7 	
                                      8 ;--------------------------------------------------------
                                      9 ; Public variables in this module
                                     10 ;--------------------------------------------------------
                                     11 	.globl ___SMS__SDSC_signature
                                     12 	.globl ___SMS__SDSC_descr
                                     13 	.globl ___SMS__SDSC_name
                                     14 	.globl ___SMS__SDSC_author
                                     15 	.globl ___SMS__SEGA_signature
                                     16 	.globl _main
                                     17 	.globl _update_state
                                     18 	.globl _init_states
                                     19 	.globl _init_game
                                     20 	.globl _SMS_SRAM
                                     21 	.globl _SRAM_bank_to_be_mapped_on_slot2
                                     22 	.globl _ROM_bank_to_be_mapped_on_slot0
                                     23 	.globl _ROM_bank_to_be_mapped_on_slot1
                                     24 	.globl _ROM_bank_to_be_mapped_on_slot2
                                     25 ;--------------------------------------------------------
                                     26 ; special function registers
                                     27 ;--------------------------------------------------------
                                     28 ;--------------------------------------------------------
                                     29 ; ram data
                                     30 ;--------------------------------------------------------
                                     31 	.area _DATA
                           00FFFF    32 G$ROM_bank_to_be_mapped_on_slot2$0_0$0 == 0xffff
                           00FFFF    33 _ROM_bank_to_be_mapped_on_slot2	=	0xffff
                           00FFFE    34 G$ROM_bank_to_be_mapped_on_slot1$0_0$0 == 0xfffe
                           00FFFE    35 _ROM_bank_to_be_mapped_on_slot1	=	0xfffe
                           00FFFD    36 G$ROM_bank_to_be_mapped_on_slot0$0_0$0 == 0xfffd
                           00FFFD    37 _ROM_bank_to_be_mapped_on_slot0	=	0xfffd
                           00FFFC    38 G$SRAM_bank_to_be_mapped_on_slot2$0_0$0 == 0xfffc
                           00FFFC    39 _SRAM_bank_to_be_mapped_on_slot2	=	0xfffc
                           008000    40 G$SMS_SRAM$0_0$0 == 0x8000
                           008000    41 _SMS_SRAM	=	0x8000
                                     42 ;--------------------------------------------------------
                                     43 ; ram data
                                     44 ;--------------------------------------------------------
                                     45 	.area _INITIALIZED
                                     46 ;--------------------------------------------------------
                                     47 ; absolute external ram data
                                     48 ;--------------------------------------------------------
                                     49 	.area _DABS (ABS)
                                     50 ;--------------------------------------------------------
                                     51 ; global & static initialisations
                                     52 ;--------------------------------------------------------
                                     53 	.area _HOME
                                     54 	.area _GSINIT
                                     55 	.area _GSFINAL
                                     56 	.area _GSINIT
                                     57 ;--------------------------------------------------------
                                     58 ; Home
                                     59 ;--------------------------------------------------------
                                     60 	.area _HOME
                                     61 	.area _HOME
                                     62 ;--------------------------------------------------------
                                     63 ; code
                                     64 ;--------------------------------------------------------
                                     65 	.area _CODE
                           000000    66 	G$main$0$0	= .
                                     67 	.globl	G$main$0$0
                           000000    68 	C$game.c$10$0_0$99	= .
                                     69 	.globl	C$game.c$10$0_0$99
                                     70 ;src/game.c:10: void main(void) {
                                     71 ;	---------------------------------
                                     72 ; Function main
                                     73 ; ---------------------------------
      000000                         74 _main::
                           000000    75 	C$game.c$11$1_0$99	= .
                                     76 	.globl	C$game.c$11$1_0$99
                                     77 ;src/game.c:11: while(true) {
      000000                         78 00105$:
                           000000    79 	C$game.c$12$2_0$100	= .
                                     80 	.globl	C$game.c$12$2_0$100
                                     81 ;src/game.c:12: resetPressed = false;
      000000 21r00r00         [10]   82 	ld	hl, #_resetPressed
      000003 36 00            [10]   83 	ld	(hl), #0x00
                           000005    84 	C$game.c$13$2_0$100	= .
                                     85 	.globl	C$game.c$13$2_0$100
                                     86 ;src/game.c:13: init_game();
      000005 CDr00r00         [17]   87 	call	_init_game
                           000008    88 	C$game.c$14$2_0$100	= .
                                     89 	.globl	C$game.c$14$2_0$100
                                     90 ;src/game.c:14: init_states();
      000008 CDr00r00         [17]   91 	call	_init_states
                           00000B    92 	C$game.c$15$2_0$100	= .
                                     93 	.globl	C$game.c$15$2_0$100
                                     94 ;src/game.c:15: while(!resetPressed) {
      00000B                         95 00101$:
      00000B 21r00r00         [10]   96 	ld	hl, #_resetPressed
      00000E CB 46            [12]   97 	bit	0, (hl)
      000010 20 EE            [12]   98 	jr	NZ, 00105$
                           000012    99 	C$game.c$16$3_0$101	= .
                                    100 	.globl	C$game.c$16$3_0$101
                                    101 ;src/game.c:16: update_state();
      000012 CDr00r00         [17]  102 	call	_update_state
                           000015   103 	C$game.c$20$1_0$99	= .
                                    104 	.globl	C$game.c$20$1_0$99
                                    105 ;src/game.c:20: }
                           000015   106 	C$game.c$20$1_0$99	= .
                                    107 	.globl	C$game.c$20$1_0$99
                           000015   108 	XG$main$0$0	= .
                                    109 	.globl	XG$main$0$0
      000015 18 F4            [12]  110 	jr	00101$
                                    111 	.area _CODE
                           000017   112 Fgame$__str_0$0_0$0 == .
      000017                        113 __str_0:
      000017 54 75 78 65 64 6F 47   114 	.ascii "TuxedoGames"
             61 6D 65 73
      000022 00                     115 	.db 0x00
                           000023   116 Fgame$__str_1$0_0$0 == .
      000023                        117 __str_1:
      000023 47 4F 54 52 49 53      118 	.ascii "GOTRIS"
      000029 00                     119 	.db 0x00
                           00002A   120 Fgame$__str_2$0_0$0 == .
      00002A                        121 __str_2:
      00002A 54 65 74 72 69 73 20   122 	.ascii "Tetris meets GO - NTSC VERSION"
             6D 65 65 74 73 20 47
             4F 20 2D 20 4E 54 53
             43 20 56 45 52 53 49
             4F 4E
      000048 00                     123 	.db 0x00
                                    124 	.area _INITIALIZER
                                    125 	.area _CABS (ABS)
      007FF0                        126 	.org 0x7FF0
                           007FF0   127 G$__SMS__SEGA_signature$0_0$0 == .
      007FF0                        128 ___SMS__SEGA_signature:
      007FF0 54                     129 	.db #0x54	; 84	'T'
      007FF1 4D                     130 	.db #0x4d	; 77	'M'
      007FF2 52                     131 	.db #0x52	; 82	'R'
      007FF3 20                     132 	.db #0x20	; 32
      007FF4 53                     133 	.db #0x53	; 83	'S'
      007FF5 45                     134 	.db #0x45	; 69	'E'
      007FF6 47                     135 	.db #0x47	; 71	'G'
      007FF7 41                     136 	.db #0x41	; 65	'A'
      007FF8 FF                     137 	.db #0xff	; 255
      007FF9 FF                     138 	.db #0xff	; 255
      007FFA FF                     139 	.db #0xff	; 255
      007FFB FF                     140 	.db #0xff	; 255
      007FFC 99                     141 	.db #0x99	; 153
      007FFD 99                     142 	.db #0x99	; 153
      007FFE 00                     143 	.db #0x00	; 0
      007FFF 4C                     144 	.db #0x4c	; 76	'L'
      007FD4                        145 	.org 0x7FD4
                           007FD4   146 G$__SMS__SDSC_author$0_0$0 == .
      007FD4                        147 ___SMS__SDSC_author:
      007FD4 54 75 78 65 64 6F 47   148 	.ascii "TuxedoGames"
             61 6D 65 73
      007FDF 00                     149 	.db 0x00
      007FCD                        150 	.org 0x7FCD
                           007FCD   151 G$__SMS__SDSC_name$0_0$0 == .
      007FCD                        152 ___SMS__SDSC_name:
      007FCD 47 4F 54 52 49 53      153 	.ascii "GOTRIS"
      007FD3 00                     154 	.db 0x00
      007FAE                        155 	.org 0x7FAE
                           007FAE   156 G$__SMS__SDSC_descr$0_0$0 == .
      007FAE                        157 ___SMS__SDSC_descr:
      007FAE 54 65 74 72 69 73 20   158 	.ascii "Tetris meets GO - NTSC VERSION"
             6D 65 65 74 73 20 47
             4F 20 2D 20 4E 54 53
             43 20 56 45 52 53 49
             4F 4E
      007FCC 00                     159 	.db 0x00
      007FE0                        160 	.org 0x7FE0
                           007FE0   161 G$__SMS__SDSC_signature$0_0$0 == .
      007FE0                        162 ___SMS__SDSC_signature:
      007FE0 53                     163 	.db #0x53	; 83	'S'
      007FE1 44                     164 	.db #0x44	; 68	'D'
      007FE2 53                     165 	.db #0x53	; 83	'S'
      007FE3 43                     166 	.db #0x43	; 67	'C'
      007FE4 01                     167 	.db #0x01	; 1
      007FE5 03                     168 	.db #0x03	; 3
      007FE6 00                     169 	.db #0x00	; 0
      007FE7 00                     170 	.db #0x00	; 0
      007FE8 00                     171 	.db #0x00	; 0
      007FE9 00                     172 	.db #0x00	; 0
      007FEA D4                     173 	.db #0xd4	; 212
      007FEB 7F                     174 	.db #0x7f	; 127
      007FEC CD                     175 	.db #0xcd	; 205
      007FED 7F                     176 	.db #0x7f	; 127
      007FEE AE                     177 	.db #0xae	; 174
      007FEF 7F                     178 	.db #0x7f	; 127
