                                      1 ;--------------------------------------------------------
                                      2 ; File Created by SDCC : free open source ISO C Compiler 
                                      3 ; Version 4.2.12 #13827 (Linux)
                                      4 ;--------------------------------------------------------
                                      5 	.module input
                                      6 	.optsdcc -mz80
                                      7 	
                                      8 ;--------------------------------------------------------
                                      9 ; Public variables in this module
                                     10 ;--------------------------------------------------------
                                     11 	.globl _SMS_getKeysReleased
                                     12 	.globl _SMS_getKeysHeld
                                     13 	.globl _SMS_getKeysPressed
                                     14 	.globl _SMS_SRAM
                                     15 	.globl _SRAM_bank_to_be_mapped_on_slot2
                                     16 	.globl _ROM_bank_to_be_mapped_on_slot0
                                     17 	.globl _ROM_bank_to_be_mapped_on_slot1
                                     18 	.globl _ROM_bank_to_be_mapped_on_slot2
                                     19 	.globl _clear_input
                                     20 	.globl _update_input
                                     21 	.globl _getDirection
                                     22 	.globl _getRotation
                                     23 	.globl _getButtonsPressed
                                     24 ;--------------------------------------------------------
                                     25 ; special function registers
                                     26 ;--------------------------------------------------------
                                     27 ;--------------------------------------------------------
                                     28 ; ram data
                                     29 ;--------------------------------------------------------
                                     30 	.area _DATA
                           00FFFF    31 G$ROM_bank_to_be_mapped_on_slot2$0_0$0 == 0xffff
                           00FFFF    32 _ROM_bank_to_be_mapped_on_slot2	=	0xffff
                           00FFFE    33 G$ROM_bank_to_be_mapped_on_slot1$0_0$0 == 0xfffe
                           00FFFE    34 _ROM_bank_to_be_mapped_on_slot1	=	0xfffe
                           00FFFD    35 G$ROM_bank_to_be_mapped_on_slot0$0_0$0 == 0xfffd
                           00FFFD    36 _ROM_bank_to_be_mapped_on_slot0	=	0xfffd
                           00FFFC    37 G$SRAM_bank_to_be_mapped_on_slot2$0_0$0 == 0xfffc
                           00FFFC    38 _SRAM_bank_to_be_mapped_on_slot2	=	0xfffc
                           008000    39 G$SMS_SRAM$0_0$0 == 0x8000
                           008000    40 _SMS_SRAM	=	0x8000
                                     41 ;--------------------------------------------------------
                                     42 ; ram data
                                     43 ;--------------------------------------------------------
                                     44 	.area _INITIALIZED
                                     45 ;--------------------------------------------------------
                                     46 ; absolute external ram data
                                     47 ;--------------------------------------------------------
                                     48 	.area _DABS (ABS)
                                     49 ;--------------------------------------------------------
                                     50 ; global & static initialisations
                                     51 ;--------------------------------------------------------
                                     52 	.area _HOME
                                     53 	.area _GSINIT
                                     54 	.area _GSFINAL
                                     55 	.area _GSINIT
                                     56 ;--------------------------------------------------------
                                     57 ; Home
                                     58 ;--------------------------------------------------------
                                     59 	.area _HOME
                                     60 	.area _HOME
                                     61 ;--------------------------------------------------------
                                     62 ; code
                                     63 ;--------------------------------------------------------
                                     64 	.area _CODE
                           000000    65 	G$clear_input$0$0	= .
                                     66 	.globl	G$clear_input$0$0
                           000000    67 	C$input.c$8$0_0$84	= .
                                     68 	.globl	C$input.c$8$0_0$84
                                     69 ;src/engine/input.c:8: void clear_input(void) {
                                     70 ;	---------------------------------
                                     71 ; Function clear_input
                                     72 ; ---------------------------------
      000000                         73 _clear_input::
                           000000    74 	C$input.c$9$1_0$84	= .
                                     75 	.globl	C$input.c$9$1_0$84
                                     76 ;src/engine/input.c:9: movement_direction = 0; 
      000000 21 00 00         [10]   77 	ld	hl, #0x0000
      000003 22r00r00         [16]   78 	ld	(_movement_direction), hl
                           000006    79 	C$input.c$10$1_0$84	= .
                                     80 	.globl	C$input.c$10$1_0$84
                                     81 ;src/engine/input.c:10: rotation_input = 0;
      000006 22r00r00         [16]   82 	ld	(_rotation_input), hl
                           000009    83 	C$input.c$11$1_0$84	= .
                                     84 	.globl	C$input.c$11$1_0$84
                                     85 ;src/engine/input.c:11: button_input = 0;
      000009 22r00r00         [16]   86 	ld	(_button_input), hl
                           00000C    87 	C$input.c$12$1_0$84	= .
                                     88 	.globl	C$input.c$12$1_0$84
                                     89 ;src/engine/input.c:12: repeat_movement = 0;
      00000C 22r00r00         [16]   90 	ld	(_repeat_movement), hl
                           00000F    91 	C$input.c$13$1_0$84	= .
                                     92 	.globl	C$input.c$13$1_0$84
                                     93 ;src/engine/input.c:13: repeat_rotation = 0; 
      00000F 22r00r00         [16]   94 	ld	(_repeat_rotation), hl
                           000012    95 	C$input.c$14$1_0$84	= .
                                     96 	.globl	C$input.c$14$1_0$84
                                     97 ;src/engine/input.c:14: }
                           000012    98 	C$input.c$14$1_0$84	= .
                                     99 	.globl	C$input.c$14$1_0$84
                           000012   100 	XG$clear_input$0$0	= .
                                    101 	.globl	XG$clear_input$0$0
      000012 C9               [10]  102 	ret
                           000013   103 	G$update_input$0$0	= .
                                    104 	.globl	G$update_input$0$0
                           000013   105 	C$input.c$16$1_0$86	= .
                                    106 	.globl	C$input.c$16$1_0$86
                                    107 ;src/engine/input.c:16: void update_input(void) {
                                    108 ;	---------------------------------
                                    109 ; Function update_input
                                    110 ; ---------------------------------
      000013                        111 _update_input::
      000013 DD E5            [15]  112 	push	ix
      000015 DD 21 00 00      [14]  113 	ld	ix,#0
      000019 DD 39            [15]  114 	add	ix,sp
      00001B 21 EA FF         [10]  115 	ld	hl, #-22
      00001E 39               [11]  116 	add	hl, sp
      00001F F9               [ 6]  117 	ld	sp, hl
                           000020   118 	C$input.c$17$1_0$86	= .
                                    119 	.globl	C$input.c$17$1_0$86
                                    120 ;src/engine/input.c:17: u16 keys_pressed = SMS_getKeysPressed();
      000020 CDr00r00         [17]  121 	call	_SMS_getKeysPressed
      000023 33               [ 6]  122 	inc	sp
      000024 33               [ 6]  123 	inc	sp
      000025 D5               [11]  124 	push	de
                           000026   125 	C$input.c$18$1_0$86	= .
                                    126 	.globl	C$input.c$18$1_0$86
                                    127 ;src/engine/input.c:18: u16 keys_held = SMS_getKeysHeld(); 
      000026 CDr00r00         [17]  128 	call	_SMS_getKeysHeld
      000029 DD 73 EC         [19]  129 	ld	-20 (ix), e
      00002C DD 72 ED         [19]  130 	ld	-19 (ix), d
                           00002F   131 	C$input.c$19$1_0$86	= .
                                    132 	.globl	C$input.c$19$1_0$86
                                    133 ;src/engine/input.c:19: u16 keys_released = SMS_getKeysReleased();
      00002F CDr00r00         [17]  134 	call	_SMS_getKeysReleased
      000032 DD 73 EE         [19]  135 	ld	-18 (ix), e
      000035 DD 72 EF         [19]  136 	ld	-17 (ix), d
                           000038   137 	C$input.c$22$1_0$86	= .
                                    138 	.globl	C$input.c$22$1_0$86
                                    139 ;src/engine/input.c:22: if(current_player == PLAYER_1) {
      000038 3Ar00r00         [13]  140 	ld	a, (_current_player+0)
      00003B B7               [ 4]  141 	or	a, a
      00003C 20 2A            [12]  142 	jr	NZ, 00102$
                           00003E   143 	C$input.c$23$2_0$87	= .
                                    144 	.globl	C$input.c$23$2_0$87
                                    145 ;src/engine/input.c:23: KEY_DOWN = KEY_DOWN_P1;
      00003E DD 36 F0 02      [19]  146 	ld	-16 (ix), #0x02
      000042 DD 36 F1 00      [19]  147 	ld	-15 (ix), #0
                           000046   148 	C$input.c$24$2_0$87	= .
                                    149 	.globl	C$input.c$24$2_0$87
                                    150 ;src/engine/input.c:24: KEY_LEFT = KEY_LEFT_P1;
      000046 DD 36 F2 04      [19]  151 	ld	-14 (ix), #0x04
      00004A DD 36 F3 00      [19]  152 	ld	-13 (ix), #0
                           00004E   153 	C$input.c$25$2_0$87	= .
                                    154 	.globl	C$input.c$25$2_0$87
                                    155 ;src/engine/input.c:25: KEY_RIGHT = KEY_RIGHT_P1;
      00004E DD 36 F4 08      [19]  156 	ld	-12 (ix), #0x08
      000052 DD 36 F5 00      [19]  157 	ld	-11 (ix), #0
                           000056   158 	C$input.c$26$2_0$87	= .
                                    159 	.globl	C$input.c$26$2_0$87
                                    160 ;src/engine/input.c:26: KEY_ONE = KEY_ONE_P1;
      000056 DD 36 F6 10      [19]  161 	ld	-10 (ix), #0x10
      00005A DD 36 F7 00      [19]  162 	ld	-9 (ix), #0
                           00005E   163 	C$input.c$27$2_0$87	= .
                                    164 	.globl	C$input.c$27$2_0$87
                                    165 ;src/engine/input.c:27: KEY_TWO = KEY_TWO_P1;
      00005E DD 36 F8 20      [19]  166 	ld	-8 (ix), #0x20
      000062 DD 36 F9 00      [19]  167 	ld	-7 (ix), #0
      000066 18 28            [12]  168 	jr	00103$
      000068                        169 00102$:
                           000068   170 	C$input.c$29$2_0$88	= .
                                    171 	.globl	C$input.c$29$2_0$88
                                    172 ;src/engine/input.c:29: KEY_DOWN = KEY_DOWN_P2;
      000068 DD 36 F0 80      [19]  173 	ld	-16 (ix), #0x80
      00006C DD 36 F1 00      [19]  174 	ld	-15 (ix), #0
                           000070   175 	C$input.c$30$2_0$88	= .
                                    176 	.globl	C$input.c$30$2_0$88
                                    177 ;src/engine/input.c:30: KEY_LEFT = KEY_LEFT_P2;
      000070 DD 36 F2 00      [19]  178 	ld	-14 (ix), #0x00
      000074 DD 36 F3 01      [19]  179 	ld	-13 (ix), #0x01
                           000078   180 	C$input.c$31$2_0$88	= .
                                    181 	.globl	C$input.c$31$2_0$88
                                    182 ;src/engine/input.c:31: KEY_RIGHT = KEY_RIGHT_P2;
      000078 DD 36 F4 00      [19]  183 	ld	-12 (ix), #0x00
      00007C DD 36 F5 02      [19]  184 	ld	-11 (ix), #0x02
                           000080   185 	C$input.c$32$2_0$88	= .
                                    186 	.globl	C$input.c$32$2_0$88
                                    187 ;src/engine/input.c:32: KEY_ONE = KEY_ONE_P2;
      000080 DD 36 F6 00      [19]  188 	ld	-10 (ix), #0x00
      000084 DD 36 F7 04      [19]  189 	ld	-9 (ix), #0x04
                           000088   190 	C$input.c$33$2_0$88	= .
                                    191 	.globl	C$input.c$33$2_0$88
                                    192 ;src/engine/input.c:33: KEY_TWO = KEY_TWO_P2;
      000088 DD 36 F8 00      [19]  193 	ld	-8 (ix), #0x00
      00008C DD 36 F9 08      [19]  194 	ld	-7 (ix), #0x08
      000090                        195 00103$:
                           000090   196 	C$input.c$36$1_0$86	= .
                                    197 	.globl	C$input.c$36$1_0$86
                                    198 ;src/engine/input.c:36: if(keys_pressed != 0) {
      000090 DD 7E EB         [19]  199 	ld	a, -21 (ix)
      000093 DD B6 EA         [19]  200 	or	a, -22 (ix)
      000096 CAr4Fr02         [10]  201 	jp	Z, 00155$
                           000099   202 	C$input.c$37$2_0$89	= .
                                    203 	.globl	C$input.c$37$2_0$89
                                    204 ;src/engine/input.c:37: button_input = keys_pressed;
      000099 E1               [10]  205 	pop	hl
      00009A E5               [11]  206 	push	hl
      00009B 22r00r00         [16]  207 	ld	(_button_input), hl
                           00009E   208 	C$input.c$39$1_0$86	= .
                                    209 	.globl	C$input.c$39$1_0$86
                                    210 ;src/engine/input.c:39: if(keys_pressed & KEY_DOWN) {
      00009E DD 7E EA         [19]  211 	ld	a, -22 (ix)
      0000A1 DD A6 F0         [19]  212 	and	a, -16 (ix)
      0000A4 DD 77 FA         [19]  213 	ld	-6 (ix), a
      0000A7 DD 7E EB         [19]  214 	ld	a, -21 (ix)
      0000AA DD A6 F1         [19]  215 	and	a, -15 (ix)
      0000AD DD 77 FB         [19]  216 	ld	-5 (ix), a
                           0000B0   217 	C$input.c$43$1_0$86	= .
                                    218 	.globl	C$input.c$43$1_0$86
                                    219 ;src/engine/input.c:43: } else if((keys_pressed & KEY_LEFT) && !(keys_pressed & KEY_RIGHT)) {
      0000B0 DD 7E EA         [19]  220 	ld	a, -22 (ix)
      0000B3 DD A6 F2         [19]  221 	and	a, -14 (ix)
      0000B6 DD 77 FC         [19]  222 	ld	-4 (ix), a
      0000B9 DD 7E EB         [19]  223 	ld	a, -21 (ix)
      0000BC DD A6 F3         [19]  224 	and	a, -13 (ix)
      0000BF DD 77 FD         [19]  225 	ld	-3 (ix), a
      0000C2 DD 7E EA         [19]  226 	ld	a, -22 (ix)
      0000C5 DD A6 F4         [19]  227 	and	a, -12 (ix)
      0000C8 DD 77 FE         [19]  228 	ld	-2 (ix), a
      0000CB DD 7E EB         [19]  229 	ld	a, -21 (ix)
      0000CE DD A6 F5         [19]  230 	and	a, -11 (ix)
      0000D1 DD 77 FF         [19]  231 	ld	-1 (ix), a
                           0000D4   232 	C$input.c$38$2_0$89	= .
                                    233 	.globl	C$input.c$38$2_0$89
                                    234 ;src/engine/input.c:38: if(movement_direction == 0) {
      0000D4 3Ar01r00         [13]  235 	ld	a, (_movement_direction+1)
      0000D7 21r00r00         [10]  236 	ld	hl, #_movement_direction
      0000DA B6               [ 7]  237 	or	a, (hl)
      0000DB 20 59            [12]  238 	jr	NZ, 00129$
                           0000DD   239 	C$input.c$39$3_0$90	= .
                                    240 	.globl	C$input.c$39$3_0$90
                                    241 ;src/engine/input.c:39: if(keys_pressed & KEY_DOWN) {
      0000DD DD 7E FB         [19]  242 	ld	a, -5 (ix)
      0000E0 DD B6 FA         [19]  243 	or	a, -6 (ix)
      0000E3 28 10            [12]  244 	jr	Z, 00112$
                           0000E5   245 	C$input.c$40$4_0$91	= .
                                    246 	.globl	C$input.c$40$4_0$91
                                    247 ;src/engine/input.c:40: movement_direction = DOWN_ACTION;
      0000E5 21 02 00         [10]  248 	ld	hl, #0x0002
      0000E8 22r00r00         [16]  249 	ld	(_movement_direction), hl
                           0000EB   250 	C$input.c$41$4_0$91	= .
                                    251 	.globl	C$input.c$41$4_0$91
                                    252 ;src/engine/input.c:41: input_cnt_direction =  0;
      0000EB 6C               [ 4]  253 	ld	l, h
      0000EC 22r00r00         [16]  254 	ld	(_input_cnt_direction), hl
                           0000EF   255 	C$input.c$42$4_0$91	= .
                                    256 	.globl	C$input.c$42$4_0$91
                                    257 ;src/engine/input.c:42: repeat_movement = 0;
      0000EF 22r00r00         [16]  258 	ld	(_repeat_movement), hl
      0000F2 C3rA7r01         [10]  259 	jp	00130$
      0000F5                        260 00112$:
                           0000F5   261 	C$input.c$43$3_0$90	= .
                                    262 	.globl	C$input.c$43$3_0$90
                                    263 ;src/engine/input.c:43: } else if((keys_pressed & KEY_LEFT) && !(keys_pressed & KEY_RIGHT)) {
      0000F5 DD 7E FD         [19]  264 	ld	a, -3 (ix)
      0000F8 DD B6 FC         [19]  265 	or	a, -4 (ix)
      0000FB 28 18            [12]  266 	jr	Z, 00108$
      0000FD DD 7E FF         [19]  267 	ld	a, -1 (ix)
      000100 DD B6 FE         [19]  268 	or	a, -2 (ix)
      000103 20 10            [12]  269 	jr	NZ, 00108$
                           000105   270 	C$input.c$44$4_0$92	= .
                                    271 	.globl	C$input.c$44$4_0$92
                                    272 ;src/engine/input.c:44: movement_direction = LEFT_ACTION;
      000105 21 04 00         [10]  273 	ld	hl, #0x0004
      000108 22r00r00         [16]  274 	ld	(_movement_direction), hl
                           00010B   275 	C$input.c$45$4_0$92	= .
                                    276 	.globl	C$input.c$45$4_0$92
                                    277 ;src/engine/input.c:45: input_cnt_direction =  0;
      00010B 6C               [ 4]  278 	ld	l, h
      00010C 22r00r00         [16]  279 	ld	(_input_cnt_direction), hl
                           00010F   280 	C$input.c$46$4_0$92	= .
                                    281 	.globl	C$input.c$46$4_0$92
                                    282 ;src/engine/input.c:46: repeat_movement = 0;
      00010F 22r00r00         [16]  283 	ld	(_repeat_movement), hl
      000112 C3rA7r01         [10]  284 	jp	00130$
      000115                        285 00108$:
                           000115   286 	C$input.c$47$3_0$90	= .
                                    287 	.globl	C$input.c$47$3_0$90
                                    288 ;src/engine/input.c:47: } else if((keys_pressed & KEY_RIGHT) && !(keys_pressed & KEY_LEFT)) {
      000115 DD 7E FF         [19]  289 	ld	a, -1 (ix)
      000118 DD B6 FE         [19]  290 	or	a, -2 (ix)
      00011B CArA7r01         [10]  291 	jp	Z, 00130$
      00011E DD 7E FD         [19]  292 	ld	a, -3 (ix)
      000121 DD B6 FC         [19]  293 	or	a, -4 (ix)
      000124 C2rA7r01         [10]  294 	jp	NZ, 00130$
                           000127   295 	C$input.c$48$4_0$93	= .
                                    296 	.globl	C$input.c$48$4_0$93
                                    297 ;src/engine/input.c:48: movement_direction = RIGHT_ACTION;
      000127 21 08 00         [10]  298 	ld	hl, #0x0008
      00012A 22r00r00         [16]  299 	ld	(_movement_direction), hl
                           00012D   300 	C$input.c$49$4_0$93	= .
                                    301 	.globl	C$input.c$49$4_0$93
                                    302 ;src/engine/input.c:49: input_cnt_direction =  0;
      00012D 6C               [ 4]  303 	ld	l, h
      00012E 22r00r00         [16]  304 	ld	(_input_cnt_direction), hl
                           000131   305 	C$input.c$50$4_0$93	= .
                                    306 	.globl	C$input.c$50$4_0$93
                                    307 ;src/engine/input.c:50: repeat_movement = 0;
      000131 22r00r00         [16]  308 	ld	(_repeat_movement), hl
      000134 18 71            [12]  309 	jr	00130$
      000136                        310 00129$:
                           000136   311 	C$input.c$53$3_0$94	= .
                                    312 	.globl	C$input.c$53$3_0$94
                                    313 ;src/engine/input.c:53: if(keys_pressed & KEY_DOWN) {
      000136 DD 7E FB         [19]  314 	ld	a, -5 (ix)
      000139 DD B6 FA         [19]  315 	or	a, -6 (ix)
      00013C 28 0F            [12]  316 	jr	Z, 00126$
                           00013E   317 	C$input.c$54$4_0$95	= .
                                    318 	.globl	C$input.c$54$4_0$95
                                    319 ;src/engine/input.c:54: movement_direction = DOWN_ACTION;
      00013E 21 02 00         [10]  320 	ld	hl, #0x0002
      000141 22r00r00         [16]  321 	ld	(_movement_direction), hl
                           000144   322 	C$input.c$55$4_0$95	= .
                                    323 	.globl	C$input.c$55$4_0$95
                                    324 ;src/engine/input.c:55: repeat_movement = 0;
      000144 6C               [ 4]  325 	ld	l, h
      000145 22r00r00         [16]  326 	ld	(_repeat_movement), hl
                           000148   327 	C$input.c$56$4_0$95	= .
                                    328 	.globl	C$input.c$56$4_0$95
                                    329 ;src/engine/input.c:56: input_cnt_direction = 0;
      000148 22r00r00         [16]  330 	ld	(_input_cnt_direction), hl
      00014B 18 5A            [12]  331 	jr	00130$
      00014D                        332 00126$:
                           00014D   333 	C$input.c$57$3_0$94	= .
                                    334 	.globl	C$input.c$57$3_0$94
                                    335 ;src/engine/input.c:57: } else if(movement_direction & KEY_LEFT) {
      00014D 3Ar00r00         [13]  336 	ld	a, (_movement_direction+0)
      000150 DD A6 F2         [19]  337 	and	a, -14 (ix)
      000153 4F               [ 4]  338 	ld	c, a
      000154 3Ar01r00         [13]  339 	ld	a, (_movement_direction+1)
      000157 DD A6 F3         [19]  340 	and	a, -13 (ix)
      00015A B1               [ 4]  341 	or	a, c
      00015B 28 1E            [12]  342 	jr	Z, 00123$
                           00015D   343 	C$input.c$58$4_0$96	= .
                                    344 	.globl	C$input.c$58$4_0$96
                                    345 ;src/engine/input.c:58: if((keys_pressed & KEY_RIGHT) && !(keys_pressed & KEY_LEFT)) {
      00015D DD 7E FF         [19]  346 	ld	a, -1 (ix)
      000160 DD B6 FE         [19]  347 	or	a, -2 (ix)
      000163 28 42            [12]  348 	jr	Z, 00130$
      000165 DD 7E FD         [19]  349 	ld	a, -3 (ix)
      000168 DD B6 FC         [19]  350 	or	a, -4 (ix)
      00016B 20 3A            [12]  351 	jr	NZ, 00130$
                           00016D   352 	C$input.c$59$5_0$97	= .
                                    353 	.globl	C$input.c$59$5_0$97
                                    354 ;src/engine/input.c:59: movement_direction = 0;
      00016D 21 00 00         [10]  355 	ld	hl, #0x0000
      000170 22r00r00         [16]  356 	ld	(_movement_direction), hl
                           000173   357 	C$input.c$60$5_0$97	= .
                                    358 	.globl	C$input.c$60$5_0$97
                                    359 ;src/engine/input.c:60: repeat_movement = 0;
      000173 22r00r00         [16]  360 	ld	(_repeat_movement), hl
                           000176   361 	C$input.c$61$5_0$97	= .
                                    362 	.globl	C$input.c$61$5_0$97
                                    363 ;src/engine/input.c:61: input_cnt_direction = 0;
      000176 22r00r00         [16]  364 	ld	(_input_cnt_direction), hl
      000179 18 2C            [12]  365 	jr	00130$
      00017B                        366 00123$:
                           00017B   367 	C$input.c$63$3_0$94	= .
                                    368 	.globl	C$input.c$63$3_0$94
                                    369 ;src/engine/input.c:63: } else if(movement_direction & KEY_RIGHT) {
      00017B 3Ar00r00         [13]  370 	ld	a, (_movement_direction+0)
      00017E DD A6 F4         [19]  371 	and	a, -12 (ix)
      000181 4F               [ 4]  372 	ld	c, a
      000182 3Ar01r00         [13]  373 	ld	a, (_movement_direction+1)
      000185 DD A6 F5         [19]  374 	and	a, -11 (ix)
      000188 B1               [ 4]  375 	or	a, c
      000189 28 1C            [12]  376 	jr	Z, 00130$
                           00018B   377 	C$input.c$64$4_0$98	= .
                                    378 	.globl	C$input.c$64$4_0$98
                                    379 ;src/engine/input.c:64: if((keys_pressed & KEY_LEFT) && !(keys_pressed & KEY_RIGHT)) {
      00018B DD 7E FD         [19]  380 	ld	a, -3 (ix)
      00018E DD B6 FC         [19]  381 	or	a, -4 (ix)
      000191 28 14            [12]  382 	jr	Z, 00130$
      000193 DD 7E FF         [19]  383 	ld	a, -1 (ix)
      000196 DD B6 FE         [19]  384 	or	a, -2 (ix)
      000199 20 0C            [12]  385 	jr	NZ, 00130$
                           00019B   386 	C$input.c$65$5_0$99	= .
                                    387 	.globl	C$input.c$65$5_0$99
                                    388 ;src/engine/input.c:65: movement_direction = 0;
      00019B 21 00 00         [10]  389 	ld	hl, #0x0000
      00019E 22r00r00         [16]  390 	ld	(_movement_direction), hl
                           0001A1   391 	C$input.c$66$5_0$99	= .
                                    392 	.globl	C$input.c$66$5_0$99
                                    393 ;src/engine/input.c:66: repeat_movement = 0;
      0001A1 22r00r00         [16]  394 	ld	(_repeat_movement), hl
                           0001A4   395 	C$input.c$67$5_0$99	= .
                                    396 	.globl	C$input.c$67$5_0$99
                                    397 ;src/engine/input.c:67: input_cnt_direction = 0;
      0001A4 22r00r00         [16]  398 	ld	(_input_cnt_direction), hl
      0001A7                        399 00130$:
                           0001A7   400 	C$input.c$72$1_0$86	= .
                                    401 	.globl	C$input.c$72$1_0$86
                                    402 ;src/engine/input.c:72: if((keys_pressed & KEY_ONE) && !(keys_pressed & KEY_TWO)) {
      0001A7 DD 7E EA         [19]  403 	ld	a, -22 (ix)
      0001AA DD A6 F6         [19]  404 	and	a, -10 (ix)
      0001AD 4F               [ 4]  405 	ld	c, a
      0001AE DD 7E EB         [19]  406 	ld	a, -21 (ix)
      0001B1 DD A6 F7         [19]  407 	and	a, -9 (ix)
      0001B4 47               [ 4]  408 	ld	b, a
      0001B5 DD 7E EA         [19]  409 	ld	a, -22 (ix)
      0001B8 DD A6 F8         [19]  410 	and	a, -8 (ix)
      0001BB 5F               [ 4]  411 	ld	e, a
      0001BC DD 7E EB         [19]  412 	ld	a, -21 (ix)
      0001BF DD A6 F9         [19]  413 	and	a, -7 (ix)
      0001C2 57               [ 4]  414 	ld	d, a
                           0001C3   415 	C$input.c$71$2_0$89	= .
                                    416 	.globl	C$input.c$71$2_0$89
                                    417 ;src/engine/input.c:71: if(rotation_input == 0) {
      0001C3 3Ar01r00         [13]  418 	ld	a, (_rotation_input+1)
      0001C6 21r00r00         [10]  419 	ld	hl, #_rotation_input
      0001C9 B6               [ 7]  420 	or	a, (hl)
      0001CA 20 2E            [12]  421 	jr	NZ, 00150$
                           0001CC   422 	C$input.c$72$3_0$100	= .
                                    423 	.globl	C$input.c$72$3_0$100
                                    424 ;src/engine/input.c:72: if((keys_pressed & KEY_ONE) && !(keys_pressed & KEY_TWO)) {
      0001CC 78               [ 4]  425 	ld	a, b
      0001CD B1               [ 4]  426 	or	a, c
      0001CE 28 13            [12]  427 	jr	Z, 00135$
      0001D0 7A               [ 4]  428 	ld	a, d
      0001D1 B3               [ 4]  429 	or	a, e
      0001D2 20 0F            [12]  430 	jr	NZ, 00135$
                           0001D4   431 	C$input.c$73$4_0$101	= .
                                    432 	.globl	C$input.c$73$4_0$101
                                    433 ;src/engine/input.c:73: rotation_input = ROTATION_ONE;
      0001D4 21 10 00         [10]  434 	ld	hl, #0x0010
      0001D7 22r00r00         [16]  435 	ld	(_rotation_input), hl
                           0001DA   436 	C$input.c$74$4_0$101	= .
                                    437 	.globl	C$input.c$74$4_0$101
                                    438 ;src/engine/input.c:74: repeat_rotation = 0;
      0001DA 6C               [ 4]  439 	ld	l, h
      0001DB 22r00r00         [16]  440 	ld	(_repeat_rotation), hl
                           0001DE   441 	C$input.c$75$4_0$101	= .
                                    442 	.globl	C$input.c$75$4_0$101
                                    443 ;src/engine/input.c:75: input_cnt_rotation =  0;
      0001DE 22r00r00         [16]  444 	ld	(_input_cnt_rotation), hl
      0001E1 18 61            [12]  445 	jr	00151$
      0001E3                        446 00135$:
                           0001E3   447 	C$input.c$76$3_0$100	= .
                                    448 	.globl	C$input.c$76$3_0$100
                                    449 ;src/engine/input.c:76: } else if((keys_pressed & KEY_TWO) && !(keys_pressed & KEY_ONE)) {
      0001E3 7A               [ 4]  450 	ld	a, d
      0001E4 B3               [ 4]  451 	or	a, e
      0001E5 28 5D            [12]  452 	jr	Z, 00151$
      0001E7 78               [ 4]  453 	ld	a, b
      0001E8 B1               [ 4]  454 	or	a, c
      0001E9 20 59            [12]  455 	jr	NZ, 00151$
                           0001EB   456 	C$input.c$77$4_0$102	= .
                                    457 	.globl	C$input.c$77$4_0$102
                                    458 ;src/engine/input.c:77: rotation_input = ROTATION_TWO;
      0001EB 21 20 00         [10]  459 	ld	hl, #0x0020
      0001EE 22r00r00         [16]  460 	ld	(_rotation_input), hl
                           0001F1   461 	C$input.c$78$4_0$102	= .
                                    462 	.globl	C$input.c$78$4_0$102
                                    463 ;src/engine/input.c:78: repeat_rotation = 0;
      0001F1 6C               [ 4]  464 	ld	l, h
      0001F2 22r00r00         [16]  465 	ld	(_repeat_rotation), hl
                           0001F5   466 	C$input.c$79$4_0$102	= .
                                    467 	.globl	C$input.c$79$4_0$102
                                    468 ;src/engine/input.c:79: input_cnt_rotation =  0;
      0001F5 22r00r00         [16]  469 	ld	(_input_cnt_rotation), hl
      0001F8 18 4A            [12]  470 	jr	00151$
      0001FA                        471 00150$:
                           0001FA   472 	C$input.c$82$3_0$103	= .
                                    473 	.globl	C$input.c$82$3_0$103
                                    474 ;src/engine/input.c:82: if(rotation_input & KEY_ONE) {
      0001FA 3Ar00r00         [13]  475 	ld	a, (_rotation_input+0)
      0001FD DD A6 F6         [19]  476 	and	a, -10 (ix)
      000200 6F               [ 4]  477 	ld	l, a
                                    478 ;	spillPairReg hl
                                    479 ;	spillPairReg hl
      000201 3Ar01r00         [13]  480 	ld	a, (_rotation_input+1)
      000204 DD A6 F7         [19]  481 	and	a, -9 (ix)
      000207 B5               [ 4]  482 	or	a, l
      000208 28 16            [12]  483 	jr	Z, 00147$
                           00020A   484 	C$input.c$83$4_0$104	= .
                                    485 	.globl	C$input.c$83$4_0$104
                                    486 ;src/engine/input.c:83: if((keys_pressed & KEY_TWO) && !(keys_pressed & KEY_ONE)) {
      00020A 7A               [ 4]  487 	ld	a, d
      00020B B3               [ 4]  488 	or	a, e
      00020C 28 36            [12]  489 	jr	Z, 00151$
      00020E 78               [ 4]  490 	ld	a, b
      00020F B1               [ 4]  491 	or	a, c
      000210 20 32            [12]  492 	jr	NZ, 00151$
                           000212   493 	C$input.c$84$5_0$105	= .
                                    494 	.globl	C$input.c$84$5_0$105
                                    495 ;src/engine/input.c:84: rotation_input = 0;
      000212 21 00 00         [10]  496 	ld	hl, #0x0000
      000215 22r00r00         [16]  497 	ld	(_rotation_input), hl
                           000218   498 	C$input.c$85$5_0$105	= .
                                    499 	.globl	C$input.c$85$5_0$105
                                    500 ;src/engine/input.c:85: repeat_rotation = 0;
      000218 22r00r00         [16]  501 	ld	(_repeat_rotation), hl
                           00021B   502 	C$input.c$86$5_0$105	= .
                                    503 	.globl	C$input.c$86$5_0$105
                                    504 ;src/engine/input.c:86: input_cnt_rotation = 0;
      00021B 22r00r00         [16]  505 	ld	(_input_cnt_rotation), hl
      00021E 18 24            [12]  506 	jr	00151$
      000220                        507 00147$:
                           000220   508 	C$input.c$88$3_0$103	= .
                                    509 	.globl	C$input.c$88$3_0$103
                                    510 ;src/engine/input.c:88: } else if(rotation_input & KEY_TWO) {
      000220 3Ar00r00         [13]  511 	ld	a, (_rotation_input+0)
      000223 DD A6 F8         [19]  512 	and	a, -8 (ix)
      000226 6F               [ 4]  513 	ld	l, a
                                    514 ;	spillPairReg hl
                                    515 ;	spillPairReg hl
      000227 3Ar01r00         [13]  516 	ld	a, (_rotation_input+1)
      00022A DD A6 F9         [19]  517 	and	a, -7 (ix)
      00022D B5               [ 4]  518 	or	a, l
      00022E 28 14            [12]  519 	jr	Z, 00151$
                           000230   520 	C$input.c$89$4_0$106	= .
                                    521 	.globl	C$input.c$89$4_0$106
                                    522 ;src/engine/input.c:89: if((keys_pressed & KEY_ONE) && !(keys_pressed & KEY_TWO)) {
      000230 78               [ 4]  523 	ld	a, b
      000231 B1               [ 4]  524 	or	a, c
      000232 28 10            [12]  525 	jr	Z, 00151$
      000234 7A               [ 4]  526 	ld	a, d
      000235 B3               [ 4]  527 	or	a, e
      000236 20 0C            [12]  528 	jr	NZ, 00151$
                           000238   529 	C$input.c$90$5_0$107	= .
                                    530 	.globl	C$input.c$90$5_0$107
                                    531 ;src/engine/input.c:90: rotation_input = 0;
      000238 21 00 00         [10]  532 	ld	hl, #0x0000
      00023B 22r00r00         [16]  533 	ld	(_rotation_input), hl
                           00023E   534 	C$input.c$91$5_0$107	= .
                                    535 	.globl	C$input.c$91$5_0$107
                                    536 ;src/engine/input.c:91: repeat_rotation = 0;
      00023E 22r00r00         [16]  537 	ld	(_repeat_rotation), hl
                           000241   538 	C$input.c$92$5_0$107	= .
                                    539 	.globl	C$input.c$92$5_0$107
                                    540 ;src/engine/input.c:92: input_cnt_rotation = 0; 
      000241 22r00r00         [16]  541 	ld	(_input_cnt_rotation), hl
      000244                        542 00151$:
                           000244   543 	C$input.c$96$2_0$89	= .
                                    544 	.globl	C$input.c$96$2_0$89
                                    545 ;src/engine/input.c:96: if(keys_pressed & RESET_KEY) {
      000244 DD CB EB 66      [20]  546 	bit	4, -21 (ix)
      000248 28 05            [12]  547 	jr	Z, 00155$
                           00024A   548 	C$input.c$97$3_0$108	= .
                                    549 	.globl	C$input.c$97$3_0$108
                                    550 ;src/engine/input.c:97: resetPressed = true;
      00024A 21r00r00         [10]  551 	ld	hl, #_resetPressed
      00024D 36 01            [10]  552 	ld	(hl), #0x01
      00024F                        553 00155$:
                           00024F   554 	C$input.c$100$1_0$86	= .
                                    555 	.globl	C$input.c$100$1_0$86
                                    556 ;src/engine/input.c:100: if(keys_held != 0) {
      00024F DD 7E ED         [19]  557 	ld	a, -19 (ix)
      000252 DD B6 EC         [19]  558 	or	a, -20 (ix)
      000255 CAr1Fr03         [10]  559 	jp	Z, 00182$
                           000258   560 	C$input.c$101$2_0$109	= .
                                    561 	.globl	C$input.c$101$2_0$109
                                    562 ;src/engine/input.c:101: if(keys_held & KEY_DOWN) {
      000258 DD 7E EC         [19]  563 	ld	a, -20 (ix)
      00025B DD A6 F0         [19]  564 	and	a, -16 (ix)
      00025E 4F               [ 4]  565 	ld	c, a
      00025F DD 7E ED         [19]  566 	ld	a, -19 (ix)
      000262 DD A6 F1         [19]  567 	and	a, -15 (ix)
      000265 B1               [ 4]  568 	or	a, c
      000266 28 0F            [12]  569 	jr	Z, 00168$
                           000268   570 	C$input.c$102$3_0$110	= .
                                    571 	.globl	C$input.c$102$3_0$110
                                    572 ;src/engine/input.c:102: movement_direction = DOWN_ACTION;
      000268 21 02 00         [10]  573 	ld	hl, #0x0002
      00026B 22r00r00         [16]  574 	ld	(_movement_direction), hl
                           00026E   575 	C$input.c$103$3_0$110	= .
                                    576 	.globl	C$input.c$103$3_0$110
                                    577 ;src/engine/input.c:103: repeat_movement = 0;
      00026E 6C               [ 4]  578 	ld	l, h
      00026F 22r00r00         [16]  579 	ld	(_repeat_movement), hl
                           000272   580 	C$input.c$104$3_0$110	= .
                                    581 	.globl	C$input.c$104$3_0$110
                                    582 ;src/engine/input.c:104: input_cnt_direction = 0;
      000272 22r00r00         [16]  583 	ld	(_input_cnt_direction), hl
      000275 18 54            [12]  584 	jr	00169$
      000277                        585 00168$:
                           000277   586 	C$input.c$106$1_0$86	= .
                                    587 	.globl	C$input.c$106$1_0$86
                                    588 ;src/engine/input.c:106: if((keys_held & KEY_RIGHT) && !(keys_held & KEY_LEFT)) {
      000277 DD 7E EC         [19]  589 	ld	a, -20 (ix)
      00027A DD A6 F4         [19]  590 	and	a, -12 (ix)
      00027D 4F               [ 4]  591 	ld	c, a
      00027E DD 7E ED         [19]  592 	ld	a, -19 (ix)
      000281 DD A6 F5         [19]  593 	and	a, -11 (ix)
      000284 47               [ 4]  594 	ld	b, a
      000285 DD 7E EC         [19]  595 	ld	a, -20 (ix)
      000288 DD A6 F2         [19]  596 	and	a, -14 (ix)
      00028B 5F               [ 4]  597 	ld	e, a
      00028C DD 7E ED         [19]  598 	ld	a, -19 (ix)
      00028F DD A6 F3         [19]  599 	and	a, -13 (ix)
      000292 57               [ 4]  600 	ld	d, a
                           000293   601 	C$input.c$105$2_0$109	= .
                                    602 	.globl	C$input.c$105$2_0$109
                                    603 ;src/engine/input.c:105: } else if(movement_direction & LEFT_ACTION) {
      000293 21r00r00         [10]  604 	ld	hl, #_movement_direction
      000296 CB 56            [12]  605 	bit	2, (hl)
      000298 28 16            [12]  606 	jr	Z, 00165$
                           00029A   607 	C$input.c$106$3_0$111	= .
                                    608 	.globl	C$input.c$106$3_0$111
                                    609 ;src/engine/input.c:106: if((keys_held & KEY_RIGHT) && !(keys_held & KEY_LEFT)) {
      00029A 78               [ 4]  610 	ld	a, b
      00029B B1               [ 4]  611 	or	a, c
      00029C 28 2D            [12]  612 	jr	Z, 00169$
      00029E 7A               [ 4]  613 	ld	a, d
      00029F B3               [ 4]  614 	or	a, e
      0002A0 20 29            [12]  615 	jr	NZ, 00169$
                           0002A2   616 	C$input.c$107$4_0$112	= .
                                    617 	.globl	C$input.c$107$4_0$112
                                    618 ;src/engine/input.c:107: movement_direction = 0;
      0002A2 21 00 00         [10]  619 	ld	hl, #0x0000
      0002A5 22r00r00         [16]  620 	ld	(_movement_direction), hl
                           0002A8   621 	C$input.c$108$4_0$112	= .
                                    622 	.globl	C$input.c$108$4_0$112
                                    623 ;src/engine/input.c:108: repeat_movement = 0;
      0002A8 22r00r00         [16]  624 	ld	(_repeat_movement), hl
                           0002AB   625 	C$input.c$109$4_0$112	= .
                                    626 	.globl	C$input.c$109$4_0$112
                                    627 ;src/engine/input.c:109: input_cnt_direction = 0;
      0002AB 22r00r00         [16]  628 	ld	(_input_cnt_direction), hl
      0002AE 18 1B            [12]  629 	jr	00169$
      0002B0                        630 00165$:
                           0002B0   631 	C$input.c$111$2_0$109	= .
                                    632 	.globl	C$input.c$111$2_0$109
                                    633 ;src/engine/input.c:111: } else if(movement_direction & RIGHT_ACTION) {
      0002B0 21r00r00         [10]  634 	ld	hl, #_movement_direction
      0002B3 CB 5E            [12]  635 	bit	3, (hl)
      0002B5 28 14            [12]  636 	jr	Z, 00169$
                           0002B7   637 	C$input.c$112$3_0$113	= .
                                    638 	.globl	C$input.c$112$3_0$113
                                    639 ;src/engine/input.c:112: if((keys_held & KEY_LEFT) && !(keys_held & KEY_RIGHT)) {
      0002B7 7A               [ 4]  640 	ld	a, d
      0002B8 B3               [ 4]  641 	or	a, e
      0002B9 28 10            [12]  642 	jr	Z, 00169$
      0002BB 78               [ 4]  643 	ld	a, b
      0002BC B1               [ 4]  644 	or	a, c
      0002BD 20 0C            [12]  645 	jr	NZ, 00169$
                           0002BF   646 	C$input.c$113$4_0$114	= .
                                    647 	.globl	C$input.c$113$4_0$114
                                    648 ;src/engine/input.c:113: movement_direction = 0;
      0002BF 21 00 00         [10]  649 	ld	hl, #0x0000
      0002C2 22r00r00         [16]  650 	ld	(_movement_direction), hl
                           0002C5   651 	C$input.c$114$4_0$114	= .
                                    652 	.globl	C$input.c$114$4_0$114
                                    653 ;src/engine/input.c:114: repeat_movement = 0;
      0002C5 22r00r00         [16]  654 	ld	(_repeat_movement), hl
                           0002C8   655 	C$input.c$115$4_0$114	= .
                                    656 	.globl	C$input.c$115$4_0$114
                                    657 ;src/engine/input.c:115: input_cnt_direction = 0;
      0002C8 22r00r00         [16]  658 	ld	(_input_cnt_direction), hl
      0002CB                        659 00169$:
                           0002CB   660 	C$input.c$120$1_0$86	= .
                                    661 	.globl	C$input.c$120$1_0$86
                                    662 ;src/engine/input.c:120: if((keys_held & KEY_TWO) && !(keys_held & KEY_ONE)) {
      0002CB DD 7E EC         [19]  663 	ld	a, -20 (ix)
      0002CE DD A6 F8         [19]  664 	and	a, -8 (ix)
      0002D1 4F               [ 4]  665 	ld	c, a
      0002D2 DD 7E ED         [19]  666 	ld	a, -19 (ix)
      0002D5 DD A6 F9         [19]  667 	and	a, -7 (ix)
      0002D8 47               [ 4]  668 	ld	b, a
      0002D9 DD 7E EC         [19]  669 	ld	a, -20 (ix)
      0002DC DD A6 F6         [19]  670 	and	a, -10 (ix)
      0002DF 5F               [ 4]  671 	ld	e, a
      0002E0 DD 7E ED         [19]  672 	ld	a, -19 (ix)
      0002E3 DD A6 F7         [19]  673 	and	a, -9 (ix)
      0002E6 57               [ 4]  674 	ld	d, a
                           0002E7   675 	C$input.c$119$2_0$109	= .
                                    676 	.globl	C$input.c$119$2_0$109
                                    677 ;src/engine/input.c:119: if(rotation_input & ROTATION_ONE) {
      0002E7 21r00r00         [10]  678 	ld	hl, #_rotation_input
      0002EA CB 66            [12]  679 	bit	4, (hl)
      0002EC 28 16            [12]  680 	jr	Z, 00179$
                           0002EE   681 	C$input.c$120$3_0$115	= .
                                    682 	.globl	C$input.c$120$3_0$115
                                    683 ;src/engine/input.c:120: if((keys_held & KEY_TWO) && !(keys_held & KEY_ONE)) {
      0002EE 78               [ 4]  684 	ld	a, b
      0002EF B1               [ 4]  685 	or	a, c
      0002F0 28 2D            [12]  686 	jr	Z, 00182$
      0002F2 7A               [ 4]  687 	ld	a, d
      0002F3 B3               [ 4]  688 	or	a, e
      0002F4 20 29            [12]  689 	jr	NZ, 00182$
                           0002F6   690 	C$input.c$121$4_0$116	= .
                                    691 	.globl	C$input.c$121$4_0$116
                                    692 ;src/engine/input.c:121: rotation_input = 0;
      0002F6 21 00 00         [10]  693 	ld	hl, #0x0000
      0002F9 22r00r00         [16]  694 	ld	(_rotation_input), hl
                           0002FC   695 	C$input.c$122$4_0$116	= .
                                    696 	.globl	C$input.c$122$4_0$116
                                    697 ;src/engine/input.c:122: repeat_rotation = 0;
      0002FC 22r00r00         [16]  698 	ld	(_repeat_rotation), hl
                           0002FF   699 	C$input.c$123$4_0$116	= .
                                    700 	.globl	C$input.c$123$4_0$116
                                    701 ;src/engine/input.c:123: input_cnt_rotation = 0;
      0002FF 22r00r00         [16]  702 	ld	(_input_cnt_rotation), hl
      000302 18 1B            [12]  703 	jr	00182$
      000304                        704 00179$:
                           000304   705 	C$input.c$125$2_0$109	= .
                                    706 	.globl	C$input.c$125$2_0$109
                                    707 ;src/engine/input.c:125: } else if(rotation_input & ROTATION_TWO) {
      000304 21r00r00         [10]  708 	ld	hl, #_rotation_input
      000307 CB 6E            [12]  709 	bit	5, (hl)
      000309 28 14            [12]  710 	jr	Z, 00182$
                           00030B   711 	C$input.c$126$3_0$117	= .
                                    712 	.globl	C$input.c$126$3_0$117
                                    713 ;src/engine/input.c:126: if((keys_held & KEY_ONE) && !(keys_held & KEY_TWO)) {
      00030B 7A               [ 4]  714 	ld	a, d
      00030C B3               [ 4]  715 	or	a, e
      00030D 28 10            [12]  716 	jr	Z, 00182$
      00030F 78               [ 4]  717 	ld	a, b
      000310 B1               [ 4]  718 	or	a, c
      000311 20 0C            [12]  719 	jr	NZ, 00182$
                           000313   720 	C$input.c$127$4_0$118	= .
                                    721 	.globl	C$input.c$127$4_0$118
                                    722 ;src/engine/input.c:127: rotation_input = 0;
      000313 21 00 00         [10]  723 	ld	hl, #0x0000
      000316 22r00r00         [16]  724 	ld	(_rotation_input), hl
                           000319   725 	C$input.c$128$4_0$118	= .
                                    726 	.globl	C$input.c$128$4_0$118
                                    727 ;src/engine/input.c:128: repeat_rotation = 0;
      000319 22r00r00         [16]  728 	ld	(_repeat_rotation), hl
                           00031C   729 	C$input.c$129$4_0$118	= .
                                    730 	.globl	C$input.c$129$4_0$118
                                    731 ;src/engine/input.c:129: input_cnt_rotation = 0; 
      00031C 22r00r00         [16]  732 	ld	(_input_cnt_rotation), hl
      00031F                        733 00182$:
                           00031F   734 	C$input.c$133$1_0$86	= .
                                    735 	.globl	C$input.c$133$1_0$86
                                    736 ;src/engine/input.c:133: if(keys_released != 0) {
      00031F DD 7E EF         [19]  737 	ld	a, -17 (ix)
      000322 DD B6 EE         [19]  738 	or	a, -18 (ix)
      000325 CArD7r03         [10]  739 	jp	Z, 00204$
                           000328   740 	C$input.c$134$2_0$119	= .
                                    741 	.globl	C$input.c$134$2_0$119
                                    742 ;src/engine/input.c:134: if(keys_released & KEY_DOWN) {
      000328 DD 7E EE         [19]  743 	ld	a, -18 (ix)
      00032B DD A6 F0         [19]  744 	and	a, -16 (ix)
      00032E 4F               [ 4]  745 	ld	c, a
      00032F DD 7E EF         [19]  746 	ld	a, -17 (ix)
      000332 DD A6 F1         [19]  747 	and	a, -15 (ix)
      000335 B1               [ 4]  748 	or	a, c
      000336 28 13            [12]  749 	jr	Z, 00186$
                           000338   750 	C$input.c$135$3_0$120	= .
                                    751 	.globl	C$input.c$135$3_0$120
                                    752 ;src/engine/input.c:135: if(movement_direction & DOWN_ACTION) {
      000338 21r00r00         [10]  753 	ld	hl, #_movement_direction
      00033B CB 4E            [12]  754 	bit	1, (hl)
      00033D 28 0C            [12]  755 	jr	Z, 00186$
                           00033F   756 	C$input.c$136$4_0$121	= .
                                    757 	.globl	C$input.c$136$4_0$121
                                    758 ;src/engine/input.c:136: movement_direction = 0;
      00033F 21 00 00         [10]  759 	ld	hl, #0x0000
      000342 22r00r00         [16]  760 	ld	(_movement_direction), hl
                           000345   761 	C$input.c$137$4_0$121	= .
                                    762 	.globl	C$input.c$137$4_0$121
                                    763 ;src/engine/input.c:137: repeat_movement = 0;
      000345 22r00r00         [16]  764 	ld	(_repeat_movement), hl
                           000348   765 	C$input.c$138$4_0$121	= .
                                    766 	.globl	C$input.c$138$4_0$121
                                    767 ;src/engine/input.c:138: input_cnt_direction = 0;
      000348 22r00r00         [16]  768 	ld	(_input_cnt_direction), hl
      00034B                        769 00186$:
                           00034B   770 	C$input.c$141$2_0$119	= .
                                    771 	.globl	C$input.c$141$2_0$119
                                    772 ;src/engine/input.c:141: if(keys_released & KEY_LEFT) {
      00034B DD 7E EE         [19]  773 	ld	a, -18 (ix)
      00034E DD A6 F2         [19]  774 	and	a, -14 (ix)
      000351 4F               [ 4]  775 	ld	c, a
      000352 DD 7E EF         [19]  776 	ld	a, -17 (ix)
      000355 DD A6 F3         [19]  777 	and	a, -13 (ix)
      000358 B1               [ 4]  778 	or	a, c
      000359 28 13            [12]  779 	jr	Z, 00190$
                           00035B   780 	C$input.c$142$3_0$122	= .
                                    781 	.globl	C$input.c$142$3_0$122
                                    782 ;src/engine/input.c:142: if(movement_direction & LEFT_ACTION) {
      00035B 21r00r00         [10]  783 	ld	hl, #_movement_direction
      00035E CB 56            [12]  784 	bit	2, (hl)
      000360 28 0C            [12]  785 	jr	Z, 00190$
                           000362   786 	C$input.c$143$4_0$123	= .
                                    787 	.globl	C$input.c$143$4_0$123
                                    788 ;src/engine/input.c:143: movement_direction = 0;
      000362 21 00 00         [10]  789 	ld	hl, #0x0000
      000365 22r00r00         [16]  790 	ld	(_movement_direction), hl
                           000368   791 	C$input.c$144$4_0$123	= .
                                    792 	.globl	C$input.c$144$4_0$123
                                    793 ;src/engine/input.c:144: repeat_movement = 0;
      000368 22r00r00         [16]  794 	ld	(_repeat_movement), hl
                           00036B   795 	C$input.c$145$4_0$123	= .
                                    796 	.globl	C$input.c$145$4_0$123
                                    797 ;src/engine/input.c:145: input_cnt_rotation = 0;
      00036B 22r00r00         [16]  798 	ld	(_input_cnt_rotation), hl
      00036E                        799 00190$:
                           00036E   800 	C$input.c$148$2_0$119	= .
                                    801 	.globl	C$input.c$148$2_0$119
                                    802 ;src/engine/input.c:148: if(keys_released & KEY_RIGHT) {
      00036E DD 7E EE         [19]  803 	ld	a, -18 (ix)
      000371 DD A6 F4         [19]  804 	and	a, -12 (ix)
      000374 4F               [ 4]  805 	ld	c, a
      000375 DD 7E EF         [19]  806 	ld	a, -17 (ix)
      000378 DD A6 F5         [19]  807 	and	a, -11 (ix)
      00037B B1               [ 4]  808 	or	a, c
      00037C 28 13            [12]  809 	jr	Z, 00194$
                           00037E   810 	C$input.c$149$3_0$124	= .
                                    811 	.globl	C$input.c$149$3_0$124
                                    812 ;src/engine/input.c:149: if(movement_direction & RIGHT_ACTION) {
      00037E 21r00r00         [10]  813 	ld	hl, #_movement_direction
      000381 CB 5E            [12]  814 	bit	3, (hl)
      000383 28 0C            [12]  815 	jr	Z, 00194$
                           000385   816 	C$input.c$150$4_0$125	= .
                                    817 	.globl	C$input.c$150$4_0$125
                                    818 ;src/engine/input.c:150: movement_direction = 0;
      000385 21 00 00         [10]  819 	ld	hl, #0x0000
      000388 22r00r00         [16]  820 	ld	(_movement_direction), hl
                           00038B   821 	C$input.c$151$4_0$125	= .
                                    822 	.globl	C$input.c$151$4_0$125
                                    823 ;src/engine/input.c:151: repeat_movement = 0;
      00038B 22r00r00         [16]  824 	ld	(_repeat_movement), hl
                           00038E   825 	C$input.c$152$4_0$125	= .
                                    826 	.globl	C$input.c$152$4_0$125
                                    827 ;src/engine/input.c:152: input_cnt_rotation = 0;
      00038E 22r00r00         [16]  828 	ld	(_input_cnt_rotation), hl
      000391                        829 00194$:
                           000391   830 	C$input.c$155$2_0$119	= .
                                    831 	.globl	C$input.c$155$2_0$119
                                    832 ;src/engine/input.c:155: if(keys_released & KEY_ONE) {
      000391 DD 7E EE         [19]  833 	ld	a, -18 (ix)
      000394 DD A6 F6         [19]  834 	and	a, -10 (ix)
      000397 4F               [ 4]  835 	ld	c, a
      000398 DD 7E EF         [19]  836 	ld	a, -17 (ix)
      00039B DD A6 F7         [19]  837 	and	a, -9 (ix)
      00039E B1               [ 4]  838 	or	a, c
      00039F 28 13            [12]  839 	jr	Z, 00198$
                           0003A1   840 	C$input.c$156$3_0$126	= .
                                    841 	.globl	C$input.c$156$3_0$126
                                    842 ;src/engine/input.c:156: if(rotation_input & ROTATION_ONE) {
      0003A1 21r00r00         [10]  843 	ld	hl, #_rotation_input
      0003A4 CB 66            [12]  844 	bit	4, (hl)
      0003A6 28 0C            [12]  845 	jr	Z, 00198$
                           0003A8   846 	C$input.c$157$4_0$127	= .
                                    847 	.globl	C$input.c$157$4_0$127
                                    848 ;src/engine/input.c:157: rotation_input = 0;
      0003A8 21 00 00         [10]  849 	ld	hl, #0x0000
      0003AB 22r00r00         [16]  850 	ld	(_rotation_input), hl
                           0003AE   851 	C$input.c$158$4_0$127	= .
                                    852 	.globl	C$input.c$158$4_0$127
                                    853 ;src/engine/input.c:158: repeat_rotation = 0;
      0003AE 22r00r00         [16]  854 	ld	(_repeat_rotation), hl
                           0003B1   855 	C$input.c$159$4_0$127	= .
                                    856 	.globl	C$input.c$159$4_0$127
                                    857 ;src/engine/input.c:159: input_cnt_rotation = 0;
      0003B1 22r00r00         [16]  858 	ld	(_input_cnt_rotation), hl
      0003B4                        859 00198$:
                           0003B4   860 	C$input.c$162$2_0$119	= .
                                    861 	.globl	C$input.c$162$2_0$119
                                    862 ;src/engine/input.c:162: if(keys_released & KEY_TWO) {
      0003B4 DD 7E EE         [19]  863 	ld	a, -18 (ix)
      0003B7 DD A6 F8         [19]  864 	and	a, -8 (ix)
      0003BA 4F               [ 4]  865 	ld	c, a
      0003BB DD 7E EF         [19]  866 	ld	a, -17 (ix)
      0003BE DD A6 F9         [19]  867 	and	a, -7 (ix)
      0003C1 B1               [ 4]  868 	or	a, c
      0003C2 28 13            [12]  869 	jr	Z, 00204$
                           0003C4   870 	C$input.c$163$3_0$128	= .
                                    871 	.globl	C$input.c$163$3_0$128
                                    872 ;src/engine/input.c:163: if(rotation_input & ROTATION_TWO) {
      0003C4 21r00r00         [10]  873 	ld	hl, #_rotation_input
      0003C7 CB 6E            [12]  874 	bit	5, (hl)
      0003C9 28 0C            [12]  875 	jr	Z, 00204$
                           0003CB   876 	C$input.c$164$4_0$129	= .
                                    877 	.globl	C$input.c$164$4_0$129
                                    878 ;src/engine/input.c:164: rotation_input = 0;
      0003CB 21 00 00         [10]  879 	ld	hl, #0x0000
      0003CE 22r00r00         [16]  880 	ld	(_rotation_input), hl
                           0003D1   881 	C$input.c$165$4_0$129	= .
                                    882 	.globl	C$input.c$165$4_0$129
                                    883 ;src/engine/input.c:165: repeat_rotation = 0;
      0003D1 22r00r00         [16]  884 	ld	(_repeat_rotation), hl
                           0003D4   885 	C$input.c$166$4_0$129	= .
                                    886 	.globl	C$input.c$166$4_0$129
                                    887 ;src/engine/input.c:166: input_cnt_rotation = 0;
      0003D4 22r00r00         [16]  888 	ld	(_input_cnt_rotation), hl
      0003D7                        889 00204$:
                           0003D7   890 	C$input.c$171$1_0$86	= .
                                    891 	.globl	C$input.c$171$1_0$86
                                    892 ;src/engine/input.c:171: input_cnt_direction++;
      0003D7 2Ar00r00         [16]  893 	ld	hl, (_input_cnt_direction)
      0003DA 23               [ 6]  894 	inc	hl
      0003DB 22r00r00         [16]  895 	ld	(_input_cnt_direction), hl
                           0003DE   896 	C$input.c$172$1_0$86	= .
                                    897 	.globl	C$input.c$172$1_0$86
                                    898 ;src/engine/input.c:172: input_cnt_rotation++;
      0003DE 2Ar00r00         [16]  899 	ld	hl, (_input_cnt_rotation)
      0003E1 23               [ 6]  900 	inc	hl
      0003E2 22r00r00         [16]  901 	ld	(_input_cnt_rotation), hl
                           0003E5   902 	C$input.c$173$1_0$86	= .
                                    903 	.globl	C$input.c$173$1_0$86
                                    904 ;src/engine/input.c:173: }
      0003E5 DD F9            [10]  905 	ld	sp, ix
      0003E7 DD E1            [14]  906 	pop	ix
                           0003E9   907 	C$input.c$173$1_0$86	= .
                                    908 	.globl	C$input.c$173$1_0$86
                           0003E9   909 	XG$update_input$0$0	= .
                                    910 	.globl	XG$update_input$0$0
      0003E9 C9               [10]  911 	ret
                           0003EA   912 	G$getDirection$0$0	= .
                                    913 	.globl	G$getDirection$0$0
                           0003EA   914 	C$input.c$175$1_0$131	= .
                                    915 	.globl	C$input.c$175$1_0$131
                                    916 ;src/engine/input.c:175: u16 getDirection(void) {
                                    917 ;	---------------------------------
                                    918 ; Function getDirection
                                    919 ; ---------------------------------
      0003EA                        920 _getDirection::
                           0003EA   921 	C$input.c$176$1_0$131	= .
                                    922 	.globl	C$input.c$176$1_0$131
                                    923 ;src/engine/input.c:176: if(repeat_movement == 0){
      0003EA 3Ar01r00         [13]  924 	ld	a, (_repeat_movement+1)
      0003ED 21r00r00         [10]  925 	ld	hl, #_repeat_movement
      0003F0 B6               [ 7]  926 	or	a, (hl)
      0003F1 20 14            [12]  927 	jr	NZ, 00113$
                           0003F3   928 	C$input.c$177$2_0$132	= .
                                    929 	.globl	C$input.c$177$2_0$132
                                    930 ;src/engine/input.c:177: if(movement_direction != NEUTRAL) 
      0003F3 3Ar01r00         [13]  931 	ld	a, (_movement_direction+1)
      0003F6 21r00r00         [10]  932 	ld	hl, #_movement_direction
      0003F9 B6               [ 7]  933 	or	a, (hl)
      0003FA 28 06            [12]  934 	jr	Z, 00102$
                           0003FC   935 	C$input.c$178$2_0$132	= .
                                    936 	.globl	C$input.c$178$2_0$132
                                    937 ;src/engine/input.c:178: repeat_movement = 1;
      0003FC 21 01 00         [10]  938 	ld	hl, #0x0001
      0003FF 22r00r00         [16]  939 	ld	(_repeat_movement), hl
      000402                        940 00102$:
                           000402   941 	C$input.c$179$2_0$132	= .
                                    942 	.globl	C$input.c$179$2_0$132
                                    943 ;src/engine/input.c:179: return movement_direction;
      000402 ED 5Br00r00      [20]  944 	ld	de, (_movement_direction)
      000406 C9               [10]  945 	ret
      000407                        946 00113$:
                           000407   947 	C$input.c$183$1_0$131	= .
                                    948 	.globl	C$input.c$183$1_0$131
                                    949 ;src/engine/input.c:183: repeat_movement++;
      000407 ED 4Br00r00      [20]  950 	ld	bc, (_repeat_movement)
      00040B 03               [ 6]  951 	inc	bc
                           00040C   952 	C$input.c$180$1_0$131	= .
                                    953 	.globl	C$input.c$180$1_0$131
                                    954 ;src/engine/input.c:180: } else if(repeat_movement == 1){
      00040C 3Ar00r00         [13]  955 	ld	a, (_repeat_movement+0)
      00040F 3D               [ 4]  956 	dec	a
      000410 21r01r00         [10]  957 	ld	hl, #_repeat_movement + 1
      000413 B6               [ 7]  958 	or	a, (hl)
      000414 20 23            [12]  959 	jr	NZ, 00110$
                           000416   960 	C$input.c$181$2_0$133	= .
                                    961 	.globl	C$input.c$181$2_0$133
                                    962 ;src/engine/input.c:181: if(input_cnt_direction > FIRST_REPEAT_KEY_DELAY) {
      000416 3E 14            [ 7]  963 	ld	a, #0x14
      000418 FD 21r00r00      [14]  964 	ld	iy, #_input_cnt_direction
      00041C FD BE 00         [19]  965 	cp	a, 0 (iy)
      00041F 3E 00            [ 7]  966 	ld	a, #0x00
      000421 FD 9E 01         [19]  967 	sbc	a, 1 (iy)
      000424 30 0F            [12]  968 	jr	NC, 00104$
                           000426   969 	C$input.c$182$3_0$134	= .
                                    970 	.globl	C$input.c$182$3_0$134
                                    971 ;src/engine/input.c:182: input_cnt_direction = 0;
      000426 21 00 00         [10]  972 	ld	hl, #0x0000
      000429 22r00r00         [16]  973 	ld	(_input_cnt_direction), hl
                           00042C   974 	C$input.c$183$3_0$134	= .
                                    975 	.globl	C$input.c$183$3_0$134
                                    976 ;src/engine/input.c:183: repeat_movement++;
      00042C ED 43r00r00      [20]  977 	ld	(_repeat_movement), bc
                           000430   978 	C$input.c$184$3_0$134	= .
                                    979 	.globl	C$input.c$184$3_0$134
                                    980 ;src/engine/input.c:184: return movement_direction;
      000430 ED 5Br00r00      [20]  981 	ld	de, (_movement_direction)
      000434 C9               [10]  982 	ret
      000435                        983 00104$:
                           000435   984 	C$input.c$186$3_0$135	= .
                                    985 	.globl	C$input.c$186$3_0$135
                                    986 ;src/engine/input.c:186: return NEUTRAL;
      000435 11 00 00         [10]  987 	ld	de, #0x0000
      000438 C9               [10]  988 	ret
      000439                        989 00110$:
                           000439   990 	C$input.c$189$2_0$136	= .
                                    991 	.globl	C$input.c$189$2_0$136
                                    992 ;src/engine/input.c:189: if(input_cnt_direction > REPEAT_KEY_DELAY) {
      000439 3E 0A            [ 7]  993 	ld	a, #0x0a
      00043B FD 21r00r00      [14]  994 	ld	iy, #_input_cnt_direction
      00043F FD BE 00         [19]  995 	cp	a, 0 (iy)
      000442 3E 00            [ 7]  996 	ld	a, #0x00
      000444 FD 9E 01         [19]  997 	sbc	a, 1 (iy)
      000447 30 0F            [12]  998 	jr	NC, 00107$
                           000449   999 	C$input.c$190$3_0$137	= .
                                   1000 	.globl	C$input.c$190$3_0$137
                                   1001 ;src/engine/input.c:190: input_cnt_direction = 0;
      000449 21 00 00         [10] 1002 	ld	hl, #0x0000
      00044C 22r00r00         [16] 1003 	ld	(_input_cnt_direction), hl
                           00044F  1004 	C$input.c$191$3_0$137	= .
                                   1005 	.globl	C$input.c$191$3_0$137
                                   1006 ;src/engine/input.c:191: repeat_movement++;
      00044F ED 43r00r00      [20] 1007 	ld	(_repeat_movement), bc
                           000453  1008 	C$input.c$192$3_0$137	= .
                                   1009 	.globl	C$input.c$192$3_0$137
                                   1010 ;src/engine/input.c:192: return movement_direction;
      000453 ED 5Br00r00      [20] 1011 	ld	de, (_movement_direction)
      000457 C9               [10] 1012 	ret
      000458                       1013 00107$:
                           000458  1014 	C$input.c$194$3_0$138	= .
                                   1015 	.globl	C$input.c$194$3_0$138
                                   1016 ;src/engine/input.c:194: return NEUTRAL;
      000458 11 00 00         [10] 1017 	ld	de, #0x0000
                           00045B  1018 	C$input.c$197$1_0$131	= .
                                   1019 	.globl	C$input.c$197$1_0$131
                                   1020 ;src/engine/input.c:197: }
                           00045B  1021 	C$input.c$197$1_0$131	= .
                                   1022 	.globl	C$input.c$197$1_0$131
                           00045B  1023 	XG$getDirection$0$0	= .
                                   1024 	.globl	XG$getDirection$0$0
      00045B C9               [10] 1025 	ret
                           00045C  1026 	G$getRotation$0$0	= .
                                   1027 	.globl	G$getRotation$0$0
                           00045C  1028 	C$input.c$199$1_0$140	= .
                                   1029 	.globl	C$input.c$199$1_0$140
                                   1030 ;src/engine/input.c:199: u16 getRotation(void) {
                                   1031 ;	---------------------------------
                                   1032 ; Function getRotation
                                   1033 ; ---------------------------------
      00045C                       1034 _getRotation::
                           00045C  1035 	C$input.c$200$1_0$140	= .
                                   1036 	.globl	C$input.c$200$1_0$140
                                   1037 ;src/engine/input.c:200: if(repeat_rotation == 0){
      00045C 3Ar01r00         [13] 1038 	ld	a, (_repeat_rotation+1)
      00045F 21r00r00         [10] 1039 	ld	hl, #_repeat_rotation
      000462 B6               [ 7] 1040 	or	a, (hl)
      000463 20 14            [12] 1041 	jr	NZ, 00113$
                           000465  1042 	C$input.c$201$2_0$141	= .
                                   1043 	.globl	C$input.c$201$2_0$141
                                   1044 ;src/engine/input.c:201: if(rotation_input != NEUTRAL)
      000465 3Ar01r00         [13] 1045 	ld	a, (_rotation_input+1)
      000468 21r00r00         [10] 1046 	ld	hl, #_rotation_input
      00046B B6               [ 7] 1047 	or	a, (hl)
      00046C 28 06            [12] 1048 	jr	Z, 00102$
                           00046E  1049 	C$input.c$202$2_0$141	= .
                                   1050 	.globl	C$input.c$202$2_0$141
                                   1051 ;src/engine/input.c:202: repeat_rotation = 1;
      00046E 21 01 00         [10] 1052 	ld	hl, #0x0001
      000471 22r00r00         [16] 1053 	ld	(_repeat_rotation), hl
      000474                       1054 00102$:
                           000474  1055 	C$input.c$203$2_0$141	= .
                                   1056 	.globl	C$input.c$203$2_0$141
                                   1057 ;src/engine/input.c:203: return rotation_input;
      000474 ED 5Br00r00      [20] 1058 	ld	de, (_rotation_input)
      000478 C9               [10] 1059 	ret
      000479                       1060 00113$:
                           000479  1061 	C$input.c$204$1_0$140	= .
                                   1062 	.globl	C$input.c$204$1_0$140
                                   1063 ;src/engine/input.c:204: } else if(repeat_rotation == 1){
      000479 3Ar00r00         [13] 1064 	ld	a, (_repeat_rotation+0)
      00047C 3D               [ 4] 1065 	dec	a
      00047D 21r01r00         [10] 1066 	ld	hl, #_repeat_rotation + 1
      000480 B6               [ 7] 1067 	or	a, (hl)
      000481 20 1F            [12] 1068 	jr	NZ, 00110$
                           000483  1069 	C$input.c$205$2_0$142	= .
                                   1070 	.globl	C$input.c$205$2_0$142
                                   1071 ;src/engine/input.c:205: if(input_cnt_rotation > FIRST_REPEAT_KEY_DELAY) {
      000483 3E 14            [ 7] 1072 	ld	a, #0x14
      000485 FD 21r00r00      [14] 1073 	ld	iy, #_input_cnt_rotation
      000489 FD BE 00         [19] 1074 	cp	a, 0 (iy)
      00048C 3E 00            [ 7] 1075 	ld	a, #0x00
      00048E FD 9E 01         [19] 1076 	sbc	a, 1 (iy)
      000491 30 0B            [12] 1077 	jr	NC, 00104$
                           000493  1078 	C$input.c$206$3_0$143	= .
                                   1079 	.globl	C$input.c$206$3_0$143
                                   1080 ;src/engine/input.c:206: input_cnt_rotation = 0;
      000493 21 00 00         [10] 1081 	ld	hl, #0x0000
      000496 22r00r00         [16] 1082 	ld	(_input_cnt_rotation), hl
                           000499  1083 	C$input.c$207$3_0$143	= .
                                   1084 	.globl	C$input.c$207$3_0$143
                                   1085 ;src/engine/input.c:207: return rotation_input;
      000499 ED 5Br00r00      [20] 1086 	ld	de, (_rotation_input)
      00049D C9               [10] 1087 	ret
      00049E                       1088 00104$:
                           00049E  1089 	C$input.c$209$3_0$144	= .
                                   1090 	.globl	C$input.c$209$3_0$144
                                   1091 ;src/engine/input.c:209: return NEUTRAL;
      00049E 11 00 00         [10] 1092 	ld	de, #0x0000
      0004A1 C9               [10] 1093 	ret
      0004A2                       1094 00110$:
                           0004A2  1095 	C$input.c$212$2_0$145	= .
                                   1096 	.globl	C$input.c$212$2_0$145
                                   1097 ;src/engine/input.c:212: if(input_cnt_rotation > REPEAT_KEY_DELAY) {
      0004A2 3E 0A            [ 7] 1098 	ld	a, #0x0a
      0004A4 FD 21r00r00      [14] 1099 	ld	iy, #_input_cnt_rotation
      0004A8 FD BE 00         [19] 1100 	cp	a, 0 (iy)
      0004AB 3E 00            [ 7] 1101 	ld	a, #0x00
      0004AD FD 9E 01         [19] 1102 	sbc	a, 1 (iy)
      0004B0 30 0B            [12] 1103 	jr	NC, 00107$
                           0004B2  1104 	C$input.c$213$3_0$146	= .
                                   1105 	.globl	C$input.c$213$3_0$146
                                   1106 ;src/engine/input.c:213: input_cnt_rotation = 0;
      0004B2 21 00 00         [10] 1107 	ld	hl, #0x0000
      0004B5 22r00r00         [16] 1108 	ld	(_input_cnt_rotation), hl
                           0004B8  1109 	C$input.c$214$3_0$146	= .
                                   1110 	.globl	C$input.c$214$3_0$146
                                   1111 ;src/engine/input.c:214: return rotation_input;
      0004B8 ED 5Br00r00      [20] 1112 	ld	de, (_rotation_input)
      0004BC C9               [10] 1113 	ret
      0004BD                       1114 00107$:
                           0004BD  1115 	C$input.c$216$3_0$147	= .
                                   1116 	.globl	C$input.c$216$3_0$147
                                   1117 ;src/engine/input.c:216: return NEUTRAL;
      0004BD 11 00 00         [10] 1118 	ld	de, #0x0000
                           0004C0  1119 	C$input.c$219$1_0$140	= .
                                   1120 	.globl	C$input.c$219$1_0$140
                                   1121 ;src/engine/input.c:219: }
                           0004C0  1122 	C$input.c$219$1_0$140	= .
                                   1123 	.globl	C$input.c$219$1_0$140
                           0004C0  1124 	XG$getRotation$0$0	= .
                                   1125 	.globl	XG$getRotation$0$0
      0004C0 C9               [10] 1126 	ret
                           0004C1  1127 	G$getButtonsPressed$0$0	= .
                                   1128 	.globl	G$getButtonsPressed$0$0
                           0004C1  1129 	C$input.c$221$1_0$149	= .
                                   1130 	.globl	C$input.c$221$1_0$149
                                   1131 ;src/engine/input.c:221: u16 getButtonsPressed(void) {
                                   1132 ;	---------------------------------
                                   1133 ; Function getButtonsPressed
                                   1134 ; ---------------------------------
      0004C1                       1135 _getButtonsPressed::
                           0004C1  1136 	C$input.c$222$1_0$149	= .
                                   1137 	.globl	C$input.c$222$1_0$149
                                   1138 ;src/engine/input.c:222: return button_input;
      0004C1 ED 5Br00r00      [20] 1139 	ld	de, (_button_input)
                           0004C5  1140 	C$input.c$223$1_0$149	= .
                                   1141 	.globl	C$input.c$223$1_0$149
                                   1142 ;src/engine/input.c:223: }
                           0004C5  1143 	C$input.c$223$1_0$149	= .
                                   1144 	.globl	C$input.c$223$1_0$149
                           0004C5  1145 	XG$getButtonsPressed$0$0	= .
                                   1146 	.globl	XG$getButtonsPressed$0$0
      0004C5 C9               [10] 1147 	ret
                                   1148 	.area _CODE
                                   1149 	.area _INITIALIZER
                                   1150 	.area _CABS (ABS)
