ASxxxx Assembler V02.00 + NoICE + SDCC mods  (Zilog Z80 / Hitachi HD64180 / ZX-Next / eZ80)                   Page 1
Hexadecimal [24-Bits]

Symbol Table

    .__.$$$.                                                    =  002710 L
    .__.ABS.                                                    =  000000 G
    .__.CPU.                                                    =  000000 L
    .__.H$L.                                                    =  000000 L
  0 A$input$1002                                                   000449 GR
  0 A$input$1003                                                   00044C GR
  0 A$input$1007                                                   00044F GR
  0 A$input$1011                                                   000453 GR
  0 A$input$1012                                                   000457 GR
  0 A$input$1017                                                   000458 GR
  0 A$input$102                                                    000012 GR
  0 A$input$1025                                                   00045B GR
  0 A$input$1038                                                   00045C GR
  0 A$input$1039                                                   00045F GR
  0 A$input$1040                                                   000462 GR
  0 A$input$1041                                                   000463 GR
  0 A$input$1045                                                   000465 GR
  0 A$input$1046                                                   000468 GR
  0 A$input$1047                                                   00046B GR
  0 A$input$1048                                                   00046C GR
  0 A$input$1052                                                   00046E GR
  0 A$input$1053                                                   000471 GR
  0 A$input$1058                                                   000474 GR
  0 A$input$1059                                                   000478 GR
  0 A$input$1064                                                   000479 GR
  0 A$input$1065                                                   00047C GR
  0 A$input$1066                                                   00047D GR
  0 A$input$1067                                                   000480 GR
  0 A$input$1068                                                   000481 GR
  0 A$input$1072                                                   000483 GR
  0 A$input$1073                                                   000485 GR
  0 A$input$1074                                                   000489 GR
  0 A$input$1075                                                   00048C GR
  0 A$input$1076                                                   00048E GR
  0 A$input$1077                                                   000491 GR
  0 A$input$1081                                                   000493 GR
  0 A$input$1082                                                   000496 GR
  0 A$input$1086                                                   000499 GR
  0 A$input$1087                                                   00049D GR
  0 A$input$1092                                                   00049E GR
  0 A$input$1093                                                   0004A1 GR
  0 A$input$1098                                                   0004A2 GR
  0 A$input$1099                                                   0004A4 GR
  0 A$input$1100                                                   0004A8 GR
  0 A$input$1101                                                   0004AB GR
  0 A$input$1102                                                   0004AD GR
  0 A$input$1103                                                   0004B0 GR
  0 A$input$1107                                                   0004B2 GR
  0 A$input$1108                                                   0004B5 GR
  0 A$input$1112                                                   0004B8 GR
  0 A$input$1113                                                   0004BC GR
  0 A$input$1118                                                   0004BD GR
  0 A$input$112                                                    000013 GR
  0 A$input$1126                                                   0004C0 GR
  0 A$input$113                                                    000015 GR
ASxxxx Assembler V02.00 + NoICE + SDCC mods  (Zilog Z80 / Hitachi HD64180 / ZX-Next / eZ80)                   Page 2
Hexadecimal [24-Bits]

Symbol Table

  0 A$input$1139                                                   0004C1 GR
  0 A$input$114                                                    000019 GR
  0 A$input$1147                                                   0004C5 GR
  0 A$input$115                                                    00001B GR
  0 A$input$116                                                    00001E GR
  0 A$input$117                                                    00001F GR
  0 A$input$121                                                    000020 GR
  0 A$input$122                                                    000023 GR
  0 A$input$123                                                    000024 GR
  0 A$input$124                                                    000025 GR
  0 A$input$128                                                    000026 GR
  0 A$input$129                                                    000029 GR
  0 A$input$130                                                    00002C GR
  0 A$input$134                                                    00002F GR
  0 A$input$135                                                    000032 GR
  0 A$input$136                                                    000035 GR
  0 A$input$140                                                    000038 GR
  0 A$input$141                                                    00003B GR
  0 A$input$142                                                    00003C GR
  0 A$input$146                                                    00003E GR
  0 A$input$147                                                    000042 GR
  0 A$input$151                                                    000046 GR
  0 A$input$152                                                    00004A GR
  0 A$input$156                                                    00004E GR
  0 A$input$157                                                    000052 GR
  0 A$input$161                                                    000056 GR
  0 A$input$162                                                    00005A GR
  0 A$input$166                                                    00005E GR
  0 A$input$167                                                    000062 GR
  0 A$input$168                                                    000066 GR
  0 A$input$173                                                    000068 GR
  0 A$input$174                                                    00006C GR
  0 A$input$178                                                    000070 GR
  0 A$input$179                                                    000074 GR
  0 A$input$183                                                    000078 GR
  0 A$input$184                                                    00007C GR
  0 A$input$188                                                    000080 GR
  0 A$input$189                                                    000084 GR
  0 A$input$193                                                    000088 GR
  0 A$input$194                                                    00008C GR
  0 A$input$199                                                    000090 GR
  0 A$input$200                                                    000093 GR
  0 A$input$201                                                    000096 GR
  0 A$input$205                                                    000099 GR
  0 A$input$206                                                    00009A GR
  0 A$input$207                                                    00009B GR
  0 A$input$211                                                    00009E GR
  0 A$input$212                                                    0000A1 GR
  0 A$input$213                                                    0000A4 GR
  0 A$input$214                                                    0000A7 GR
  0 A$input$215                                                    0000AA GR
  0 A$input$216                                                    0000AD GR
  0 A$input$220                                                    0000B0 GR
  0 A$input$221                                                    0000B3 GR
  0 A$input$222                                                    0000B6 GR
ASxxxx Assembler V02.00 + NoICE + SDCC mods  (Zilog Z80 / Hitachi HD64180 / ZX-Next / eZ80)                   Page 3
Hexadecimal [24-Bits]

Symbol Table

  0 A$input$223                                                    0000B9 GR
  0 A$input$224                                                    0000BC GR
  0 A$input$225                                                    0000BF GR
  0 A$input$226                                                    0000C2 GR
  0 A$input$227                                                    0000C5 GR
  0 A$input$228                                                    0000C8 GR
  0 A$input$229                                                    0000CB GR
  0 A$input$230                                                    0000CE GR
  0 A$input$231                                                    0000D1 GR
  0 A$input$235                                                    0000D4 GR
  0 A$input$236                                                    0000D7 GR
  0 A$input$237                                                    0000DA GR
  0 A$input$238                                                    0000DB GR
  0 A$input$242                                                    0000DD GR
  0 A$input$243                                                    0000E0 GR
  0 A$input$244                                                    0000E3 GR
  0 A$input$248                                                    0000E5 GR
  0 A$input$249                                                    0000E8 GR
  0 A$input$253                                                    0000EB GR
  0 A$input$254                                                    0000EC GR
  0 A$input$258                                                    0000EF GR
  0 A$input$259                                                    0000F2 GR
  0 A$input$264                                                    0000F5 GR
  0 A$input$265                                                    0000F8 GR
  0 A$input$266                                                    0000FB GR
  0 A$input$267                                                    0000FD GR
  0 A$input$268                                                    000100 GR
  0 A$input$269                                                    000103 GR
  0 A$input$273                                                    000105 GR
  0 A$input$274                                                    000108 GR
  0 A$input$278                                                    00010B GR
  0 A$input$279                                                    00010C GR
  0 A$input$283                                                    00010F GR
  0 A$input$284                                                    000112 GR
  0 A$input$289                                                    000115 GR
  0 A$input$290                                                    000118 GR
  0 A$input$291                                                    00011B GR
  0 A$input$292                                                    00011E GR
  0 A$input$293                                                    000121 GR
  0 A$input$294                                                    000124 GR
  0 A$input$298                                                    000127 GR
  0 A$input$299                                                    00012A GR
  0 A$input$303                                                    00012D GR
  0 A$input$304                                                    00012E GR
  0 A$input$308                                                    000131 GR
  0 A$input$309                                                    000134 GR
  0 A$input$314                                                    000136 GR
  0 A$input$315                                                    000139 GR
  0 A$input$316                                                    00013C GR
  0 A$input$320                                                    00013E GR
  0 A$input$321                                                    000141 GR
  0 A$input$325                                                    000144 GR
  0 A$input$326                                                    000145 GR
  0 A$input$330                                                    000148 GR
  0 A$input$331                                                    00014B GR
ASxxxx Assembler V02.00 + NoICE + SDCC mods  (Zilog Z80 / Hitachi HD64180 / ZX-Next / eZ80)                   Page 4
Hexadecimal [24-Bits]

Symbol Table

  0 A$input$336                                                    00014D GR
  0 A$input$337                                                    000150 GR
  0 A$input$338                                                    000153 GR
  0 A$input$339                                                    000154 GR
  0 A$input$340                                                    000157 GR
  0 A$input$341                                                    00015A GR
  0 A$input$342                                                    00015B GR
  0 A$input$346                                                    00015D GR
  0 A$input$347                                                    000160 GR
  0 A$input$348                                                    000163 GR
  0 A$input$349                                                    000165 GR
  0 A$input$350                                                    000168 GR
  0 A$input$351                                                    00016B GR
  0 A$input$355                                                    00016D GR
  0 A$input$356                                                    000170 GR
  0 A$input$360                                                    000173 GR
  0 A$input$364                                                    000176 GR
  0 A$input$365                                                    000179 GR
  0 A$input$370                                                    00017B GR
  0 A$input$371                                                    00017E GR
  0 A$input$372                                                    000181 GR
  0 A$input$373                                                    000182 GR
  0 A$input$374                                                    000185 GR
  0 A$input$375                                                    000188 GR
  0 A$input$376                                                    000189 GR
  0 A$input$380                                                    00018B GR
  0 A$input$381                                                    00018E GR
  0 A$input$382                                                    000191 GR
  0 A$input$383                                                    000193 GR
  0 A$input$384                                                    000196 GR
  0 A$input$385                                                    000199 GR
  0 A$input$389                                                    00019B GR
  0 A$input$390                                                    00019E GR
  0 A$input$394                                                    0001A1 GR
  0 A$input$398                                                    0001A4 GR
  0 A$input$403                                                    0001A7 GR
  0 A$input$404                                                    0001AA GR
  0 A$input$405                                                    0001AD GR
  0 A$input$406                                                    0001AE GR
  0 A$input$407                                                    0001B1 GR
  0 A$input$408                                                    0001B4 GR
  0 A$input$409                                                    0001B5 GR
  0 A$input$410                                                    0001B8 GR
  0 A$input$411                                                    0001BB GR
  0 A$input$412                                                    0001BC GR
  0 A$input$413                                                    0001BF GR
  0 A$input$414                                                    0001C2 GR
  0 A$input$418                                                    0001C3 GR
  0 A$input$419                                                    0001C6 GR
  0 A$input$420                                                    0001C9 GR
  0 A$input$421                                                    0001CA GR
  0 A$input$425                                                    0001CC GR
  0 A$input$426                                                    0001CD GR
  0 A$input$427                                                    0001CE GR
  0 A$input$428                                                    0001D0 GR
ASxxxx Assembler V02.00 + NoICE + SDCC mods  (Zilog Z80 / Hitachi HD64180 / ZX-Next / eZ80)                   Page 5
Hexadecimal [24-Bits]

Symbol Table

  0 A$input$429                                                    0001D1 GR
  0 A$input$430                                                    0001D2 GR
  0 A$input$434                                                    0001D4 GR
  0 A$input$435                                                    0001D7 GR
  0 A$input$439                                                    0001DA GR
  0 A$input$440                                                    0001DB GR
  0 A$input$444                                                    0001DE GR
  0 A$input$445                                                    0001E1 GR
  0 A$input$450                                                    0001E3 GR
  0 A$input$451                                                    0001E4 GR
  0 A$input$452                                                    0001E5 GR
  0 A$input$453                                                    0001E7 GR
  0 A$input$454                                                    0001E8 GR
  0 A$input$455                                                    0001E9 GR
  0 A$input$459                                                    0001EB GR
  0 A$input$460                                                    0001EE GR
  0 A$input$464                                                    0001F1 GR
  0 A$input$465                                                    0001F2 GR
  0 A$input$469                                                    0001F5 GR
  0 A$input$470                                                    0001F8 GR
  0 A$input$475                                                    0001FA GR
  0 A$input$476                                                    0001FD GR
  0 A$input$477                                                    000200 GR
  0 A$input$480                                                    000201 GR
  0 A$input$481                                                    000204 GR
  0 A$input$482                                                    000207 GR
  0 A$input$483                                                    000208 GR
  0 A$input$487                                                    00020A GR
  0 A$input$488                                                    00020B GR
  0 A$input$489                                                    00020C GR
  0 A$input$490                                                    00020E GR
  0 A$input$491                                                    00020F GR
  0 A$input$492                                                    000210 GR
  0 A$input$496                                                    000212 GR
  0 A$input$497                                                    000215 GR
  0 A$input$501                                                    000218 GR
  0 A$input$505                                                    00021B GR
  0 A$input$506                                                    00021E GR
  0 A$input$511                                                    000220 GR
  0 A$input$512                                                    000223 GR
  0 A$input$513                                                    000226 GR
  0 A$input$516                                                    000227 GR
  0 A$input$517                                                    00022A GR
  0 A$input$518                                                    00022D GR
  0 A$input$519                                                    00022E GR
  0 A$input$523                                                    000230 GR
  0 A$input$524                                                    000231 GR
  0 A$input$525                                                    000232 GR
  0 A$input$526                                                    000234 GR
  0 A$input$527                                                    000235 GR
  0 A$input$528                                                    000236 GR
  0 A$input$532                                                    000238 GR
  0 A$input$533                                                    00023B GR
  0 A$input$537                                                    00023E GR
  0 A$input$541                                                    000241 GR
ASxxxx Assembler V02.00 + NoICE + SDCC mods  (Zilog Z80 / Hitachi HD64180 / ZX-Next / eZ80)                   Page 6
Hexadecimal [24-Bits]

Symbol Table

  0 A$input$546                                                    000244 GR
  0 A$input$547                                                    000248 GR
  0 A$input$551                                                    00024A GR
  0 A$input$552                                                    00024D GR
  0 A$input$557                                                    00024F GR
  0 A$input$558                                                    000252 GR
  0 A$input$559                                                    000255 GR
  0 A$input$563                                                    000258 GR
  0 A$input$564                                                    00025B GR
  0 A$input$565                                                    00025E GR
  0 A$input$566                                                    00025F GR
  0 A$input$567                                                    000262 GR
  0 A$input$568                                                    000265 GR
  0 A$input$569                                                    000266 GR
  0 A$input$573                                                    000268 GR
  0 A$input$574                                                    00026B GR
  0 A$input$578                                                    00026E GR
  0 A$input$579                                                    00026F GR
  0 A$input$583                                                    000272 GR
  0 A$input$584                                                    000275 GR
  0 A$input$589                                                    000277 GR
  0 A$input$590                                                    00027A GR
  0 A$input$591                                                    00027D GR
  0 A$input$592                                                    00027E GR
  0 A$input$593                                                    000281 GR
  0 A$input$594                                                    000284 GR
  0 A$input$595                                                    000285 GR
  0 A$input$596                                                    000288 GR
  0 A$input$597                                                    00028B GR
  0 A$input$598                                                    00028C GR
  0 A$input$599                                                    00028F GR
  0 A$input$600                                                    000292 GR
  0 A$input$604                                                    000293 GR
  0 A$input$605                                                    000296 GR
  0 A$input$606                                                    000298 GR
  0 A$input$610                                                    00029A GR
  0 A$input$611                                                    00029B GR
  0 A$input$612                                                    00029C GR
  0 A$input$613                                                    00029E GR
  0 A$input$614                                                    00029F GR
  0 A$input$615                                                    0002A0 GR
  0 A$input$619                                                    0002A2 GR
  0 A$input$620                                                    0002A5 GR
  0 A$input$624                                                    0002A8 GR
  0 A$input$628                                                    0002AB GR
  0 A$input$629                                                    0002AE GR
  0 A$input$634                                                    0002B0 GR
  0 A$input$635                                                    0002B3 GR
  0 A$input$636                                                    0002B5 GR
  0 A$input$640                                                    0002B7 GR
  0 A$input$641                                                    0002B8 GR
  0 A$input$642                                                    0002B9 GR
  0 A$input$643                                                    0002BB GR
  0 A$input$644                                                    0002BC GR
  0 A$input$645                                                    0002BD GR
ASxxxx Assembler V02.00 + NoICE + SDCC mods  (Zilog Z80 / Hitachi HD64180 / ZX-Next / eZ80)                   Page 7
Hexadecimal [24-Bits]

Symbol Table

  0 A$input$649                                                    0002BF GR
  0 A$input$650                                                    0002C2 GR
  0 A$input$654                                                    0002C5 GR
  0 A$input$658                                                    0002C8 GR
  0 A$input$663                                                    0002CB GR
  0 A$input$664                                                    0002CE GR
  0 A$input$665                                                    0002D1 GR
  0 A$input$666                                                    0002D2 GR
  0 A$input$667                                                    0002D5 GR
  0 A$input$668                                                    0002D8 GR
  0 A$input$669                                                    0002D9 GR
  0 A$input$670                                                    0002DC GR
  0 A$input$671                                                    0002DF GR
  0 A$input$672                                                    0002E0 GR
  0 A$input$673                                                    0002E3 GR
  0 A$input$674                                                    0002E6 GR
  0 A$input$678                                                    0002E7 GR
  0 A$input$679                                                    0002EA GR
  0 A$input$680                                                    0002EC GR
  0 A$input$684                                                    0002EE GR
  0 A$input$685                                                    0002EF GR
  0 A$input$686                                                    0002F0 GR
  0 A$input$687                                                    0002F2 GR
  0 A$input$688                                                    0002F3 GR
  0 A$input$689                                                    0002F4 GR
  0 A$input$693                                                    0002F6 GR
  0 A$input$694                                                    0002F9 GR
  0 A$input$698                                                    0002FC GR
  0 A$input$702                                                    0002FF GR
  0 A$input$703                                                    000302 GR
  0 A$input$708                                                    000304 GR
  0 A$input$709                                                    000307 GR
  0 A$input$710                                                    000309 GR
  0 A$input$714                                                    00030B GR
  0 A$input$715                                                    00030C GR
  0 A$input$716                                                    00030D GR
  0 A$input$717                                                    00030F GR
  0 A$input$718                                                    000310 GR
  0 A$input$719                                                    000311 GR
  0 A$input$723                                                    000313 GR
  0 A$input$724                                                    000316 GR
  0 A$input$728                                                    000319 GR
  0 A$input$732                                                    00031C GR
  0 A$input$737                                                    00031F GR
  0 A$input$738                                                    000322 GR
  0 A$input$739                                                    000325 GR
  0 A$input$743                                                    000328 GR
  0 A$input$744                                                    00032B GR
  0 A$input$745                                                    00032E GR
  0 A$input$746                                                    00032F GR
  0 A$input$747                                                    000332 GR
  0 A$input$748                                                    000335 GR
  0 A$input$749                                                    000336 GR
  0 A$input$753                                                    000338 GR
  0 A$input$754                                                    00033B GR
ASxxxx Assembler V02.00 + NoICE + SDCC mods  (Zilog Z80 / Hitachi HD64180 / ZX-Next / eZ80)                   Page 8
Hexadecimal [24-Bits]

Symbol Table

  0 A$input$755                                                    00033D GR
  0 A$input$759                                                    00033F GR
  0 A$input$760                                                    000342 GR
  0 A$input$764                                                    000345 GR
  0 A$input$768                                                    000348 GR
  0 A$input$77                                                     000000 GR
  0 A$input$773                                                    00034B GR
  0 A$input$774                                                    00034E GR
  0 A$input$775                                                    000351 GR
  0 A$input$776                                                    000352 GR
  0 A$input$777                                                    000355 GR
  0 A$input$778                                                    000358 GR
  0 A$input$779                                                    000359 GR
  0 A$input$78                                                     000003 GR
  0 A$input$783                                                    00035B GR
  0 A$input$784                                                    00035E GR
  0 A$input$785                                                    000360 GR
  0 A$input$789                                                    000362 GR
  0 A$input$790                                                    000365 GR
  0 A$input$794                                                    000368 GR
  0 A$input$798                                                    00036B GR
  0 A$input$803                                                    00036E GR
  0 A$input$804                                                    000371 GR
  0 A$input$805                                                    000374 GR
  0 A$input$806                                                    000375 GR
  0 A$input$807                                                    000378 GR
  0 A$input$808                                                    00037B GR
  0 A$input$809                                                    00037C GR
  0 A$input$813                                                    00037E GR
  0 A$input$814                                                    000381 GR
  0 A$input$815                                                    000383 GR
  0 A$input$819                                                    000385 GR
  0 A$input$82                                                     000006 GR
  0 A$input$820                                                    000388 GR
  0 A$input$824                                                    00038B GR
  0 A$input$828                                                    00038E GR
  0 A$input$833                                                    000391 GR
  0 A$input$834                                                    000394 GR
  0 A$input$835                                                    000397 GR
  0 A$input$836                                                    000398 GR
  0 A$input$837                                                    00039B GR
  0 A$input$838                                                    00039E GR
  0 A$input$839                                                    00039F GR
  0 A$input$843                                                    0003A1 GR
  0 A$input$844                                                    0003A4 GR
  0 A$input$845                                                    0003A6 GR
  0 A$input$849                                                    0003A8 GR
  0 A$input$850                                                    0003AB GR
  0 A$input$854                                                    0003AE GR
  0 A$input$858                                                    0003B1 GR
  0 A$input$86                                                     000009 GR
  0 A$input$863                                                    0003B4 GR
  0 A$input$864                                                    0003B7 GR
  0 A$input$865                                                    0003BA GR
  0 A$input$866                                                    0003BB GR
ASxxxx Assembler V02.00 + NoICE + SDCC mods  (Zilog Z80 / Hitachi HD64180 / ZX-Next / eZ80)                   Page 9
Hexadecimal [24-Bits]

Symbol Table

  0 A$input$867                                                    0003BE GR
  0 A$input$868                                                    0003C1 GR
  0 A$input$869                                                    0003C2 GR
  0 A$input$873                                                    0003C4 GR
  0 A$input$874                                                    0003C7 GR
  0 A$input$875                                                    0003C9 GR
  0 A$input$879                                                    0003CB GR
  0 A$input$880                                                    0003CE GR
  0 A$input$884                                                    0003D1 GR
  0 A$input$888                                                    0003D4 GR
  0 A$input$893                                                    0003D7 GR
  0 A$input$894                                                    0003DA GR
  0 A$input$895                                                    0003DB GR
  0 A$input$899                                                    0003DE GR
  0 A$input$90                                                     00000C GR
  0 A$input$900                                                    0003E1 GR
  0 A$input$901                                                    0003E2 GR
  0 A$input$905                                                    0003E5 GR
  0 A$input$906                                                    0003E7 GR
  0 A$input$911                                                    0003E9 GR
  0 A$input$924                                                    0003EA GR
  0 A$input$925                                                    0003ED GR
  0 A$input$926                                                    0003F0 GR
  0 A$input$927                                                    0003F1 GR
  0 A$input$931                                                    0003F3 GR
  0 A$input$932                                                    0003F6 GR
  0 A$input$933                                                    0003F9 GR
  0 A$input$934                                                    0003FA GR
  0 A$input$938                                                    0003FC GR
  0 A$input$939                                                    0003FF GR
  0 A$input$94                                                     00000F GR
  0 A$input$944                                                    000402 GR
  0 A$input$945                                                    000406 GR
  0 A$input$950                                                    000407 GR
  0 A$input$951                                                    00040B GR
  0 A$input$955                                                    00040C GR
  0 A$input$956                                                    00040F GR
  0 A$input$957                                                    000410 GR
  0 A$input$958                                                    000413 GR
  0 A$input$959                                                    000414 GR
  0 A$input$963                                                    000416 GR
  0 A$input$964                                                    000418 GR
  0 A$input$965                                                    00041C GR
  0 A$input$966                                                    00041F GR
  0 A$input$967                                                    000421 GR
  0 A$input$968                                                    000424 GR
  0 A$input$972                                                    000426 GR
  0 A$input$973                                                    000429 GR
  0 A$input$977                                                    00042C GR
  0 A$input$981                                                    000430 GR
  0 A$input$982                                                    000434 GR
  0 A$input$987                                                    000435 GR
  0 A$input$988                                                    000438 GR
  0 A$input$993                                                    000439 GR
  0 A$input$994                                                    00043B GR
ASxxxx Assembler V02.00 + NoICE + SDCC mods  (Zilog Z80 / Hitachi HD64180 / ZX-Next / eZ80)                    Page 10
Hexadecimal [24-Bits]

Symbol Table

  0 A$input$995                                                    00043F GR
  0 A$input$996                                                    000442 GR
  0 A$input$997                                                    000444 GR
  0 A$input$998                                                    000447 GR
  0 C$input.c$10$1_0$84                                         =  000006 GR
  0 C$input.c$100$1_0$86                                        =  00024F GR
  0 C$input.c$101$2_0$109                                       =  000258 GR
  0 C$input.c$102$3_0$110                                       =  000268 GR
  0 C$input.c$103$3_0$110                                       =  00026E GR
  0 C$input.c$104$3_0$110                                       =  000272 GR
  0 C$input.c$105$2_0$109                                       =  000293 GR
  0 C$input.c$106$1_0$86                                        =  000277 GR
  0 C$input.c$106$3_0$111                                       =  00029A GR
  0 C$input.c$107$4_0$112                                       =  0002A2 GR
  0 C$input.c$108$4_0$112                                       =  0002A8 GR
  0 C$input.c$109$4_0$112                                       =  0002AB GR
  0 C$input.c$11$1_0$84                                         =  000009 GR
  0 C$input.c$111$2_0$109                                       =  0002B0 GR
  0 C$input.c$112$3_0$113                                       =  0002B7 GR
  0 C$input.c$113$4_0$114                                       =  0002BF GR
  0 C$input.c$114$4_0$114                                       =  0002C5 GR
  0 C$input.c$115$4_0$114                                       =  0002C8 GR
  0 C$input.c$119$2_0$109                                       =  0002E7 GR
  0 C$input.c$12$1_0$84                                         =  00000C GR
  0 C$input.c$120$1_0$86                                        =  0002CB GR
  0 C$input.c$120$3_0$115                                       =  0002EE GR
  0 C$input.c$121$4_0$116                                       =  0002F6 GR
  0 C$input.c$122$4_0$116                                       =  0002FC GR
  0 C$input.c$123$4_0$116                                       =  0002FF GR
  0 C$input.c$125$2_0$109                                       =  000304 GR
  0 C$input.c$126$3_0$117                                       =  00030B GR
  0 C$input.c$127$4_0$118                                       =  000313 GR
  0 C$input.c$128$4_0$118                                       =  000319 GR
  0 C$input.c$129$4_0$118                                       =  00031C GR
  0 C$input.c$13$1_0$84                                         =  00000F GR
  0 C$input.c$133$1_0$86                                        =  00031F GR
  0 C$input.c$134$2_0$119                                       =  000328 GR
  0 C$input.c$135$3_0$120                                       =  000338 GR
  0 C$input.c$136$4_0$121                                       =  00033F GR
  0 C$input.c$137$4_0$121                                       =  000345 GR
  0 C$input.c$138$4_0$121                                       =  000348 GR
  0 C$input.c$14$1_0$84                                         =  000012 GR
  0 C$input.c$141$2_0$119                                       =  00034B GR
  0 C$input.c$142$3_0$122                                       =  00035B GR
  0 C$input.c$143$4_0$123                                       =  000362 GR
  0 C$input.c$144$4_0$123                                       =  000368 GR
  0 C$input.c$145$4_0$123                                       =  00036B GR
  0 C$input.c$148$2_0$119                                       =  00036E GR
  0 C$input.c$149$3_0$124                                       =  00037E GR
  0 C$input.c$150$4_0$125                                       =  000385 GR
  0 C$input.c$151$4_0$125                                       =  00038B GR
  0 C$input.c$152$4_0$125                                       =  00038E GR
  0 C$input.c$155$2_0$119                                       =  000391 GR
  0 C$input.c$156$3_0$126                                       =  0003A1 GR
  0 C$input.c$157$4_0$127                                       =  0003A8 GR
ASxxxx Assembler V02.00 + NoICE + SDCC mods  (Zilog Z80 / Hitachi HD64180 / ZX-Next / eZ80)                    Page 11
Hexadecimal [24-Bits]

Symbol Table

  0 C$input.c$158$4_0$127                                       =  0003AE GR
  0 C$input.c$159$4_0$127                                       =  0003B1 GR
  0 C$input.c$16$1_0$86                                         =  000013 GR
  0 C$input.c$162$2_0$119                                       =  0003B4 GR
  0 C$input.c$163$3_0$128                                       =  0003C4 GR
  0 C$input.c$164$4_0$129                                       =  0003CB GR
  0 C$input.c$165$4_0$129                                       =  0003D1 GR
  0 C$input.c$166$4_0$129                                       =  0003D4 GR
  0 C$input.c$17$1_0$86                                         =  000020 GR
  0 C$input.c$171$1_0$86                                        =  0003D7 GR
  0 C$input.c$172$1_0$86                                        =  0003DE GR
  0 C$input.c$173$1_0$86                                        =  0003E9 GR
  0 C$input.c$175$1_0$131                                       =  0003EA GR
  0 C$input.c$176$1_0$131                                       =  0003EA GR
  0 C$input.c$177$2_0$132                                       =  0003F3 GR
  0 C$input.c$178$2_0$132                                       =  0003FC GR
  0 C$input.c$179$2_0$132                                       =  000402 GR
  0 C$input.c$18$1_0$86                                         =  000026 GR
  0 C$input.c$180$1_0$131                                       =  00040C GR
  0 C$input.c$181$2_0$133                                       =  000416 GR
  0 C$input.c$182$3_0$134                                       =  000426 GR
  0 C$input.c$183$1_0$131                                       =  000407 GR
  0 C$input.c$183$3_0$134                                       =  00042C GR
  0 C$input.c$184$3_0$134                                       =  000430 GR
  0 C$input.c$186$3_0$135                                       =  000435 GR
  0 C$input.c$189$2_0$136                                       =  000439 GR
  0 C$input.c$19$1_0$86                                         =  00002F GR
  0 C$input.c$190$3_0$137                                       =  000449 GR
  0 C$input.c$191$3_0$137                                       =  00044F GR
  0 C$input.c$192$3_0$137                                       =  000453 GR
  0 C$input.c$194$3_0$138                                       =  000458 GR
  0 C$input.c$197$1_0$131                                       =  00045B GR
  0 C$input.c$199$1_0$140                                       =  00045C GR
  0 C$input.c$200$1_0$140                                       =  00045C GR
  0 C$input.c$201$2_0$141                                       =  000465 GR
  0 C$input.c$202$2_0$141                                       =  00046E GR
  0 C$input.c$203$2_0$141                                       =  000474 GR
  0 C$input.c$204$1_0$140                                       =  000479 GR
  0 C$input.c$205$2_0$142                                       =  000483 GR
  0 C$input.c$206$3_0$143                                       =  000493 GR
  0 C$input.c$207$3_0$143                                       =  000499 GR
  0 C$input.c$209$3_0$144                                       =  00049E GR
  0 C$input.c$212$2_0$145                                       =  0004A2 GR
  0 C$input.c$213$3_0$146                                       =  0004B2 GR
  0 C$input.c$214$3_0$146                                       =  0004B8 GR
  0 C$input.c$216$3_0$147                                       =  0004BD GR
  0 C$input.c$219$1_0$140                                       =  0004C0 GR
  0 C$input.c$22$1_0$86                                         =  000038 GR
  0 C$input.c$221$1_0$149                                       =  0004C1 GR
  0 C$input.c$222$1_0$149                                       =  0004C1 GR
  0 C$input.c$223$1_0$149                                       =  0004C5 GR
  0 C$input.c$23$2_0$87                                         =  00003E GR
  0 C$input.c$24$2_0$87                                         =  000046 GR
  0 C$input.c$25$2_0$87                                         =  00004E GR
  0 C$input.c$26$2_0$87                                         =  000056 GR
ASxxxx Assembler V02.00 + NoICE + SDCC mods  (Zilog Z80 / Hitachi HD64180 / ZX-Next / eZ80)                    Page 12
Hexadecimal [24-Bits]

Symbol Table

  0 C$input.c$27$2_0$87                                         =  00005E GR
  0 C$input.c$29$2_0$88                                         =  000068 GR
  0 C$input.c$30$2_0$88                                         =  000070 GR
  0 C$input.c$31$2_0$88                                         =  000078 GR
  0 C$input.c$32$2_0$88                                         =  000080 GR
  0 C$input.c$33$2_0$88                                         =  000088 GR
  0 C$input.c$36$1_0$86                                         =  000090 GR
  0 C$input.c$37$2_0$89                                         =  000099 GR
  0 C$input.c$38$2_0$89                                         =  0000D4 GR
  0 C$input.c$39$1_0$86                                         =  00009E GR
  0 C$input.c$39$3_0$90                                         =  0000DD GR
  0 C$input.c$40$4_0$91                                         =  0000E5 GR
  0 C$input.c$41$4_0$91                                         =  0000EB GR
  0 C$input.c$42$4_0$91                                         =  0000EF GR
  0 C$input.c$43$1_0$86                                         =  0000B0 GR
  0 C$input.c$43$3_0$90                                         =  0000F5 GR
  0 C$input.c$44$4_0$92                                         =  000105 GR
  0 C$input.c$45$4_0$92                                         =  00010B GR
  0 C$input.c$46$4_0$92                                         =  00010F GR
  0 C$input.c$47$3_0$90                                         =  000115 GR
  0 C$input.c$48$4_0$93                                         =  000127 GR
  0 C$input.c$49$4_0$93                                         =  00012D GR
  0 C$input.c$50$4_0$93                                         =  000131 GR
  0 C$input.c$53$3_0$94                                         =  000136 GR
  0 C$input.c$54$4_0$95                                         =  00013E GR
  0 C$input.c$55$4_0$95                                         =  000144 GR
  0 C$input.c$56$4_0$95                                         =  000148 GR
  0 C$input.c$57$3_0$94                                         =  00014D GR
  0 C$input.c$58$4_0$96                                         =  00015D GR
  0 C$input.c$59$5_0$97                                         =  00016D GR
  0 C$input.c$60$5_0$97                                         =  000173 GR
  0 C$input.c$61$5_0$97                                         =  000176 GR
  0 C$input.c$63$3_0$94                                         =  00017B GR
  0 C$input.c$64$4_0$98                                         =  00018B GR
  0 C$input.c$65$5_0$99                                         =  00019B GR
  0 C$input.c$66$5_0$99                                         =  0001A1 GR
  0 C$input.c$67$5_0$99                                         =  0001A4 GR
  0 C$input.c$71$2_0$89                                         =  0001C3 GR
  0 C$input.c$72$1_0$86                                         =  0001A7 GR
  0 C$input.c$72$3_0$100                                        =  0001CC GR
  0 C$input.c$73$4_0$101                                        =  0001D4 GR
  0 C$input.c$74$4_0$101                                        =  0001DA GR
  0 C$input.c$75$4_0$101                                        =  0001DE GR
  0 C$input.c$76$3_0$100                                        =  0001E3 GR
  0 C$input.c$77$4_0$102                                        =  0001EB GR
  0 C$input.c$78$4_0$102                                        =  0001F1 GR
  0 C$input.c$79$4_0$102                                        =  0001F5 GR
  0 C$input.c$8$0_0$84                                          =  000000 GR
  0 C$input.c$82$3_0$103                                        =  0001FA GR
  0 C$input.c$83$4_0$104                                        =  00020A GR
  0 C$input.c$84$5_0$105                                        =  000212 GR
  0 C$input.c$85$5_0$105                                        =  000218 GR
  0 C$input.c$86$5_0$105                                        =  00021B GR
  0 C$input.c$88$3_0$103                                        =  000220 GR
  0 C$input.c$89$4_0$106                                        =  000230 GR
ASxxxx Assembler V02.00 + NoICE + SDCC mods  (Zilog Z80 / Hitachi HD64180 / ZX-Next / eZ80)                    Page 13
Hexadecimal [24-Bits]

Symbol Table

  0 C$input.c$9$1_0$84                                          =  000000 GR
  0 C$input.c$90$5_0$107                                        =  000238 GR
  0 C$input.c$91$5_0$107                                        =  00023E GR
  0 C$input.c$92$5_0$107                                        =  000241 GR
  0 C$input.c$96$2_0$89                                         =  000244 GR
  0 C$input.c$97$3_0$108                                        =  00024A GR
    G$ROM_bank_to_be_mapped_on_slot0$0_0$0                      =  00FFFD G
    G$ROM_bank_to_be_mapped_on_slot1$0_0$0                      =  00FFFE G
    G$ROM_bank_to_be_mapped_on_slot2$0_0$0                      =  00FFFF G
    G$SMS_SRAM$0_0$0                                            =  008000 G
    G$SRAM_bank_to_be_mapped_on_slot2$0_0$0                     =  00FFFC G
  0 G$clear_input$0$0                                           =  000000 GR
  0 G$getButtonsPressed$0$0                                     =  0004C1 GR
  0 G$getDirection$0$0                                          =  0003EA GR
  0 G$getRotation$0$0                                           =  00045C GR
  0 G$update_input$0$0                                          =  000013 GR
  0 XG$clear_input$0$0                                          =  000012 GR
  0 XG$getButtonsPressed$0$0                                    =  0004C5 GR
  0 XG$getDirection$0$0                                         =  00045B GR
  0 XG$getRotation$0$0                                          =  0004C0 GR
  0 XG$update_input$0$0                                         =  0003E9 GR
    _ROM_bank_to_be_mapped_on_slot0                             =  00FFFD G
    _ROM_bank_to_be_mapped_on_slot1                             =  00FFFE G
    _ROM_bank_to_be_mapped_on_slot2                             =  00FFFF G
    _SMS_SRAM                                                   =  008000 G
    _SMS_getKeysHeld                                               ****** GX
    _SMS_getKeysPressed                                            ****** GX
    _SMS_getKeysReleased                                           ****** GX
    _SRAM_bank_to_be_mapped_on_slot2                            =  00FFFC G
    _button_input                                                  ****** GX
  0 _clear_input                                                   000000 GR
    _current_player                                                ****** GX
  0 _getButtonsPressed                                             0004C1 GR
  0 _getDirection                                                  0003EA GR
  0 _getRotation                                                   00045C GR
    _input_cnt_direction                                           ****** GX
    _input_cnt_rotation                                            ****** GX
    _movement_direction                                            ****** GX
    _repeat_movement                                               ****** GX
    _repeat_rotation                                               ****** GX
    _resetPressed                                                  ****** GX
    _rotation_input                                                ****** GX
  0 _update_input                                                  000013 GR


ASxxxx Assembler V02.00 + NoICE + SDCC mods  (Zilog Z80 / Hitachi HD64180 / ZX-Next / eZ80)                    Page 14
Hexadecimal [24-Bits]

Area Table

   0 _CODE                                      size    4C6   flags    0
   1 _DATA                                      size      0   flags    0
   2 _INITIALIZED                               size      0   flags    0
   3 _DABS                                      size      0   flags    8
   4 _HOME                                      size      0   flags    0
   5 _GSINIT                                    size      0   flags    0
   6 _GSFINAL                                   size      0   flags    0
   7 _INITIALIZER                               size      0   flags    0
   8 _CABS                                      size      0   flags    8

