ASxxxx Assembler V02.00 + NoICE + SDCC mods  (Zilog Z80 / Hitachi HD64180 / ZX-Next / eZ80)                   Page 1
Hexadecimal [24-Bits]

Symbol Table

    .__.$$$.                                                    =  002710 L
    .__.ABS.                                                    =  000000 G
    .__.CPU.                                                    =  000000 L
    .__.H$L.                                                    =  000000 L
  0 A$logo_state$101                                               000009 GR
  0 A$logo_state$102                                               00000C GR
  0 A$logo_state$106                                               00000F GR
  0 A$logo_state$107                                               000012 GR
  0 A$logo_state$115                                               000014 GR
  0 A$logo_state$128                                               000015 GR
  0 A$logo_state$129                                               000018 GR
  0 A$logo_state$130                                               000019 GR
  0 A$logo_state$134                                               00001B GR
  0 A$logo_state$138                                               00001E GR
  0 A$logo_state$141                                               000020 GR
  0 A$logo_state$142                                               000022 GR
  0 A$logo_state$146                                               000025 GR
  0 A$logo_state$150                                               000028 GR
  0 A$logo_state$151                                               00002A GR
  0 A$logo_state$155                                               00002D GR
  0 A$logo_state$156                                               000030 GR
  0 A$logo_state$157                                               000032 GR
  0 A$logo_state$162                                               000033 GR
  0 A$logo_state$163                                               000036 GR
  0 A$logo_state$164                                               000037 GR
  0 A$logo_state$169                                               000039 GR
  0 A$logo_state$170                                               00003C GR
  0 A$logo_state$171                                               00003F GR
  0 A$logo_state$172                                               000040 GR
  0 A$logo_state$173                                               000042 GR
  0 A$logo_state$177                                               000044 GR
  0 A$logo_state$178                                               000047 GR
  0 A$logo_state$183                                               000049 GR
  0 A$logo_state$184                                               00004C GR
  0 A$logo_state$185                                               00004E GR
  0 A$logo_state$190                                               00004F GR
  0 A$logo_state$191                                               000052 GR
  0 A$logo_state$192                                               000054 GR
  0 A$logo_state$196                                               000056 GR
  0 A$logo_state$200                                               000059 GR
  0 A$logo_state$201                                               00005C GR
  0 A$logo_state$202                                               00005E GR
  0 A$logo_state$207                                               00005F GR
  0 A$logo_state$211                                               000062 GR
  0 A$logo_state$212                                               000064 GR
  0 A$logo_state$213                                               000066 GR
  0 A$logo_state$216                                               000067 GR
  0 A$logo_state$217                                               000069 GR
  0 A$logo_state$221                                               00006C GR
  0 A$logo_state$222                                               00006E GR
  0 A$logo_state$226                                               000071 GR
  0 A$logo_state$227                                               000074 GR
  0 A$logo_state$228                                               000076 GR
  0 A$logo_state$233                                               000077 GR
  0 A$logo_state$234                                               00007A GR
ASxxxx Assembler V02.00 + NoICE + SDCC mods  (Zilog Z80 / Hitachi HD64180 / ZX-Next / eZ80)                   Page 2
Hexadecimal [24-Bits]

Symbol Table

  0 A$logo_state$235                                               00007C GR
  0 A$logo_state$241                                               00007E GR
  0 A$logo_state$242                                               000080 GR
  0 A$logo_state$243                                               000081 GR
  0 A$logo_state$247                                               000084 GR
  0 A$logo_state$248                                               000087 GR
  0 A$logo_state$252                                               00008A GR
  0 A$logo_state$253                                               00008D GR
  0 A$logo_state$254                                               00008F GR
  0 A$logo_state$259                                               000090 GR
  0 A$logo_state$260                                               000093 GR
  0 A$logo_state$261                                               000095 GR
  0 A$logo_state$265                                               000097 GR
  0 A$logo_state$266                                               000098 GR
  0 A$logo_state$271                                               00009B GR
  0 A$logo_state$272                                               00009E GR
  0 A$logo_state$273                                               0000A1 GR
  0 A$logo_state$274                                               0000A2 GR
  0 A$logo_state$275                                               0000A4 GR
  0 A$logo_state$279                                               0000A6 GR
  0 A$logo_state$280                                               0000A9 GR
  0 A$logo_state$285                                               0000AB GR
  0 A$logo_state$286                                               0000AE GR
  0 A$logo_state$287                                               0000B0 GR
  0 A$logo_state$292                                               0000B1 GR
  0 A$logo_state$293                                               0000B4 GR
  0 A$logo_state$294                                               0000B6 GR
  0 A$logo_state$298                                               0000B8 GR
  0 A$logo_state$302                                               0000BB GR
  0 A$logo_state$303                                               0000BE GR
  0 A$logo_state$304                                               0000C0 GR
  0 A$logo_state$309                                               0000C1 GR
  0 A$logo_state$310                                               0000C4 GR
  0 A$logo_state$311                                               0000C6 GR
  0 A$logo_state$315                                               0000C7 GR
  0 A$logo_state$323                                               0000C9 GR
  0 A$logo_state$336                                               0000CC GR
  0 A$logo_state$347                                               0000CF GR
  0 A$logo_state$90                                                000000 GR
  0 A$logo_state$91                                                000001 GR
  0 A$logo_state$92                                                000002 GR
  0 A$logo_state$96                                                000005 GR
  0 A$logo_state$97                                                000006 GR
  0 C$logo_state.c$14$0_0$195                                   =  000000 GR
  0 C$logo_state.c$15$1_0$195                                   =  000000 GR
  0 C$logo_state.c$16$1_0$195                                   =  000005 GR
  0 C$logo_state.c$17$1_0$195                                   =  000009 GR
  0 C$logo_state.c$18$1_0$195                                   =  00000F GR
  0 C$logo_state.c$19$1_0$195                                   =  000014 GR
  0 C$logo_state.c$21$1_0$197                                   =  000015 GR
  0 C$logo_state.c$22$1_0$197                                   =  000015 GR
  0 C$logo_state.c$23$2_0$198                                   =  00001B GR
  0 C$logo_state.c$24$2_0$198                                   =  00001E GR
  0 C$logo_state.c$25$2_0$198                                   =  000025 GR
  0 C$logo_state.c$26$2_0$198                                   =  000028 GR
ASxxxx Assembler V02.00 + NoICE + SDCC mods  (Zilog Z80 / Hitachi HD64180 / ZX-Next / eZ80)                   Page 3
Hexadecimal [24-Bits]

Symbol Table

  0 C$logo_state.c$27$2_0$198                                   =  00002D GR
  0 C$logo_state.c$28$1_0$197                                   =  000033 GR
  0 C$logo_state.c$29$2_0$199                                   =  000039 GR
  0 C$logo_state.c$30$3_0$200                                   =  000044 GR
  0 C$logo_state.c$32$2_0$199                                   =  000049 GR
  0 C$logo_state.c$33$1_0$197                                   =  00004F GR
  0 C$logo_state.c$34$2_0$201                                   =  000056 GR
  0 C$logo_state.c$35$2_0$201                                   =  000059 GR
  0 C$logo_state.c$36$1_0$197                                   =  00005F GR
  0 C$logo_state.c$37$2_0$202                                   =  000062 GR
  0 C$logo_state.c$38$2_0$202                                   =  00006C GR
  0 C$logo_state.c$39$2_0$202                                   =  000071 GR
  0 C$logo_state.c$40$1_0$197                                   =  000077 GR
  0 C$logo_state.c$41$2_0$203                                   =  00007E GR
  0 C$logo_state.c$42$2_0$203                                   =  000084 GR
  0 C$logo_state.c$43$2_0$203                                   =  00008A GR
  0 C$logo_state.c$44$1_0$197                                   =  000090 GR
  0 C$logo_state.c$45$2_0$204                                   =  000097 GR
  0 C$logo_state.c$46$2_0$204                                   =  00009B GR
  0 C$logo_state.c$47$3_0$205                                   =  0000A6 GR
  0 C$logo_state.c$49$2_0$204                                   =  0000AB GR
  0 C$logo_state.c$50$1_0$197                                   =  0000B1 GR
  0 C$logo_state.c$51$2_0$206                                   =  0000B8 GR
  0 C$logo_state.c$52$2_0$206                                   =  0000BB GR
  0 C$logo_state.c$53$1_0$197                                   =  0000C1 GR
  0 C$logo_state.c$54$2_0$207                                   =  0000C7 GR
  0 C$logo_state.c$56$1_0$197                                   =  0000C9 GR
  0 C$logo_state.c$58$1_0$209                                   =  0000CC GR
  0 C$logo_state.c$59$1_0$209                                   =  0000CC GR
  0 C$logo_state.c$60$1_0$209                                   =  0000CF GR
  0 C$logo_state.c$61$1_0$209                                   =  0000CF GR
  7 Flogo_state$__xinit_logo_state_status$0_0$0                 =  000000 GR
    G$ROM_bank_to_be_mapped_on_slot0$0_0$0                      =  00FFFD G
    G$ROM_bank_to_be_mapped_on_slot1$0_0$0                      =  00FFFE G
    G$ROM_bank_to_be_mapped_on_slot2$0_0$0                      =  00FFFF G
    G$SMS_SRAM$0_0$0                                            =  008000 G
    G$SRAM_bank_to_be_mapped_on_slot2$0_0$0                     =  00FFFC G
  0 G$logo_state_start$0$0                                      =  000000 GR
  2 G$logo_state_status$0_0$0                                   =  000000 GR
  0 G$logo_state_stop$0$0                                       =  0000CC GR
  0 G$logo_state_update$0$0                                     =  000015 GR
  0 XG$logo_state_start$0$0                                     =  000014 GR
  0 XG$logo_state_stop$0$0                                      =  0000CF GR
  0 XG$logo_state_update$0$0                                    =  0000C9 GR
    _PSGStop                                                       ****** GX
    _ROM_bank_to_be_mapped_on_slot0                             =  00FFFD G
    _ROM_bank_to_be_mapped_on_slot1                             =  00FFFE G
    _ROM_bank_to_be_mapped_on_slot2                             =  00FFFF G
    _SMS_SRAM                                                   =  008000 G
    _SMS_zeroBGPalette                                             ****** GX
    _SRAM_bank_to_be_mapped_on_slot2                            =  00FFFC G
  7 __xinit__logo_state_status                                     000000 R
    _background_fade_in                                            ****** GX
    _background_fade_out                                           ****** GX
    _frame_cnt                                                     ****** GX
ASxxxx Assembler V02.00 + NoICE + SDCC mods  (Zilog Z80 / Hitachi HD64180 / ZX-Next / eZ80)                   Page 4
Hexadecimal [24-Bits]

Symbol Table

    _full_volume                                                   ****** GX
    _load_tilemap                                                  ****** GX
    _load_tileset                                                  ****** GX
  0 _logo_state_start                                              000000 GR
  2 _logo_state_status                                             000000 GR
  0 _logo_state_stop                                               0000CC GR
  0 _logo_state_update                                             000015 GR
    _play_sample                                                   ****** GX
    _play_song                                                     ****** GX
    _transition_to_state                                           ****** GX
    _turn_black                                                    ****** GX
    _waitForFrame                                                  ****** GX

ASxxxx Assembler V02.00 + NoICE + SDCC mods  (Zilog Z80 / Hitachi HD64180 / ZX-Next / eZ80)                   Page 5
Hexadecimal [24-Bits]

Area Table

   0 _CODE                                      size     D2   flags    0
   1 _DATA                                      size      0   flags    0
   2 _INITIALIZED                               size      1   flags    0
   3 _DABS                                      size      0   flags    8
   4 _HOME                                      size      0   flags    0
   5 _GSINIT                                    size      0   flags    0
   6 _GSFINAL                                   size      0   flags    0
   7 _INITIALIZER                               size      1   flags    0
   8 _CABS                                      size      0   flags    8

