                                      1 ;--------------------------------------------------------
                                      2 ; File Created by SDCC : free open source ISO C Compiler 
                                      3 ; Version 4.2.12 #13827 (Linux)
                                      4 ;--------------------------------------------------------
                                      5 	.module palettes
                                      6 	.optsdcc -mz80
                                      7 	
                                      8 ;--------------------------------------------------------
                                      9 ; Public variables in this module
                                     10 ;--------------------------------------------------------
                                     11 	.globl _waitForFrame
                                     12 	.globl _SMS_loadSpritePalette
                                     13 	.globl _SMS_loadBGPalette
                                     14 	.globl _SMS_SRAM
                                     15 	.globl _SRAM_bank_to_be_mapped_on_slot2
                                     16 	.globl _ROM_bank_to_be_mapped_on_slot0
                                     17 	.globl _ROM_bank_to_be_mapped_on_slot1
                                     18 	.globl _ROM_bank_to_be_mapped_on_slot2
                                     19 	.globl _setBGPalette
                                     20 	.globl _setBGPaletteColor
                                     21 	.globl _getBGPalette
                                     22 	.globl _setSpritePalette
                                     23 	.globl _setSpritePaletteColor
                                     24 	.globl _getSpritePalette
                                     25 	.globl _createSepiaPaletteVersion
                                     26 	.globl _createBluePaletteVersion
                                     27 	.globl _fadeToTargetBGPalette
                                     28 	.globl _fadeToTargetSpritePalette
                                     29 ;--------------------------------------------------------
                                     30 ; special function registers
                                     31 ;--------------------------------------------------------
                                     32 ;--------------------------------------------------------
                                     33 ; ram data
                                     34 ;--------------------------------------------------------
                                     35 	.area _DATA
                           00FFFF    36 G$ROM_bank_to_be_mapped_on_slot2$0_0$0 == 0xffff
                           00FFFF    37 _ROM_bank_to_be_mapped_on_slot2	=	0xffff
                           00FFFE    38 G$ROM_bank_to_be_mapped_on_slot1$0_0$0 == 0xfffe
                           00FFFE    39 _ROM_bank_to_be_mapped_on_slot1	=	0xfffe
                           00FFFD    40 G$ROM_bank_to_be_mapped_on_slot0$0_0$0 == 0xfffd
                           00FFFD    41 _ROM_bank_to_be_mapped_on_slot0	=	0xfffd
                           00FFFC    42 G$SRAM_bank_to_be_mapped_on_slot2$0_0$0 == 0xfffc
                           00FFFC    43 _SRAM_bank_to_be_mapped_on_slot2	=	0xfffc
                           008000    44 G$SMS_SRAM$0_0$0 == 0x8000
                           008000    45 _SMS_SRAM	=	0x8000
                                     46 ;--------------------------------------------------------
                                     47 ; ram data
                                     48 ;--------------------------------------------------------
                                     49 	.area _INITIALIZED
                                     50 ;--------------------------------------------------------
                                     51 ; absolute external ram data
                                     52 ;--------------------------------------------------------
                                     53 	.area _DABS (ABS)
                                     54 ;--------------------------------------------------------
                                     55 ; global & static initialisations
                                     56 ;--------------------------------------------------------
                                     57 	.area _HOME
                                     58 	.area _GSINIT
                                     59 	.area _GSFINAL
                                     60 	.area _GSINIT
                                     61 ;--------------------------------------------------------
                                     62 ; Home
                                     63 ;--------------------------------------------------------
                                     64 	.area _HOME
                                     65 	.area _HOME
                                     66 ;--------------------------------------------------------
                                     67 ; code
                                     68 ;--------------------------------------------------------
                                     69 	.area _CODE
                           000000    70 	G$setBGPalette$0$0	= .
                                     71 	.globl	G$setBGPalette$0$0
                           000000    72 	C$palettes.c$8$0_0$107	= .
                                     73 	.globl	C$palettes.c$8$0_0$107
                                     74 ;src/engine/palettes.c:8: void setBGPalette(u8 *palette, u8 numcolors) {
                                     75 ;	---------------------------------
                                     76 ; Function setBGPalette
                                     77 ; ---------------------------------
      000000                         78 _setBGPalette::
      000000 DD E5            [15]   79 	push	ix
      000002 DD 21 00 00      [14]   80 	ld	ix,#0
      000006 DD 39            [15]   81 	add	ix,sp
      000008 F5               [11]   82 	push	af
      000009 EB               [ 4]   83 	ex	de, hl
                           00000A    84 	C$palettes.c$10$3_0$109	= .
                                     85 	.globl	C$palettes.c$10$3_0$109
                                     86 ;src/engine/palettes.c:10: for(i = 0;i<numcolors;i++) {
      00000A 0E 00            [ 7]   87 	ld	c, #0x00
      00000C                         88 00103$:
      00000C 79               [ 4]   89 	ld	a, c
      00000D DD 96 04         [19]   90 	sub	a, 4 (ix)
      000010 30 18            [12]   91 	jr	NC, 00101$
                           000012    92 	C$palettes.c$11$3_0$109	= .
                                     93 	.globl	C$palettes.c$11$3_0$109
                                     94 ;src/engine/palettes.c:11: background_palette[i] = palette[i];
      000012 3Er00            [ 7]   95 	ld	a, #<(_background_palette)
      000014 81               [ 4]   96 	add	a, c
      000015 DD 77 FE         [19]   97 	ld	-2 (ix), a
      000018 3Es00            [ 7]   98 	ld	a, #>(_background_palette)
      00001A CE 00            [ 7]   99 	adc	a, #0x00
      00001C DD 77 FF         [19]  100 	ld	-1 (ix), a
      00001F 69               [ 4]  101 	ld	l, c
      000020 26 00            [ 7]  102 	ld	h, #0x00
      000022 19               [11]  103 	add	hl, de
      000023 7E               [ 7]  104 	ld	a, (hl)
      000024 E1               [10]  105 	pop	hl
      000025 E5               [11]  106 	push	hl
      000026 77               [ 7]  107 	ld	(hl), a
                           000027   108 	C$palettes.c$10$2_0$108	= .
                                    109 	.globl	C$palettes.c$10$2_0$108
                                    110 ;src/engine/palettes.c:10: for(i = 0;i<numcolors;i++) {
      000027 0C               [ 4]  111 	inc	c
      000028 18 E2            [12]  112 	jr	00103$
      00002A                        113 00101$:
                           00002A   114 	C$palettes.c$13$1_0$107	= .
                                    115 	.globl	C$palettes.c$13$1_0$107
                                    116 ;src/engine/palettes.c:13: SMS_loadBGPalette(palette);
      00002A EB               [ 4]  117 	ex	de, hl
      00002B CDr00r00         [17]  118 	call	_SMS_loadBGPalette
                           00002E   119 	C$palettes.c$14$1_0$107	= .
                                    120 	.globl	C$palettes.c$14$1_0$107
                                    121 ;src/engine/palettes.c:14: }
      00002E DD F9            [10]  122 	ld	sp, ix
      000030 DD E1            [14]  123 	pop	ix
      000032 E1               [10]  124 	pop	hl
      000033 33               [ 6]  125 	inc	sp
      000034 E9               [ 4]  126 	jp	(hl)
                           000035   127 	G$setBGPaletteColor$0$0	= .
                                    128 	.globl	G$setBGPaletteColor$0$0
                           000035   129 	C$palettes.c$16$1_0$111	= .
                                    130 	.globl	C$palettes.c$16$1_0$111
                                    131 ;src/engine/palettes.c:16: void setBGPaletteColor(u8 position, u8 value) {
                                    132 ;	---------------------------------
                                    133 ; Function setBGPaletteColor
                                    134 ; ---------------------------------
      000035                        135 _setBGPaletteColor::
      000035 5F               [ 4]  136 	ld	e, a
      000036 4D               [ 4]  137 	ld	c, l
                           000037   138 	C$palettes.c$17$1_0$111	= .
                                    139 	.globl	C$palettes.c$17$1_0$111
                                    140 ;src/engine/palettes.c:17: background_palette[position] = value;
      000037 21r00r00         [10]  141 	ld	hl, #_background_palette+0
      00003A 16 00            [ 7]  142 	ld	d, #0x00
      00003C 19               [11]  143 	add	hl, de
      00003D 71               [ 7]  144 	ld	(hl), c
                           00003E   145 	C$palettes.c$18$1_0$111	= .
                                    146 	.globl	C$palettes.c$18$1_0$111
                                    147 ;src/engine/palettes.c:18: }
                           00003E   148 	C$palettes.c$18$1_0$111	= .
                                    149 	.globl	C$palettes.c$18$1_0$111
                           00003E   150 	XG$setBGPaletteColor$0$0	= .
                                    151 	.globl	XG$setBGPaletteColor$0$0
      00003E C9               [10]  152 	ret
                           00003F   153 	G$getBGPalette$0$0	= .
                                    154 	.globl	G$getBGPalette$0$0
                           00003F   155 	C$palettes.c$20$1_0$113	= .
                                    156 	.globl	C$palettes.c$20$1_0$113
                                    157 ;src/engine/palettes.c:20: u8* getBGPalette(void) {
                                    158 ;	---------------------------------
                                    159 ; Function getBGPalette
                                    160 ; ---------------------------------
      00003F                        161 _getBGPalette::
                           00003F   162 	C$palettes.c$21$1_0$113	= .
                                    163 	.globl	C$palettes.c$21$1_0$113
                                    164 ;src/engine/palettes.c:21: return background_palette;
      00003F 11r00r00         [10]  165 	ld	de, #_background_palette
                           000042   166 	C$palettes.c$22$1_0$113	= .
                                    167 	.globl	C$palettes.c$22$1_0$113
                                    168 ;src/engine/palettes.c:22: }
                           000042   169 	C$palettes.c$22$1_0$113	= .
                                    170 	.globl	C$palettes.c$22$1_0$113
                           000042   171 	XG$getBGPalette$0$0	= .
                                    172 	.globl	XG$getBGPalette$0$0
      000042 C9               [10]  173 	ret
                           000043   174 	G$setSpritePalette$0$0	= .
                                    175 	.globl	G$setSpritePalette$0$0
                           000043   176 	C$palettes.c$24$1_0$115	= .
                                    177 	.globl	C$palettes.c$24$1_0$115
                                    178 ;src/engine/palettes.c:24: void setSpritePalette(u8 *palette, u8 numcolors) {
                                    179 ;	---------------------------------
                                    180 ; Function setSpritePalette
                                    181 ; ---------------------------------
      000043                        182 _setSpritePalette::
      000043 DD E5            [15]  183 	push	ix
      000045 DD 21 00 00      [14]  184 	ld	ix,#0
      000049 DD 39            [15]  185 	add	ix,sp
      00004B F5               [11]  186 	push	af
      00004C EB               [ 4]  187 	ex	de, hl
                           00004D   188 	C$palettes.c$26$3_0$117	= .
                                    189 	.globl	C$palettes.c$26$3_0$117
                                    190 ;src/engine/palettes.c:26: for(i = 0;i<numcolors;i++) {
      00004D 0E 00            [ 7]  191 	ld	c, #0x00
      00004F                        192 00103$:
      00004F 79               [ 4]  193 	ld	a, c
      000050 DD 96 04         [19]  194 	sub	a, 4 (ix)
      000053 30 18            [12]  195 	jr	NC, 00101$
                           000055   196 	C$palettes.c$27$3_0$117	= .
                                    197 	.globl	C$palettes.c$27$3_0$117
                                    198 ;src/engine/palettes.c:27: sprite_palette[i] = palette[i];
      000055 3Er00            [ 7]  199 	ld	a, #<(_sprite_palette)
      000057 81               [ 4]  200 	add	a, c
      000058 DD 77 FE         [19]  201 	ld	-2 (ix), a
      00005B 3Es00            [ 7]  202 	ld	a, #>(_sprite_palette)
      00005D CE 00            [ 7]  203 	adc	a, #0x00
      00005F DD 77 FF         [19]  204 	ld	-1 (ix), a
      000062 69               [ 4]  205 	ld	l, c
      000063 26 00            [ 7]  206 	ld	h, #0x00
      000065 19               [11]  207 	add	hl, de
      000066 7E               [ 7]  208 	ld	a, (hl)
      000067 E1               [10]  209 	pop	hl
      000068 E5               [11]  210 	push	hl
      000069 77               [ 7]  211 	ld	(hl), a
                           00006A   212 	C$palettes.c$26$2_0$116	= .
                                    213 	.globl	C$palettes.c$26$2_0$116
                                    214 ;src/engine/palettes.c:26: for(i = 0;i<numcolors;i++) {
      00006A 0C               [ 4]  215 	inc	c
      00006B 18 E2            [12]  216 	jr	00103$
      00006D                        217 00101$:
                           00006D   218 	C$palettes.c$29$1_0$115	= .
                                    219 	.globl	C$palettes.c$29$1_0$115
                                    220 ;src/engine/palettes.c:29: SMS_loadSpritePalette(palette);
      00006D EB               [ 4]  221 	ex	de, hl
      00006E CDr00r00         [17]  222 	call	_SMS_loadSpritePalette
                           000071   223 	C$palettes.c$30$1_0$115	= .
                                    224 	.globl	C$palettes.c$30$1_0$115
                                    225 ;src/engine/palettes.c:30: }
      000071 DD F9            [10]  226 	ld	sp, ix
      000073 DD E1            [14]  227 	pop	ix
      000075 E1               [10]  228 	pop	hl
      000076 33               [ 6]  229 	inc	sp
      000077 E9               [ 4]  230 	jp	(hl)
                           000078   231 	G$setSpritePaletteColor$0$0	= .
                                    232 	.globl	G$setSpritePaletteColor$0$0
                           000078   233 	C$palettes.c$32$1_0$119	= .
                                    234 	.globl	C$palettes.c$32$1_0$119
                                    235 ;src/engine/palettes.c:32: void setSpritePaletteColor(u8 position, u8 value) {
                                    236 ;	---------------------------------
                                    237 ; Function setSpritePaletteColor
                                    238 ; ---------------------------------
      000078                        239 _setSpritePaletteColor::
      000078 5F               [ 4]  240 	ld	e, a
      000079 4D               [ 4]  241 	ld	c, l
                           00007A   242 	C$palettes.c$33$1_0$119	= .
                                    243 	.globl	C$palettes.c$33$1_0$119
                                    244 ;src/engine/palettes.c:33: sprite_palette[position] = value;
      00007A 21r00r00         [10]  245 	ld	hl, #_sprite_palette+0
      00007D 16 00            [ 7]  246 	ld	d, #0x00
      00007F 19               [11]  247 	add	hl, de
      000080 71               [ 7]  248 	ld	(hl), c
                           000081   249 	C$palettes.c$34$1_0$119	= .
                                    250 	.globl	C$palettes.c$34$1_0$119
                                    251 ;src/engine/palettes.c:34: }
                           000081   252 	C$palettes.c$34$1_0$119	= .
                                    253 	.globl	C$palettes.c$34$1_0$119
                           000081   254 	XG$setSpritePaletteColor$0$0	= .
                                    255 	.globl	XG$setSpritePaletteColor$0$0
      000081 C9               [10]  256 	ret
                           000082   257 	G$getSpritePalette$0$0	= .
                                    258 	.globl	G$getSpritePalette$0$0
                           000082   259 	C$palettes.c$36$1_0$121	= .
                                    260 	.globl	C$palettes.c$36$1_0$121
                                    261 ;src/engine/palettes.c:36: u8* getSpritePalette(void) {
                                    262 ;	---------------------------------
                                    263 ; Function getSpritePalette
                                    264 ; ---------------------------------
      000082                        265 _getSpritePalette::
                           000082   266 	C$palettes.c$37$1_0$121	= .
                                    267 	.globl	C$palettes.c$37$1_0$121
                                    268 ;src/engine/palettes.c:37: return sprite_palette;
      000082 11r00r00         [10]  269 	ld	de, #_sprite_palette
                           000085   270 	C$palettes.c$38$1_0$121	= .
                                    271 	.globl	C$palettes.c$38$1_0$121
                                    272 ;src/engine/palettes.c:38: }
                           000085   273 	C$palettes.c$38$1_0$121	= .
                                    274 	.globl	C$palettes.c$38$1_0$121
                           000085   275 	XG$getSpritePalette$0$0	= .
                                    276 	.globl	XG$getSpritePalette$0$0
      000085 C9               [10]  277 	ret
                           000086   278 	G$createSepiaPaletteVersion$0$0	= .
                                    279 	.globl	G$createSepiaPaletteVersion$0$0
                           000086   280 	C$palettes.c$85$1_0$124	= .
                                    281 	.globl	C$palettes.c$85$1_0$124
                                    282 ;src/engine/palettes.c:85: void createSepiaPaletteVersion(const u8 *original_palette, u8 *bw_palette, u8 numcolors) {
                                    283 ;	---------------------------------
                                    284 ; Function createSepiaPaletteVersion
                                    285 ; ---------------------------------
      000086                        286 _createSepiaPaletteVersion::
      000086 DD E5            [15]  287 	push	ix
      000088 DD 21 00 00      [14]  288 	ld	ix,#0
      00008C DD 39            [15]  289 	add	ix,sp
      00008E F5               [11]  290 	push	af
      00008F F5               [11]  291 	push	af
      000090 F5               [11]  292 	push	af
      000091 3B               [ 6]  293 	dec	sp
      000092 DD 75 FD         [19]  294 	ld	-3 (ix), l
      000095 DD 74 FE         [19]  295 	ld	-2 (ix), h
      000098 DD 73 FB         [19]  296 	ld	-5 (ix), e
      00009B DD 72 FC         [19]  297 	ld	-4 (ix), d
                           00009E   298 	C$palettes.c$87$2_0$124	= .
                                    299 	.globl	C$palettes.c$87$2_0$124
                                    300 ;src/engine/palettes.c:87: for(j = 0;j<numcolors;j++) {
      00009E DD 36 FF 00      [19]  301 	ld	-1 (ix), #0x00
      0000A2                        302 00115$:
      0000A2 DD 7E FF         [19]  303 	ld	a, -1 (ix)
      0000A5 DD 96 04         [19]  304 	sub	a, 4 (ix)
      0000A8 D2r7Cr01         [10]  305 	jp	NC, 00117$
                           0000AB   306 	C$palettes.c$88$3_0$125	= .
                                    307 	.globl	C$palettes.c$88$3_0$125
                                    308 ;src/engine/palettes.c:88: redComponent = getRedFromRGB(original_palette[j]);
      0000AB DD 7E FD         [19]  309 	ld	a, -3 (ix)
      0000AE DD 86 FF         [19]  310 	add	a, -1 (ix)
      0000B1 6F               [ 4]  311 	ld	l, a
                                    312 ;	spillPairReg hl
                                    313 ;	spillPairReg hl
      0000B2 DD 7E FE         [19]  314 	ld	a, -2 (ix)
      0000B5 CE 00            [ 7]  315 	adc	a, #0x00
      0000B7 67               [ 4]  316 	ld	h, a
      0000B8 4E               [ 7]  317 	ld	c, (hl)
      0000B9 79               [ 4]  318 	ld	a, c
      0000BA E6 0B            [ 7]  319 	and	a, #0x0b
      0000BC 5F               [ 4]  320 	ld	e, a
                           0000BD   321 	C$palettes.c$89$3_0$125	= .
                                    322 	.globl	C$palettes.c$89$3_0$125
                                    323 ;src/engine/palettes.c:89: greenComponent = getGreenFromRGB(original_palette[j]);
      0000BD 79               [ 4]  324 	ld	a, c
      0000BE 06 00            [ 7]  325 	ld	b, #0x00
      0000C0 E6 4C            [ 7]  326 	and	a, #0x4c
      0000C2 6F               [ 4]  327 	ld	l, a
                                    328 ;	spillPairReg hl
                                    329 ;	spillPairReg hl
      0000C3 78               [ 4]  330 	ld	a, b
      0000C4 E6 04            [ 7]  331 	and	a, #0x04
      0000C6 67               [ 4]  332 	ld	h, a
                                    333 ;	spillPairReg hl
                                    334 ;	spillPairReg hl
      0000C7 CB 2C            [ 8]  335 	sra	h
      0000C9 CB 1D            [ 8]  336 	rr	l
      0000CB CB 2C            [ 8]  337 	sra	h
      0000CD CB 1D            [ 8]  338 	rr	l
                           0000CF   339 	C$palettes.c$90$2_0$124	= .
                                    340 	.globl	C$palettes.c$90$2_0$124
                                    341 ;src/engine/palettes.c:90: blueComponent = getBlueFromRGB(original_palette[j]);
      0000CF 06 00            [ 7]  342 	ld	b, #0x00
      0000D1 79               [ 4]  343 	ld	a, c
      0000D2 E6 B0            [ 7]  344 	and	a, #0xb0
      0000D4 4F               [ 4]  345 	ld	c, a
      0000D5 78               [ 4]  346 	ld	a, b
      0000D6 E6 AD            [ 7]  347 	and	a, #0xad
      0000D8 47               [ 4]  348 	ld	b, a
      0000D9 CB 38            [ 8]  349 	srl	b
      0000DB CB 19            [ 8]  350 	rr	c
      0000DD CB 38            [ 8]  351 	srl	b
      0000DF CB 19            [ 8]  352 	rr	c
      0000E1 CB 38            [ 8]  353 	srl	b
      0000E3 CB 19            [ 8]  354 	rr	c
      0000E5 CB 38            [ 8]  355 	srl	b
      0000E7 CB 19            [ 8]  356 	rr	c
                           0000E9   357 	C$palettes.c$91$3_0$125	= .
                                    358 	.globl	C$palettes.c$91$3_0$125
                                    359 ;src/engine/palettes.c:91: addedColor = redComponent + greenComponent + blueComponent;
      0000E9 19               [11]  360 	add	hl, de
      0000EA 09               [11]  361 	add	hl, bc
      0000EB DD 75 FA         [19]  362 	ld	-6 (ix), l
                           0000EE   363 	C$palettes.c$92$3_0$125	= .
                                    364 	.globl	C$palettes.c$92$3_0$125
                                    365 ;src/engine/palettes.c:92: switch (addedColor)
      0000EE 3E 09            [ 7]  366 	ld	a, #0x09
      0000F0 DD 96 FA         [19]  367 	sub	a, -6 (ix)
      0000F3 38 5A            [12]  368 	jr	C, 00111$
      0000F5 DD 4E FA         [19]  369 	ld	c, -6 (ix)
      0000F8 06 00            [ 7]  370 	ld	b, #0x00
      0000FA 21r01r01         [10]  371 	ld	hl, #00135$
      0000FD 09               [11]  372 	add	hl, bc
      0000FE 09               [11]  373 	add	hl, bc
      0000FF 09               [11]  374 	add	hl, bc
      000100 E9               [ 4]  375 	jp	(hl)
      000101                        376 00135$:
      000101 C3r1Fr01         [10]  377 	jp	00101$
      000104 C3r2Br01         [10]  378 	jp	00104$
      000107 C3r2Br01         [10]  379 	jp	00104$
      00010A C3r2Br01         [10]  380 	jp	00104$
      00010D C3r37r01         [10]  381 	jp	00107$
      000110 C3r37r01         [10]  382 	jp	00107$
      000113 C3r37r01         [10]  383 	jp	00107$
      000116 C3r43r01         [10]  384 	jp	00110$
      000119 C3r43r01         [10]  385 	jp	00110$
      00011C C3r43r01         [10]  386 	jp	00110$
                           00011F   387 	C$palettes.c$94$4_0$126	= .
                                    388 	.globl	C$palettes.c$94$4_0$126
                                    389 ;src/engine/palettes.c:94: case 0:
      00011F                        390 00101$:
                           00011F   391 	C$palettes.c$95$4_0$126	= .
                                    392 	.globl	C$palettes.c$95$4_0$126
                                    393 ;src/engine/palettes.c:95: redComponent = 0;
      00011F DD 36 F9 00      [19]  394 	ld	-7 (ix), #0x00
                           000123   395 	C$palettes.c$96$4_0$126	= .
                                    396 	.globl	C$palettes.c$96$4_0$126
                                    397 ;src/engine/palettes.c:96: greenComponent = 0;
      000123 DD 36 FA 00      [19]  398 	ld	-6 (ix), #0x00
                           000127   399 	C$palettes.c$97$4_0$126	= .
                                    400 	.globl	C$palettes.c$97$4_0$126
                                    401 ;src/engine/palettes.c:97: blueComponent = 0;
      000127 0E 00            [ 7]  402 	ld	c, #0x00
                           000129   403 	C$palettes.c$98$4_0$126	= .
                                    404 	.globl	C$palettes.c$98$4_0$126
                                    405 ;src/engine/palettes.c:98: break;
      000129 18 2E            [12]  406 	jr	00112$
                           00012B   407 	C$palettes.c$101$4_0$126	= .
                                    408 	.globl	C$palettes.c$101$4_0$126
                                    409 ;src/engine/palettes.c:101: case 3:
      00012B                        410 00104$:
                           00012B   411 	C$palettes.c$102$4_0$126	= .
                                    412 	.globl	C$palettes.c$102$4_0$126
                                    413 ;src/engine/palettes.c:102: redComponent = 1;
      00012B DD 36 F9 01      [19]  414 	ld	-7 (ix), #0x01
                           00012F   415 	C$palettes.c$103$4_0$126	= .
                                    416 	.globl	C$palettes.c$103$4_0$126
                                    417 ;src/engine/palettes.c:103: greenComponent = 1;
      00012F DD 36 FA 01      [19]  418 	ld	-6 (ix), #0x01
                           000133   419 	C$palettes.c$104$4_0$126	= .
                                    420 	.globl	C$palettes.c$104$4_0$126
                                    421 ;src/engine/palettes.c:104: blueComponent = 0;
      000133 0E 00            [ 7]  422 	ld	c, #0x00
                           000135   423 	C$palettes.c$105$4_0$126	= .
                                    424 	.globl	C$palettes.c$105$4_0$126
                                    425 ;src/engine/palettes.c:105: break;
      000135 18 22            [12]  426 	jr	00112$
                           000137   427 	C$palettes.c$108$4_0$126	= .
                                    428 	.globl	C$palettes.c$108$4_0$126
                                    429 ;src/engine/palettes.c:108: case 6:
      000137                        430 00107$:
                           000137   431 	C$palettes.c$109$4_0$126	= .
                                    432 	.globl	C$palettes.c$109$4_0$126
                                    433 ;src/engine/palettes.c:109: redComponent = 2;
      000137 DD 36 F9 02      [19]  434 	ld	-7 (ix), #0x02
                           00013B   435 	C$palettes.c$110$4_0$126	= .
                                    436 	.globl	C$palettes.c$110$4_0$126
                                    437 ;src/engine/palettes.c:110: greenComponent = 2;
      00013B DD 36 FA 02      [19]  438 	ld	-6 (ix), #0x02
                           00013F   439 	C$palettes.c$111$4_0$126	= .
                                    440 	.globl	C$palettes.c$111$4_0$126
                                    441 ;src/engine/palettes.c:111: blueComponent = 1;
      00013F 0E 01            [ 7]  442 	ld	c, #0x01
                           000141   443 	C$palettes.c$112$4_0$126	= .
                                    444 	.globl	C$palettes.c$112$4_0$126
                                    445 ;src/engine/palettes.c:112: break;  
      000141 18 16            [12]  446 	jr	00112$
                           000143   447 	C$palettes.c$115$4_0$126	= .
                                    448 	.globl	C$palettes.c$115$4_0$126
                                    449 ;src/engine/palettes.c:115: case 9:
      000143                        450 00110$:
                           000143   451 	C$palettes.c$116$4_0$126	= .
                                    452 	.globl	C$palettes.c$116$4_0$126
                                    453 ;src/engine/palettes.c:116: redComponent = 3;
      000143 DD 36 F9 03      [19]  454 	ld	-7 (ix), #0x03
                           000147   455 	C$palettes.c$117$4_0$126	= .
                                    456 	.globl	C$palettes.c$117$4_0$126
                                    457 ;src/engine/palettes.c:117: greenComponent = 3;
      000147 DD 36 FA 03      [19]  458 	ld	-6 (ix), #0x03
                           00014B   459 	C$palettes.c$118$4_0$126	= .
                                    460 	.globl	C$palettes.c$118$4_0$126
                                    461 ;src/engine/palettes.c:118: blueComponent = 2;
      00014B 0E 02            [ 7]  462 	ld	c, #0x02
                           00014D   463 	C$palettes.c$119$4_0$126	= .
                                    464 	.globl	C$palettes.c$119$4_0$126
                                    465 ;src/engine/palettes.c:119: break;
      00014D 18 0A            [12]  466 	jr	00112$
                           00014F   467 	C$palettes.c$120$4_0$126	= .
                                    468 	.globl	C$palettes.c$120$4_0$126
                                    469 ;src/engine/palettes.c:120: default:
      00014F                        470 00111$:
                           00014F   471 	C$palettes.c$121$4_0$126	= .
                                    472 	.globl	C$palettes.c$121$4_0$126
                                    473 ;src/engine/palettes.c:121: redComponent = 3;
      00014F DD 36 F9 03      [19]  474 	ld	-7 (ix), #0x03
                           000153   475 	C$palettes.c$122$4_0$126	= .
                                    476 	.globl	C$palettes.c$122$4_0$126
                                    477 ;src/engine/palettes.c:122: greenComponent = 3;
      000153 DD 36 FA 03      [19]  478 	ld	-6 (ix), #0x03
                           000157   479 	C$palettes.c$123$4_0$126	= .
                                    480 	.globl	C$palettes.c$123$4_0$126
                                    481 ;src/engine/palettes.c:123: blueComponent = 3;
      000157 0E 03            [ 7]  482 	ld	c, #0x03
                           000159   483 	C$palettes.c$125$3_0$125	= .
                                    484 	.globl	C$palettes.c$125$3_0$125
                                    485 ;src/engine/palettes.c:125: }
      000159                        486 00112$:
                           000159   487 	C$palettes.c$126$3_0$125	= .
                                    488 	.globl	C$palettes.c$126$3_0$125
                                    489 ;src/engine/palettes.c:126: bw_palette[j] = RGB(redComponent,greenComponent,blueComponent);
      000159 DD 7E FB         [19]  490 	ld	a, -5 (ix)
      00015C DD 86 FF         [19]  491 	add	a, -1 (ix)
      00015F 5F               [ 4]  492 	ld	e, a
      000160 DD 7E FC         [19]  493 	ld	a, -4 (ix)
      000163 CE 00            [ 7]  494 	adc	a, #0x00
      000165 57               [ 4]  495 	ld	d, a
      000166 DD 7E FA         [19]  496 	ld	a, -6 (ix)
      000169 87               [ 4]  497 	add	a, a
      00016A 87               [ 4]  498 	add	a, a
      00016B DD B6 F9         [19]  499 	or	a, -7 (ix)
      00016E 47               [ 4]  500 	ld	b, a
      00016F 79               [ 4]  501 	ld	a, c
      000170 87               [ 4]  502 	add	a, a
      000171 87               [ 4]  503 	add	a, a
      000172 87               [ 4]  504 	add	a, a
      000173 87               [ 4]  505 	add	a, a
      000174 B0               [ 4]  506 	or	a, b
      000175 12               [ 7]  507 	ld	(de), a
                           000176   508 	C$palettes.c$87$2_0$124	= .
                                    509 	.globl	C$palettes.c$87$2_0$124
                                    510 ;src/engine/palettes.c:87: for(j = 0;j<numcolors;j++) {
      000176 DD 34 FF         [23]  511 	inc	-1 (ix)
      000179 C3rA2r00         [10]  512 	jp	00115$
      00017C                        513 00117$:
                           00017C   514 	C$palettes.c$128$2_0$124	= .
                                    515 	.globl	C$palettes.c$128$2_0$124
                                    516 ;src/engine/palettes.c:128: }
      00017C DD F9            [10]  517 	ld	sp, ix
      00017E DD E1            [14]  518 	pop	ix
      000180 E1               [10]  519 	pop	hl
      000181 33               [ 6]  520 	inc	sp
      000182 E9               [ 4]  521 	jp	(hl)
                           000183   522 	G$createBluePaletteVersion$0$0	= .
                                    523 	.globl	G$createBluePaletteVersion$0$0
                           000183   524 	C$palettes.c$130$2_0$129	= .
                                    525 	.globl	C$palettes.c$130$2_0$129
                                    526 ;src/engine/palettes.c:130: void createBluePaletteVersion(const u8 *original_palette, u8 *bw_palette, u8 numcolors) {
                                    527 ;	---------------------------------
                                    528 ; Function createBluePaletteVersion
                                    529 ; ---------------------------------
      000183                        530 _createBluePaletteVersion::
      000183 DD E5            [15]  531 	push	ix
      000185 DD 21 00 00      [14]  532 	ld	ix,#0
      000189 DD 39            [15]  533 	add	ix,sp
      00018B F5               [11]  534 	push	af
      00018C F5               [11]  535 	push	af
      00018D F5               [11]  536 	push	af
      00018E 3B               [ 6]  537 	dec	sp
      00018F DD 75 FD         [19]  538 	ld	-3 (ix), l
      000192 DD 74 FE         [19]  539 	ld	-2 (ix), h
      000195 DD 73 FB         [19]  540 	ld	-5 (ix), e
      000198 DD 72 FC         [19]  541 	ld	-4 (ix), d
                           00019B   542 	C$palettes.c$132$2_0$129	= .
                                    543 	.globl	C$palettes.c$132$2_0$129
                                    544 ;src/engine/palettes.c:132: for(j = 0;j<numcolors;j++) {
      00019B DD 36 FF 00      [19]  545 	ld	-1 (ix), #0x00
      00019F                        546 00115$:
      00019F DD 7E FF         [19]  547 	ld	a, -1 (ix)
      0001A2 DD 96 04         [19]  548 	sub	a, 4 (ix)
      0001A5 D2r85r02         [10]  549 	jp	NC, 00117$
                           0001A8   550 	C$palettes.c$133$3_0$130	= .
                                    551 	.globl	C$palettes.c$133$3_0$130
                                    552 ;src/engine/palettes.c:133: redComponent = getRedFromRGB(original_palette[j]);
      0001A8 DD 7E FD         [19]  553 	ld	a, -3 (ix)
      0001AB DD 86 FF         [19]  554 	add	a, -1 (ix)
      0001AE 6F               [ 4]  555 	ld	l, a
                                    556 ;	spillPairReg hl
                                    557 ;	spillPairReg hl
      0001AF DD 7E FE         [19]  558 	ld	a, -2 (ix)
      0001B2 CE 00            [ 7]  559 	adc	a, #0x00
      0001B4 67               [ 4]  560 	ld	h, a
      0001B5 4E               [ 7]  561 	ld	c, (hl)
      0001B6 79               [ 4]  562 	ld	a, c
      0001B7 E6 0B            [ 7]  563 	and	a, #0x0b
      0001B9 5F               [ 4]  564 	ld	e, a
                           0001BA   565 	C$palettes.c$134$3_0$130	= .
                                    566 	.globl	C$palettes.c$134$3_0$130
                                    567 ;src/engine/palettes.c:134: greenComponent = getGreenFromRGB(original_palette[j]);
      0001BA 79               [ 4]  568 	ld	a, c
      0001BB 06 00            [ 7]  569 	ld	b, #0x00
      0001BD E6 4C            [ 7]  570 	and	a, #0x4c
      0001BF 6F               [ 4]  571 	ld	l, a
                                    572 ;	spillPairReg hl
                                    573 ;	spillPairReg hl
      0001C0 78               [ 4]  574 	ld	a, b
      0001C1 E6 04            [ 7]  575 	and	a, #0x04
      0001C3 67               [ 4]  576 	ld	h, a
                                    577 ;	spillPairReg hl
                                    578 ;	spillPairReg hl
      0001C4 CB 2C            [ 8]  579 	sra	h
      0001C6 CB 1D            [ 8]  580 	rr	l
      0001C8 CB 2C            [ 8]  581 	sra	h
      0001CA CB 1D            [ 8]  582 	rr	l
                           0001CC   583 	C$palettes.c$135$2_0$129	= .
                                    584 	.globl	C$palettes.c$135$2_0$129
                                    585 ;src/engine/palettes.c:135: blueComponent = getBlueFromRGB(original_palette[j]);
      0001CC 06 00            [ 7]  586 	ld	b, #0x00
      0001CE 79               [ 4]  587 	ld	a, c
      0001CF E6 B0            [ 7]  588 	and	a, #0xb0
      0001D1 4F               [ 4]  589 	ld	c, a
      0001D2 78               [ 4]  590 	ld	a, b
      0001D3 E6 AD            [ 7]  591 	and	a, #0xad
      0001D5 47               [ 4]  592 	ld	b, a
      0001D6 CB 38            [ 8]  593 	srl	b
      0001D8 CB 19            [ 8]  594 	rr	c
      0001DA CB 38            [ 8]  595 	srl	b
      0001DC CB 19            [ 8]  596 	rr	c
      0001DE CB 38            [ 8]  597 	srl	b
      0001E0 CB 19            [ 8]  598 	rr	c
      0001E2 CB 38            [ 8]  599 	srl	b
      0001E4 CB 19            [ 8]  600 	rr	c
                           0001E6   601 	C$palettes.c$136$3_0$130	= .
                                    602 	.globl	C$palettes.c$136$3_0$130
                                    603 ;src/engine/palettes.c:136: addedColor = redComponent + greenComponent + blueComponent;
      0001E6 19               [11]  604 	add	hl, de
      0001E7 09               [11]  605 	add	hl, bc
      0001E8 DD 75 FA         [19]  606 	ld	-6 (ix), l
                           0001EB   607 	C$palettes.c$137$3_0$130	= .
                                    608 	.globl	C$palettes.c$137$3_0$130
                                    609 ;src/engine/palettes.c:137: switch (addedColor)
      0001EB 3E 09            [ 7]  610 	ld	a, #0x09
      0001ED DD 96 FA         [19]  611 	sub	a, -6 (ix)
      0001F0 38 66            [12]  612 	jr	C, 00111$
      0001F2 DD 4E FA         [19]  613 	ld	c, -6 (ix)
      0001F5 06 00            [ 7]  614 	ld	b, #0x00
      0001F7 21rFEr01         [10]  615 	ld	hl, #00135$
      0001FA 09               [11]  616 	add	hl, bc
      0001FB 09               [11]  617 	add	hl, bc
      0001FC 09               [11]  618 	add	hl, bc
      0001FD E9               [ 4]  619 	jp	(hl)
      0001FE                        620 00135$:
      0001FE C3r1Cr02         [10]  621 	jp	00101$
      000201 C3r28r02         [10]  622 	jp	00103$
      000204 C3r28r02         [10]  623 	jp	00103$
      000207 C3r34r02         [10]  624 	jp	00105$
      00020A C3r34r02         [10]  625 	jp	00105$
      00020D C3r40r02         [10]  626 	jp	00107$
      000210 C3r40r02         [10]  627 	jp	00107$
      000213 C3r4Cr02         [10]  628 	jp	00110$
      000216 C3r4Cr02         [10]  629 	jp	00110$
      000219 C3r4Cr02         [10]  630 	jp	00110$
                           00021C   631 	C$palettes.c$139$4_0$131	= .
                                    632 	.globl	C$palettes.c$139$4_0$131
                                    633 ;src/engine/palettes.c:139: case 0:
      00021C                        634 00101$:
                           00021C   635 	C$palettes.c$140$4_0$131	= .
                                    636 	.globl	C$palettes.c$140$4_0$131
                                    637 ;src/engine/palettes.c:140: redComponent = 0;
      00021C DD 36 F9 00      [19]  638 	ld	-7 (ix), #0x00
                           000220   639 	C$palettes.c$141$4_0$131	= .
                                    640 	.globl	C$palettes.c$141$4_0$131
                                    641 ;src/engine/palettes.c:141: greenComponent = 0;
      000220 DD 36 FA 00      [19]  642 	ld	-6 (ix), #0x00
                           000224   643 	C$palettes.c$142$4_0$131	= .
                                    644 	.globl	C$palettes.c$142$4_0$131
                                    645 ;src/engine/palettes.c:142: blueComponent = 0;
      000224 0E 00            [ 7]  646 	ld	c, #0x00
                           000226   647 	C$palettes.c$143$4_0$131	= .
                                    648 	.globl	C$palettes.c$143$4_0$131
                                    649 ;src/engine/palettes.c:143: break;
      000226 18 3A            [12]  650 	jr	00112$
                           000228   651 	C$palettes.c$145$4_0$131	= .
                                    652 	.globl	C$palettes.c$145$4_0$131
                                    653 ;src/engine/palettes.c:145: case 2:
      000228                        654 00103$:
                           000228   655 	C$palettes.c$146$4_0$131	= .
                                    656 	.globl	C$palettes.c$146$4_0$131
                                    657 ;src/engine/palettes.c:146: redComponent = 0;
      000228 DD 36 F9 00      [19]  658 	ld	-7 (ix), #0x00
                           00022C   659 	C$palettes.c$147$4_0$131	= .
                                    660 	.globl	C$palettes.c$147$4_0$131
                                    661 ;src/engine/palettes.c:147: greenComponent = 0;
      00022C DD 36 FA 00      [19]  662 	ld	-6 (ix), #0x00
                           000230   663 	C$palettes.c$148$4_0$131	= .
                                    664 	.globl	C$palettes.c$148$4_0$131
                                    665 ;src/engine/palettes.c:148: blueComponent = 1;
      000230 0E 01            [ 7]  666 	ld	c, #0x01
                           000232   667 	C$palettes.c$149$4_0$131	= .
                                    668 	.globl	C$palettes.c$149$4_0$131
                                    669 ;src/engine/palettes.c:149: break;
      000232 18 2E            [12]  670 	jr	00112$
                           000234   671 	C$palettes.c$151$4_0$131	= .
                                    672 	.globl	C$palettes.c$151$4_0$131
                                    673 ;src/engine/palettes.c:151: case 4:
      000234                        674 00105$:
                           000234   675 	C$palettes.c$152$4_0$131	= .
                                    676 	.globl	C$palettes.c$152$4_0$131
                                    677 ;src/engine/palettes.c:152: redComponent = 0;
      000234 DD 36 F9 00      [19]  678 	ld	-7 (ix), #0x00
                           000238   679 	C$palettes.c$153$4_0$131	= .
                                    680 	.globl	C$palettes.c$153$4_0$131
                                    681 ;src/engine/palettes.c:153: greenComponent = 0;
      000238 DD 36 FA 00      [19]  682 	ld	-6 (ix), #0x00
                           00023C   683 	C$palettes.c$154$4_0$131	= .
                                    684 	.globl	C$palettes.c$154$4_0$131
                                    685 ;src/engine/palettes.c:154: blueComponent = 2;
      00023C 0E 02            [ 7]  686 	ld	c, #0x02
                           00023E   687 	C$palettes.c$155$4_0$131	= .
                                    688 	.globl	C$palettes.c$155$4_0$131
                                    689 ;src/engine/palettes.c:155: break;
      00023E 18 22            [12]  690 	jr	00112$
                           000240   691 	C$palettes.c$158$4_0$131	= .
                                    692 	.globl	C$palettes.c$158$4_0$131
                                    693 ;src/engine/palettes.c:158: case 6:
      000240                        694 00107$:
                           000240   695 	C$palettes.c$159$4_0$131	= .
                                    696 	.globl	C$palettes.c$159$4_0$131
                                    697 ;src/engine/palettes.c:159: redComponent = 0;
      000240 DD 36 F9 00      [19]  698 	ld	-7 (ix), #0x00
                           000244   699 	C$palettes.c$160$4_0$131	= .
                                    700 	.globl	C$palettes.c$160$4_0$131
                                    701 ;src/engine/palettes.c:160: greenComponent = 0;
      000244 DD 36 FA 00      [19]  702 	ld	-6 (ix), #0x00
                           000248   703 	C$palettes.c$161$4_0$131	= .
                                    704 	.globl	C$palettes.c$161$4_0$131
                                    705 ;src/engine/palettes.c:161: blueComponent = 3;
      000248 0E 03            [ 7]  706 	ld	c, #0x03
                           00024A   707 	C$palettes.c$162$4_0$131	= .
                                    708 	.globl	C$palettes.c$162$4_0$131
                                    709 ;src/engine/palettes.c:162: break;  
      00024A 18 16            [12]  710 	jr	00112$
                           00024C   711 	C$palettes.c$168$4_0$131	= .
                                    712 	.globl	C$palettes.c$168$4_0$131
                                    713 ;src/engine/palettes.c:168: case 9:
      00024C                        714 00110$:
                           00024C   715 	C$palettes.c$169$4_0$131	= .
                                    716 	.globl	C$palettes.c$169$4_0$131
                                    717 ;src/engine/palettes.c:169: redComponent = 0;
      00024C DD 36 F9 00      [19]  718 	ld	-7 (ix), #0x00
                           000250   719 	C$palettes.c$170$4_0$131	= .
                                    720 	.globl	C$palettes.c$170$4_0$131
                                    721 ;src/engine/palettes.c:170: greenComponent = 2;
      000250 DD 36 FA 02      [19]  722 	ld	-6 (ix), #0x02
                           000254   723 	C$palettes.c$171$4_0$131	= .
                                    724 	.globl	C$palettes.c$171$4_0$131
                                    725 ;src/engine/palettes.c:171: blueComponent = 3;  
      000254 0E 03            [ 7]  726 	ld	c, #0x03
                           000256   727 	C$palettes.c$172$4_0$131	= .
                                    728 	.globl	C$palettes.c$172$4_0$131
                                    729 ;src/engine/palettes.c:172: break;
      000256 18 0A            [12]  730 	jr	00112$
                           000258   731 	C$palettes.c$173$4_0$131	= .
                                    732 	.globl	C$palettes.c$173$4_0$131
                                    733 ;src/engine/palettes.c:173: default:
      000258                        734 00111$:
                           000258   735 	C$palettes.c$174$4_0$131	= .
                                    736 	.globl	C$palettes.c$174$4_0$131
                                    737 ;src/engine/palettes.c:174: redComponent = 0;
      000258 DD 36 F9 00      [19]  738 	ld	-7 (ix), #0x00
                           00025C   739 	C$palettes.c$175$4_0$131	= .
                                    740 	.globl	C$palettes.c$175$4_0$131
                                    741 ;src/engine/palettes.c:175: greenComponent = 3;
      00025C DD 36 FA 03      [19]  742 	ld	-6 (ix), #0x03
                           000260   743 	C$palettes.c$176$4_0$131	= .
                                    744 	.globl	C$palettes.c$176$4_0$131
                                    745 ;src/engine/palettes.c:176: blueComponent = 3;
      000260 0E 03            [ 7]  746 	ld	c, #0x03
                           000262   747 	C$palettes.c$178$3_0$130	= .
                                    748 	.globl	C$palettes.c$178$3_0$130
                                    749 ;src/engine/palettes.c:178: }
      000262                        750 00112$:
                           000262   751 	C$palettes.c$179$3_0$130	= .
                                    752 	.globl	C$palettes.c$179$3_0$130
                                    753 ;src/engine/palettes.c:179: bw_palette[j] = RGB(redComponent,greenComponent,blueComponent);
      000262 DD 7E FB         [19]  754 	ld	a, -5 (ix)
      000265 DD 86 FF         [19]  755 	add	a, -1 (ix)
      000268 5F               [ 4]  756 	ld	e, a
      000269 DD 7E FC         [19]  757 	ld	a, -4 (ix)
      00026C CE 00            [ 7]  758 	adc	a, #0x00
      00026E 57               [ 4]  759 	ld	d, a
      00026F DD 7E FA         [19]  760 	ld	a, -6 (ix)
      000272 87               [ 4]  761 	add	a, a
      000273 87               [ 4]  762 	add	a, a
      000274 DD B6 F9         [19]  763 	or	a, -7 (ix)
      000277 47               [ 4]  764 	ld	b, a
      000278 79               [ 4]  765 	ld	a, c
      000279 87               [ 4]  766 	add	a, a
      00027A 87               [ 4]  767 	add	a, a
      00027B 87               [ 4]  768 	add	a, a
      00027C 87               [ 4]  769 	add	a, a
      00027D B0               [ 4]  770 	or	a, b
      00027E 12               [ 7]  771 	ld	(de), a
                           00027F   772 	C$palettes.c$132$2_0$129	= .
                                    773 	.globl	C$palettes.c$132$2_0$129
                                    774 ;src/engine/palettes.c:132: for(j = 0;j<numcolors;j++) {
      00027F DD 34 FF         [23]  775 	inc	-1 (ix)
      000282 C3r9Fr01         [10]  776 	jp	00115$
      000285                        777 00117$:
                           000285   778 	C$palettes.c$181$2_0$129	= .
                                    779 	.globl	C$palettes.c$181$2_0$129
                                    780 ;src/engine/palettes.c:181: }
      000285 DD F9            [10]  781 	ld	sp, ix
      000287 DD E1            [14]  782 	pop	ix
      000289 E1               [10]  783 	pop	hl
      00028A 33               [ 6]  784 	inc	sp
      00028B E9               [ 4]  785 	jp	(hl)
                           00028C   786 	G$fadeToTargetBGPalette$0$0	= .
                                    787 	.globl	G$fadeToTargetBGPalette$0$0
                           00028C   788 	C$palettes.c$355$2_0$133	= .
                                    789 	.globl	C$palettes.c$355$2_0$133
                                    790 ;src/engine/palettes.c:355: void fadeToTargetBGPalette(const u8 *target_palette, u8 numcolors, u8 framesperstep) {
                                    791 ;	---------------------------------
                                    792 ; Function fadeToTargetBGPalette
                                    793 ; ---------------------------------
      00028C                        794 _fadeToTargetBGPalette::
      00028C DD E5            [15]  795 	push	ix
      00028E DD 21 00 00      [14]  796 	ld	ix,#0
      000292 DD 39            [15]  797 	add	ix,sp
      000294 FD 21 E3 FF      [14]  798 	ld	iy, #-29
      000298 FD 39            [15]  799 	add	iy, sp
      00029A FD F9            [10]  800 	ld	sp, iy
      00029C DD 75 F9         [19]  801 	ld	-7 (ix), l
      00029F DD 74 FA         [19]  802 	ld	-6 (ix), h
                           0002A2   803 	C$palettes.c$360$3_0$135	= .
                                    804 	.globl	C$palettes.c$360$3_0$135
                                    805 ;src/engine/palettes.c:360: for(j = 0;j<numcolors;j++) {
      0002A2 DD 36 FF 00      [19]  806 	ld	-1 (ix), #0x00
      0002A6                        807 00127$:
      0002A6 DD 7E FF         [19]  808 	ld	a, -1 (ix)
      0002A9 DD 96 04         [19]  809 	sub	a, 4 (ix)
      0002AC 30 32            [12]  810 	jr	NC, 00101$
                           0002AE   811 	C$palettes.c$361$3_0$135	= .
                                    812 	.globl	C$palettes.c$361$3_0$135
                                    813 ;src/engine/palettes.c:361: temporal_palette[j] = background_palette[j];
      0002AE DD 5E FF         [19]  814 	ld	e, -1 (ix)
      0002B1 16 00            [ 7]  815 	ld	d, #0x00
      0002B3 21 02 00         [10]  816 	ld	hl, #2
      0002B6 39               [11]  817 	add	hl, sp
      0002B7 19               [11]  818 	add	hl, de
      0002B8 DD 75 FB         [19]  819 	ld	-5 (ix), l
      0002BB DD 74 FC         [19]  820 	ld	-4 (ix), h
      0002BE 3Er00            [ 7]  821 	ld	a, #<(_background_palette)
      0002C0 DD 86 FF         [19]  822 	add	a, -1 (ix)
      0002C3 DD 77 FD         [19]  823 	ld	-3 (ix), a
      0002C6 3Es00            [ 7]  824 	ld	a, #>(_background_palette)
      0002C8 CE 00            [ 7]  825 	adc	a, #0x00
      0002CA DD 77 FE         [19]  826 	ld	-2 (ix), a
      0002CD DD 6E FD         [19]  827 	ld	l, -3 (ix)
      0002D0 DD 66 FE         [19]  828 	ld	h, -2 (ix)
      0002D3 7E               [ 7]  829 	ld	a, (hl)
      0002D4 DD 6E FB         [19]  830 	ld	l, -5 (ix)
      0002D7 DD 66 FC         [19]  831 	ld	h, -4 (ix)
      0002DA 77               [ 7]  832 	ld	(hl), a
                           0002DB   833 	C$palettes.c$360$2_0$134	= .
                                    834 	.globl	C$palettes.c$360$2_0$134
                                    835 ;src/engine/palettes.c:360: for(j = 0;j<numcolors;j++) {
      0002DB DD 34 FF         [23]  836 	inc	-1 (ix)
      0002DE 18 C6            [12]  837 	jr	00127$
      0002E0                        838 00101$:
                           0002E0   839 	C$palettes.c$363$1_0$133	= .
                                    840 	.globl	C$palettes.c$363$1_0$133
                                    841 ;src/engine/palettes.c:363: SMS_loadBGPalette(background_palette);
      0002E0 21r00r00         [10]  842 	ld	hl, #_background_palette
      0002E3 CDr00r00         [17]  843 	call	_SMS_loadBGPalette
                           0002E6   844 	C$palettes.c$365$3_0$137	= .
                                    845 	.globl	C$palettes.c$365$3_0$137
                                    846 ;src/engine/palettes.c:365: while(i<4) {
      0002E6 DD 36 FB 00      [19]  847 	ld	-5 (ix), #0x00
      0002EA                        848 00123$:
      0002EA DD 7E FB         [19]  849 	ld	a, -5 (ix)
      0002ED D6 04            [ 7]  850 	sub	a, #0x04
      0002EF D2r3Cr04         [10]  851 	jp	NC, 00125$
                           0002F2   852 	C$palettes.c$367$1_0$133	= .
                                    853 	.globl	C$palettes.c$367$1_0$133
                                    854 ;src/engine/palettes.c:367: while(j<numcolors) {
      0002F2 DD 36 FC 00      [19]  855 	ld	-4 (ix), #0x00
      0002F6                        856 00117$:
      0002F6 DD 7E FC         [19]  857 	ld	a, -4 (ix)
      0002F9 DD 96 04         [19]  858 	sub	a, 4 (ix)
      0002FC D2r1Fr04         [10]  859 	jp	NC, 00119$
                           0002FF   860 	C$palettes.c$368$1_0$133	= .
                                    861 	.globl	C$palettes.c$368$1_0$133
                                    862 ;src/engine/palettes.c:368: redComponent = getRedFromRGB(temporal_palette[j]);
      0002FF DD 5E FC         [19]  863 	ld	e, -4 (ix)
      000302 16 00            [ 7]  864 	ld	d, #0x00
      000304 21 02 00         [10]  865 	ld	hl, #2
      000307 39               [11]  866 	add	hl, sp
      000308 19               [11]  867 	add	hl, de
      000309 DD 75 F5         [19]  868 	ld	-11 (ix), l
      00030C DD 74 F6         [19]  869 	ld	-10 (ix), h
      00030F 7E               [ 7]  870 	ld	a, (hl)
      000310 DD 77 FF         [19]  871 	ld	-1 (ix), a
      000313 E6 0B            [ 7]  872 	and	a, #0x0b
      000315 DD 77 FD         [19]  873 	ld	-3 (ix), a
                           000318   874 	C$palettes.c$369$3_0$137	= .
                                    875 	.globl	C$palettes.c$369$3_0$137
                                    876 ;src/engine/palettes.c:369: greenComponent = getGreenFromRGB(temporal_palette[j]);
      000318 DD 7E FF         [19]  877 	ld	a, -1 (ix)
      00031B 06 00            [ 7]  878 	ld	b, #0x00
      00031D E6 4C            [ 7]  879 	and	a, #0x4c
      00031F 4F               [ 4]  880 	ld	c, a
      000320 78               [ 4]  881 	ld	a, b
      000321 E6 04            [ 7]  882 	and	a, #0x04
      000323 47               [ 4]  883 	ld	b, a
      000324 DD 71 F7         [19]  884 	ld	-9 (ix), c
      000327 DD 70 F8         [19]  885 	ld	-8 (ix), b
      00032A DD CB F8 2E      [23]  886 	sra	-8 (ix)
      00032E DD CB F7 1E      [23]  887 	rr	-9 (ix)
      000332 DD CB F8 2E      [23]  888 	sra	-8 (ix)
      000336 DD CB F7 1E      [23]  889 	rr	-9 (ix)
      00033A DD 7E F7         [19]  890 	ld	a, -9 (ix)
      00033D DD 77 FE         [19]  891 	ld	-2 (ix), a
                           000340   892 	C$palettes.c$370$1_0$133	= .
                                    893 	.globl	C$palettes.c$370$1_0$133
                                    894 ;src/engine/palettes.c:370: blueComponent = getBlueFromRGB(temporal_palette[j]);
      000340 DD 7E FF         [19]  895 	ld	a, -1 (ix)
      000343 DD 77 E3         [19]  896 	ld	-29 (ix), a
      000346 DD 36 E4 00      [19]  897 	ld	-28 (ix), #0x00
      00034A DD 7E E3         [19]  898 	ld	a, -29 (ix)
      00034D E6 B0            [ 7]  899 	and	a, #0xb0
      00034F DD 77 F7         [19]  900 	ld	-9 (ix), a
      000352 DD 7E E4         [19]  901 	ld	a, -28 (ix)
      000355 E6 AD            [ 7]  902 	and	a, #0xad
      000357 DD 77 F8         [19]  903 	ld	-8 (ix), a
      00035A DD CB F8 3E      [23]  904 	srl	-8 (ix)
      00035E DD CB F7 1E      [23]  905 	rr	-9 (ix)
      000362 DD CB F8 3E      [23]  906 	srl	-8 (ix)
      000366 DD CB F7 1E      [23]  907 	rr	-9 (ix)
      00036A DD CB F8 3E      [23]  908 	srl	-8 (ix)
      00036E DD CB F7 1E      [23]  909 	rr	-9 (ix)
      000372 DD CB F8 3E      [23]  910 	srl	-8 (ix)
      000376 DD CB F7 1E      [23]  911 	rr	-9 (ix)
      00037A DD 7E F7         [19]  912 	ld	a, -9 (ix)
      00037D DD 77 FF         [19]  913 	ld	-1 (ix), a
                           000380   914 	C$palettes.c$371$3_0$137	= .
                                    915 	.globl	C$palettes.c$371$3_0$137
                                    916 ;src/engine/palettes.c:371: targetComponent = getGreenFromRGB(target_palette[j]);
      000380 DD 7E F9         [19]  917 	ld	a, -7 (ix)
      000383 DD 86 FC         [19]  918 	add	a, -4 (ix)
      000386 DD 77 F7         [19]  919 	ld	-9 (ix), a
      000389 DD 7E FA         [19]  920 	ld	a, -6 (ix)
      00038C CE 00            [ 7]  921 	adc	a, #0x00
      00038E DD 77 F8         [19]  922 	ld	-8 (ix), a
      000391 DD 6E F7         [19]  923 	ld	l, -9 (ix)
      000394 DD 66 F8         [19]  924 	ld	h, -8 (ix)
      000397 7E               [ 7]  925 	ld	a, (hl)
      000398 DD 77 F8         [19]  926 	ld	-8 (ix), a
      00039B DD 77 E3         [19]  927 	ld	-29 (ix), a
      00039E DD 36 E4 00      [19]  928 	ld	-28 (ix), #0x00
      0003A2 DD 7E E3         [19]  929 	ld	a, -29 (ix)
      0003A5 E6 4C            [ 7]  930 	and	a, #0x4c
      0003A7 DD 77 F7         [19]  931 	ld	-9 (ix), a
      0003AA DD 7E E4         [19]  932 	ld	a, -28 (ix)
      0003AD E6 04            [ 7]  933 	and	a, #0x04
      0003AF DD 77 F8         [19]  934 	ld	-8 (ix), a
      0003B2 DD CB F8 2E      [23]  935 	sra	-8 (ix)
      0003B6 DD CB F7 1E      [23]  936 	rr	-9 (ix)
      0003BA DD CB F8 2E      [23]  937 	sra	-8 (ix)
      0003BE DD CB F7 1E      [23]  938 	rr	-9 (ix)
      0003C2 DD 4E F7         [19]  939 	ld	c, -9 (ix)
                           0003C5   940 	C$palettes.c$372$3_0$137	= .
                                    941 	.globl	C$palettes.c$372$3_0$137
                                    942 ;src/engine/palettes.c:372: if(greenComponent>targetComponent) {
      0003C5 79               [ 4]  943 	ld	a, c
      0003C6 DD 96 FE         [19]  944 	sub	a, -2 (ix)
      0003C9 30 05            [12]  945 	jr	NC, 00105$
                           0003CB   946 	C$palettes.c$373$4_0$138	= .
                                    947 	.globl	C$palettes.c$373$4_0$138
                                    948 ;src/engine/palettes.c:373: greenComponent--;
      0003CB DD 35 FE         [23]  949 	dec	-2 (ix)
      0003CE 18 09            [12]  950 	jr	00106$
      0003D0                        951 00105$:
                           0003D0   952 	C$palettes.c$374$3_0$137	= .
                                    953 	.globl	C$palettes.c$374$3_0$137
                                    954 ;src/engine/palettes.c:374: } else if(greenComponent<targetComponent) {
      0003D0 DD 7E FE         [19]  955 	ld	a, -2 (ix)
      0003D3 91               [ 4]  956 	sub	a, c
      0003D4 30 03            [12]  957 	jr	NC, 00106$
                           0003D6   958 	C$palettes.c$375$4_0$139	= .
                                    959 	.globl	C$palettes.c$375$4_0$139
                                    960 ;src/engine/palettes.c:375: greenComponent++;
      0003D6 DD 34 FE         [23]  961 	inc	-2 (ix)
      0003D9                        962 00106$:
                           0003D9   963 	C$palettes.c$377$3_0$137	= .
                                    964 	.globl	C$palettes.c$377$3_0$137
                                    965 ;src/engine/palettes.c:377: if(redComponent>targetComponent) {
      0003D9 79               [ 4]  966 	ld	a, c
      0003DA DD 96 FD         [19]  967 	sub	a, -3 (ix)
      0003DD 30 05            [12]  968 	jr	NC, 00110$
                           0003DF   969 	C$palettes.c$378$4_0$140	= .
                                    970 	.globl	C$palettes.c$378$4_0$140
                                    971 ;src/engine/palettes.c:378: redComponent--;
      0003DF DD 35 FD         [23]  972 	dec	-3 (ix)
      0003E2 18 09            [12]  973 	jr	00111$
      0003E4                        974 00110$:
                           0003E4   975 	C$palettes.c$379$3_0$137	= .
                                    976 	.globl	C$palettes.c$379$3_0$137
                                    977 ;src/engine/palettes.c:379: } else if(redComponent<targetComponent) {
      0003E4 DD 7E FD         [19]  978 	ld	a, -3 (ix)
      0003E7 91               [ 4]  979 	sub	a, c
      0003E8 30 03            [12]  980 	jr	NC, 00111$
                           0003EA   981 	C$palettes.c$380$4_0$141	= .
                                    982 	.globl	C$palettes.c$380$4_0$141
                                    983 ;src/engine/palettes.c:380: redComponent++;
      0003EA DD 34 FD         [23]  984 	inc	-3 (ix)
      0003ED                        985 00111$:
                           0003ED   986 	C$palettes.c$382$3_0$137	= .
                                    987 	.globl	C$palettes.c$382$3_0$137
                                    988 ;src/engine/palettes.c:382: if(blueComponent>targetComponent) {
      0003ED 79               [ 4]  989 	ld	a, c
      0003EE DD 96 FF         [19]  990 	sub	a, -1 (ix)
      0003F1 30 05            [12]  991 	jr	NC, 00115$
                           0003F3   992 	C$palettes.c$383$4_0$142	= .
                                    993 	.globl	C$palettes.c$383$4_0$142
                                    994 ;src/engine/palettes.c:383: blueComponent--;
      0003F3 DD 35 FF         [23]  995 	dec	-1 (ix)
      0003F6 18 09            [12]  996 	jr	00116$
      0003F8                        997 00115$:
                           0003F8   998 	C$palettes.c$384$3_0$137	= .
                                    999 	.globl	C$palettes.c$384$3_0$137
                                   1000 ;src/engine/palettes.c:384: } else if(blueComponent<targetComponent){
      0003F8 DD 7E FF         [19] 1001 	ld	a, -1 (ix)
      0003FB 91               [ 4] 1002 	sub	a, c
      0003FC 30 03            [12] 1003 	jr	NC, 00116$
                           0003FE  1004 	C$palettes.c$385$4_0$143	= .
                                   1005 	.globl	C$palettes.c$385$4_0$143
                                   1006 ;src/engine/palettes.c:385: blueComponent++;
      0003FE DD 34 FF         [23] 1007 	inc	-1 (ix)
      000401                       1008 00116$:
                           000401  1009 	C$palettes.c$387$3_0$137	= .
                                   1010 	.globl	C$palettes.c$387$3_0$137
                                   1011 ;src/engine/palettes.c:387: temporal_palette[j] = RGB(redComponent,greenComponent,blueComponent);
      000401 DD 7E FE         [19] 1012 	ld	a, -2 (ix)
      000404 87               [ 4] 1013 	add	a, a
      000405 87               [ 4] 1014 	add	a, a
      000406 DD B6 FD         [19] 1015 	or	a, -3 (ix)
      000409 4F               [ 4] 1016 	ld	c, a
      00040A DD 7E FF         [19] 1017 	ld	a, -1 (ix)
      00040D 87               [ 4] 1018 	add	a, a
      00040E 87               [ 4] 1019 	add	a, a
      00040F 87               [ 4] 1020 	add	a, a
      000410 87               [ 4] 1021 	add	a, a
      000411 B1               [ 4] 1022 	or	a, c
      000412 DD 6E F5         [19] 1023 	ld	l, -11 (ix)
      000415 DD 66 F6         [19] 1024 	ld	h, -10 (ix)
      000418 77               [ 7] 1025 	ld	(hl), a
                           000419  1026 	C$palettes.c$388$3_0$137	= .
                                   1027 	.globl	C$palettes.c$388$3_0$137
                                   1028 ;src/engine/palettes.c:388: j++;
      000419 DD 34 FC         [23] 1029 	inc	-4 (ix)
      00041C C3rF6r02         [10] 1030 	jp	00117$
      00041F                       1031 00119$:
                           00041F  1032 	C$palettes.c$391$1_0$133	= .
                                   1033 	.globl	C$palettes.c$391$1_0$133
                                   1034 ;src/engine/palettes.c:391: while(j<framesperstep) {
      00041F 0E 00            [ 7] 1035 	ld	c, #0x00
      000421                       1036 00120$:
      000421 79               [ 4] 1037 	ld	a, c
      000422 DD 96 05         [19] 1038 	sub	a, 5 (ix)
      000425 30 08            [12] 1039 	jr	NC, 00122$
                           000427  1040 	C$palettes.c$392$3_0$144	= .
                                   1041 	.globl	C$palettes.c$392$3_0$144
                                   1042 ;src/engine/palettes.c:392: waitForFrame();
      000427 C5               [11] 1043 	push	bc
      000428 CDr00r00         [17] 1044 	call	_waitForFrame
      00042B C1               [10] 1045 	pop	bc
                           00042C  1046 	C$palettes.c$393$3_0$144	= .
                                   1047 	.globl	C$palettes.c$393$3_0$144
                                   1048 ;src/engine/palettes.c:393: j++;
      00042C 0C               [ 4] 1049 	inc	c
      00042D 18 F2            [12] 1050 	jr	00120$
      00042F                       1051 00122$:
                           00042F  1052 	C$palettes.c$395$2_0$136	= .
                                   1053 	.globl	C$palettes.c$395$2_0$136
                                   1054 ;src/engine/palettes.c:395: SMS_loadBGPalette(temporal_palette);
      00042F 21 02 00         [10] 1055 	ld	hl, #2
      000432 39               [11] 1056 	add	hl, sp
      000433 CDr00r00         [17] 1057 	call	_SMS_loadBGPalette
                           000436  1058 	C$palettes.c$396$2_0$136	= .
                                   1059 	.globl	C$palettes.c$396$2_0$136
                                   1060 ;src/engine/palettes.c:396: i++;
      000436 DD 34 FB         [23] 1061 	inc	-5 (ix)
      000439 C3rEAr02         [10] 1062 	jp	00123$
      00043C                       1063 00125$:
                           00043C  1064 	C$palettes.c$398$1_0$133	= .
                                   1065 	.globl	C$palettes.c$398$1_0$133
                                   1066 ;src/engine/palettes.c:398: setBGPalette(target_palette, numcolors);
      00043C DD 7E 04         [19] 1067 	ld	a, 4 (ix)
      00043F F5               [11] 1068 	push	af
      000440 33               [ 6] 1069 	inc	sp
      000441 DD 6E F9         [19] 1070 	ld	l, -7 (ix)
                                   1071 ;	spillPairReg hl
                                   1072 ;	spillPairReg hl
      000444 DD 66 FA         [19] 1073 	ld	h, -6 (ix)
                                   1074 ;	spillPairReg hl
                                   1075 ;	spillPairReg hl
      000447 CDr00r00         [17] 1076 	call	_setBGPalette
                           00044A  1077 	C$palettes.c$399$1_0$133	= .
                                   1078 	.globl	C$palettes.c$399$1_0$133
                                   1079 ;src/engine/palettes.c:399: }
      00044A DD F9            [10] 1080 	ld	sp, ix
      00044C DD E1            [14] 1081 	pop	ix
      00044E E1               [10] 1082 	pop	hl
      00044F F1               [10] 1083 	pop	af
      000450 E9               [ 4] 1084 	jp	(hl)
                           000451  1085 	G$fadeToTargetSpritePalette$0$0	= .
                                   1086 	.globl	G$fadeToTargetSpritePalette$0$0
                           000451  1087 	C$palettes.c$401$1_0$146	= .
                                   1088 	.globl	C$palettes.c$401$1_0$146
                                   1089 ;src/engine/palettes.c:401: void fadeToTargetSpritePalette(const u8 *target_palette, u8 numcolors, u8 framesperstep) {
                                   1090 ;	---------------------------------
                                   1091 ; Function fadeToTargetSpritePalette
                                   1092 ; ---------------------------------
      000451                       1093 _fadeToTargetSpritePalette::
      000451 DD E5            [15] 1094 	push	ix
      000453 DD 21 00 00      [14] 1095 	ld	ix,#0
      000457 DD 39            [15] 1096 	add	ix,sp
      000459 FD 21 E3 FF      [14] 1097 	ld	iy, #-29
      00045D FD 39            [15] 1098 	add	iy, sp
      00045F FD F9            [10] 1099 	ld	sp, iy
      000461 DD 75 F9         [19] 1100 	ld	-7 (ix), l
      000464 DD 74 FA         [19] 1101 	ld	-6 (ix), h
                           000467  1102 	C$palettes.c$406$3_0$148	= .
                                   1103 	.globl	C$palettes.c$406$3_0$148
                                   1104 ;src/engine/palettes.c:406: for(j = 0;j<numcolors;j++) {
      000467 DD 36 FF 00      [19] 1105 	ld	-1 (ix), #0x00
      00046B                       1106 00127$:
      00046B DD 7E FF         [19] 1107 	ld	a, -1 (ix)
      00046E DD 96 04         [19] 1108 	sub	a, 4 (ix)
      000471 30 32            [12] 1109 	jr	NC, 00101$
                           000473  1110 	C$palettes.c$407$3_0$148	= .
                                   1111 	.globl	C$palettes.c$407$3_0$148
                                   1112 ;src/engine/palettes.c:407: temporal_palette[j] = sprite_palette[j];
      000473 DD 5E FF         [19] 1113 	ld	e, -1 (ix)
      000476 16 00            [ 7] 1114 	ld	d, #0x00
      000478 21 02 00         [10] 1115 	ld	hl, #2
      00047B 39               [11] 1116 	add	hl, sp
      00047C 19               [11] 1117 	add	hl, de
      00047D DD 75 FB         [19] 1118 	ld	-5 (ix), l
      000480 DD 74 FC         [19] 1119 	ld	-4 (ix), h
      000483 3Er00            [ 7] 1120 	ld	a, #<(_sprite_palette)
      000485 DD 86 FF         [19] 1121 	add	a, -1 (ix)
      000488 DD 77 FD         [19] 1122 	ld	-3 (ix), a
      00048B 3Es00            [ 7] 1123 	ld	a, #>(_sprite_palette)
      00048D CE 00            [ 7] 1124 	adc	a, #0x00
      00048F DD 77 FE         [19] 1125 	ld	-2 (ix), a
      000492 DD 6E FD         [19] 1126 	ld	l, -3 (ix)
      000495 DD 66 FE         [19] 1127 	ld	h, -2 (ix)
      000498 7E               [ 7] 1128 	ld	a, (hl)
      000499 DD 6E FB         [19] 1129 	ld	l, -5 (ix)
      00049C DD 66 FC         [19] 1130 	ld	h, -4 (ix)
      00049F 77               [ 7] 1131 	ld	(hl), a
                           0004A0  1132 	C$palettes.c$406$2_0$147	= .
                                   1133 	.globl	C$palettes.c$406$2_0$147
                                   1134 ;src/engine/palettes.c:406: for(j = 0;j<numcolors;j++) {
      0004A0 DD 34 FF         [23] 1135 	inc	-1 (ix)
      0004A3 18 C6            [12] 1136 	jr	00127$
      0004A5                       1137 00101$:
                           0004A5  1138 	C$palettes.c$409$1_0$146	= .
                                   1139 	.globl	C$palettes.c$409$1_0$146
                                   1140 ;src/engine/palettes.c:409: SMS_loadSpritePalette(sprite_palette);
      0004A5 21r00r00         [10] 1141 	ld	hl, #_sprite_palette
      0004A8 CDr00r00         [17] 1142 	call	_SMS_loadSpritePalette
                           0004AB  1143 	C$palettes.c$411$3_0$150	= .
                                   1144 	.globl	C$palettes.c$411$3_0$150
                                   1145 ;src/engine/palettes.c:411: while(i<4) {
      0004AB DD 36 FB 00      [19] 1146 	ld	-5 (ix), #0x00
      0004AF                       1147 00123$:
      0004AF DD 7E FB         [19] 1148 	ld	a, -5 (ix)
      0004B2 D6 04            [ 7] 1149 	sub	a, #0x04
      0004B4 D2r01r06         [10] 1150 	jp	NC, 00125$
                           0004B7  1151 	C$palettes.c$413$1_0$146	= .
                                   1152 	.globl	C$palettes.c$413$1_0$146
                                   1153 ;src/engine/palettes.c:413: while(j<numcolors) {
      0004B7 DD 36 FC 00      [19] 1154 	ld	-4 (ix), #0x00
      0004BB                       1155 00117$:
      0004BB DD 7E FC         [19] 1156 	ld	a, -4 (ix)
      0004BE DD 96 04         [19] 1157 	sub	a, 4 (ix)
      0004C1 D2rE4r05         [10] 1158 	jp	NC, 00119$
                           0004C4  1159 	C$palettes.c$414$1_0$146	= .
                                   1160 	.globl	C$palettes.c$414$1_0$146
                                   1161 ;src/engine/palettes.c:414: redComponent = getRedFromRGB(temporal_palette[j]);
      0004C4 DD 5E FC         [19] 1162 	ld	e, -4 (ix)
      0004C7 16 00            [ 7] 1163 	ld	d, #0x00
      0004C9 21 02 00         [10] 1164 	ld	hl, #2
      0004CC 39               [11] 1165 	add	hl, sp
      0004CD 19               [11] 1166 	add	hl, de
      0004CE DD 75 F5         [19] 1167 	ld	-11 (ix), l
      0004D1 DD 74 F6         [19] 1168 	ld	-10 (ix), h
      0004D4 7E               [ 7] 1169 	ld	a, (hl)
      0004D5 DD 77 FF         [19] 1170 	ld	-1 (ix), a
      0004D8 E6 0B            [ 7] 1171 	and	a, #0x0b
      0004DA DD 77 FD         [19] 1172 	ld	-3 (ix), a
                           0004DD  1173 	C$palettes.c$415$3_0$150	= .
                                   1174 	.globl	C$palettes.c$415$3_0$150
                                   1175 ;src/engine/palettes.c:415: greenComponent = getGreenFromRGB(temporal_palette[j]);
      0004DD DD 7E FF         [19] 1176 	ld	a, -1 (ix)
      0004E0 06 00            [ 7] 1177 	ld	b, #0x00
      0004E2 E6 4C            [ 7] 1178 	and	a, #0x4c
      0004E4 4F               [ 4] 1179 	ld	c, a
      0004E5 78               [ 4] 1180 	ld	a, b
      0004E6 E6 04            [ 7] 1181 	and	a, #0x04
      0004E8 47               [ 4] 1182 	ld	b, a
      0004E9 DD 71 F7         [19] 1183 	ld	-9 (ix), c
      0004EC DD 70 F8         [19] 1184 	ld	-8 (ix), b
      0004EF DD CB F8 2E      [23] 1185 	sra	-8 (ix)
      0004F3 DD CB F7 1E      [23] 1186 	rr	-9 (ix)
      0004F7 DD CB F8 2E      [23] 1187 	sra	-8 (ix)
      0004FB DD CB F7 1E      [23] 1188 	rr	-9 (ix)
      0004FF DD 7E F7         [19] 1189 	ld	a, -9 (ix)
      000502 DD 77 FE         [19] 1190 	ld	-2 (ix), a
                           000505  1191 	C$palettes.c$416$1_0$146	= .
                                   1192 	.globl	C$palettes.c$416$1_0$146
                                   1193 ;src/engine/palettes.c:416: blueComponent = getBlueFromRGB(temporal_palette[j]);
      000505 DD 7E FF         [19] 1194 	ld	a, -1 (ix)
      000508 DD 77 E3         [19] 1195 	ld	-29 (ix), a
      00050B DD 36 E4 00      [19] 1196 	ld	-28 (ix), #0x00
      00050F DD 7E E3         [19] 1197 	ld	a, -29 (ix)
      000512 E6 B0            [ 7] 1198 	and	a, #0xb0
      000514 DD 77 F7         [19] 1199 	ld	-9 (ix), a
      000517 DD 7E E4         [19] 1200 	ld	a, -28 (ix)
      00051A E6 AD            [ 7] 1201 	and	a, #0xad
      00051C DD 77 F8         [19] 1202 	ld	-8 (ix), a
      00051F DD CB F8 3E      [23] 1203 	srl	-8 (ix)
      000523 DD CB F7 1E      [23] 1204 	rr	-9 (ix)
      000527 DD CB F8 3E      [23] 1205 	srl	-8 (ix)
      00052B DD CB F7 1E      [23] 1206 	rr	-9 (ix)
      00052F DD CB F8 3E      [23] 1207 	srl	-8 (ix)
      000533 DD CB F7 1E      [23] 1208 	rr	-9 (ix)
      000537 DD CB F8 3E      [23] 1209 	srl	-8 (ix)
      00053B DD CB F7 1E      [23] 1210 	rr	-9 (ix)
      00053F DD 7E F7         [19] 1211 	ld	a, -9 (ix)
      000542 DD 77 FF         [19] 1212 	ld	-1 (ix), a
                           000545  1213 	C$palettes.c$417$3_0$150	= .
                                   1214 	.globl	C$palettes.c$417$3_0$150
                                   1215 ;src/engine/palettes.c:417: targetComponent = getGreenFromRGB(target_palette[j]);
      000545 DD 7E F9         [19] 1216 	ld	a, -7 (ix)
      000548 DD 86 FC         [19] 1217 	add	a, -4 (ix)
      00054B DD 77 F7         [19] 1218 	ld	-9 (ix), a
      00054E DD 7E FA         [19] 1219 	ld	a, -6 (ix)
      000551 CE 00            [ 7] 1220 	adc	a, #0x00
      000553 DD 77 F8         [19] 1221 	ld	-8 (ix), a
      000556 DD 6E F7         [19] 1222 	ld	l, -9 (ix)
      000559 DD 66 F8         [19] 1223 	ld	h, -8 (ix)
      00055C 7E               [ 7] 1224 	ld	a, (hl)
      00055D DD 77 F8         [19] 1225 	ld	-8 (ix), a
      000560 DD 77 E3         [19] 1226 	ld	-29 (ix), a
      000563 DD 36 E4 00      [19] 1227 	ld	-28 (ix), #0x00
      000567 DD 7E E3         [19] 1228 	ld	a, -29 (ix)
      00056A E6 4C            [ 7] 1229 	and	a, #0x4c
      00056C DD 77 F7         [19] 1230 	ld	-9 (ix), a
      00056F DD 7E E4         [19] 1231 	ld	a, -28 (ix)
      000572 E6 04            [ 7] 1232 	and	a, #0x04
      000574 DD 77 F8         [19] 1233 	ld	-8 (ix), a
      000577 DD CB F8 2E      [23] 1234 	sra	-8 (ix)
      00057B DD CB F7 1E      [23] 1235 	rr	-9 (ix)
      00057F DD CB F8 2E      [23] 1236 	sra	-8 (ix)
      000583 DD CB F7 1E      [23] 1237 	rr	-9 (ix)
      000587 DD 4E F7         [19] 1238 	ld	c, -9 (ix)
                           00058A  1239 	C$palettes.c$418$3_0$150	= .
                                   1240 	.globl	C$palettes.c$418$3_0$150
                                   1241 ;src/engine/palettes.c:418: if(greenComponent>targetComponent) {
      00058A 79               [ 4] 1242 	ld	a, c
      00058B DD 96 FE         [19] 1243 	sub	a, -2 (ix)
      00058E 30 05            [12] 1244 	jr	NC, 00105$
                           000590  1245 	C$palettes.c$419$4_0$151	= .
                                   1246 	.globl	C$palettes.c$419$4_0$151
                                   1247 ;src/engine/palettes.c:419: greenComponent--;
      000590 DD 35 FE         [23] 1248 	dec	-2 (ix)
      000593 18 09            [12] 1249 	jr	00106$
      000595                       1250 00105$:
                           000595  1251 	C$palettes.c$420$3_0$150	= .
                                   1252 	.globl	C$palettes.c$420$3_0$150
                                   1253 ;src/engine/palettes.c:420: } else if(greenComponent<targetComponent) {
      000595 DD 7E FE         [19] 1254 	ld	a, -2 (ix)
      000598 91               [ 4] 1255 	sub	a, c
      000599 30 03            [12] 1256 	jr	NC, 00106$
                           00059B  1257 	C$palettes.c$421$4_0$152	= .
                                   1258 	.globl	C$palettes.c$421$4_0$152
                                   1259 ;src/engine/palettes.c:421: greenComponent++;
      00059B DD 34 FE         [23] 1260 	inc	-2 (ix)
      00059E                       1261 00106$:
                           00059E  1262 	C$palettes.c$423$3_0$150	= .
                                   1263 	.globl	C$palettes.c$423$3_0$150
                                   1264 ;src/engine/palettes.c:423: if(redComponent>targetComponent) {
      00059E 79               [ 4] 1265 	ld	a, c
      00059F DD 96 FD         [19] 1266 	sub	a, -3 (ix)
      0005A2 30 05            [12] 1267 	jr	NC, 00110$
                           0005A4  1268 	C$palettes.c$424$4_0$153	= .
                                   1269 	.globl	C$palettes.c$424$4_0$153
                                   1270 ;src/engine/palettes.c:424: redComponent--;
      0005A4 DD 35 FD         [23] 1271 	dec	-3 (ix)
      0005A7 18 09            [12] 1272 	jr	00111$
      0005A9                       1273 00110$:
                           0005A9  1274 	C$palettes.c$425$3_0$150	= .
                                   1275 	.globl	C$palettes.c$425$3_0$150
                                   1276 ;src/engine/palettes.c:425: } else if(redComponent<targetComponent) {
      0005A9 DD 7E FD         [19] 1277 	ld	a, -3 (ix)
      0005AC 91               [ 4] 1278 	sub	a, c
      0005AD 30 03            [12] 1279 	jr	NC, 00111$
                           0005AF  1280 	C$palettes.c$426$4_0$154	= .
                                   1281 	.globl	C$palettes.c$426$4_0$154
                                   1282 ;src/engine/palettes.c:426: redComponent++;
      0005AF DD 34 FD         [23] 1283 	inc	-3 (ix)
      0005B2                       1284 00111$:
                           0005B2  1285 	C$palettes.c$428$3_0$150	= .
                                   1286 	.globl	C$palettes.c$428$3_0$150
                                   1287 ;src/engine/palettes.c:428: if(blueComponent>targetComponent) {
      0005B2 79               [ 4] 1288 	ld	a, c
      0005B3 DD 96 FF         [19] 1289 	sub	a, -1 (ix)
      0005B6 30 05            [12] 1290 	jr	NC, 00115$
                           0005B8  1291 	C$palettes.c$429$4_0$155	= .
                                   1292 	.globl	C$palettes.c$429$4_0$155
                                   1293 ;src/engine/palettes.c:429: blueComponent--;
      0005B8 DD 35 FF         [23] 1294 	dec	-1 (ix)
      0005BB 18 09            [12] 1295 	jr	00116$
      0005BD                       1296 00115$:
                           0005BD  1297 	C$palettes.c$430$3_0$150	= .
                                   1298 	.globl	C$palettes.c$430$3_0$150
                                   1299 ;src/engine/palettes.c:430: } else if(blueComponent<targetComponent){
      0005BD DD 7E FF         [19] 1300 	ld	a, -1 (ix)
      0005C0 91               [ 4] 1301 	sub	a, c
      0005C1 30 03            [12] 1302 	jr	NC, 00116$
                           0005C3  1303 	C$palettes.c$431$4_0$156	= .
                                   1304 	.globl	C$palettes.c$431$4_0$156
                                   1305 ;src/engine/palettes.c:431: blueComponent++;
      0005C3 DD 34 FF         [23] 1306 	inc	-1 (ix)
      0005C6                       1307 00116$:
                           0005C6  1308 	C$palettes.c$433$3_0$150	= .
                                   1309 	.globl	C$palettes.c$433$3_0$150
                                   1310 ;src/engine/palettes.c:433: temporal_palette[j] = RGB(redComponent,greenComponent,blueComponent);
      0005C6 DD 7E FE         [19] 1311 	ld	a, -2 (ix)
      0005C9 87               [ 4] 1312 	add	a, a
      0005CA 87               [ 4] 1313 	add	a, a
      0005CB DD B6 FD         [19] 1314 	or	a, -3 (ix)
      0005CE 4F               [ 4] 1315 	ld	c, a
      0005CF DD 7E FF         [19] 1316 	ld	a, -1 (ix)
      0005D2 87               [ 4] 1317 	add	a, a
      0005D3 87               [ 4] 1318 	add	a, a
      0005D4 87               [ 4] 1319 	add	a, a
      0005D5 87               [ 4] 1320 	add	a, a
      0005D6 B1               [ 4] 1321 	or	a, c
      0005D7 DD 6E F5         [19] 1322 	ld	l, -11 (ix)
      0005DA DD 66 F6         [19] 1323 	ld	h, -10 (ix)
      0005DD 77               [ 7] 1324 	ld	(hl), a
                           0005DE  1325 	C$palettes.c$434$3_0$150	= .
                                   1326 	.globl	C$palettes.c$434$3_0$150
                                   1327 ;src/engine/palettes.c:434: j++;
      0005DE DD 34 FC         [23] 1328 	inc	-4 (ix)
      0005E1 C3rBBr04         [10] 1329 	jp	00117$
      0005E4                       1330 00119$:
                           0005E4  1331 	C$palettes.c$437$1_0$146	= .
                                   1332 	.globl	C$palettes.c$437$1_0$146
                                   1333 ;src/engine/palettes.c:437: while(j<framesperstep) {
      0005E4 0E 00            [ 7] 1334 	ld	c, #0x00
      0005E6                       1335 00120$:
      0005E6 79               [ 4] 1336 	ld	a, c
      0005E7 DD 96 05         [19] 1337 	sub	a, 5 (ix)
      0005EA 30 08            [12] 1338 	jr	NC, 00122$
                           0005EC  1339 	C$palettes.c$438$3_0$157	= .
                                   1340 	.globl	C$palettes.c$438$3_0$157
                                   1341 ;src/engine/palettes.c:438: waitForFrame();
      0005EC C5               [11] 1342 	push	bc
      0005ED CDr00r00         [17] 1343 	call	_waitForFrame
      0005F0 C1               [10] 1344 	pop	bc
                           0005F1  1345 	C$palettes.c$439$3_0$157	= .
                                   1346 	.globl	C$palettes.c$439$3_0$157
                                   1347 ;src/engine/palettes.c:439: j++;
      0005F1 0C               [ 4] 1348 	inc	c
      0005F2 18 F2            [12] 1349 	jr	00120$
      0005F4                       1350 00122$:
                           0005F4  1351 	C$palettes.c$442$2_0$149	= .
                                   1352 	.globl	C$palettes.c$442$2_0$149
                                   1353 ;src/engine/palettes.c:442: SMS_loadSpritePalette(temporal_palette);
      0005F4 21 02 00         [10] 1354 	ld	hl, #2
      0005F7 39               [11] 1355 	add	hl, sp
      0005F8 CDr00r00         [17] 1356 	call	_SMS_loadSpritePalette
                           0005FB  1357 	C$palettes.c$443$2_0$149	= .
                                   1358 	.globl	C$palettes.c$443$2_0$149
                                   1359 ;src/engine/palettes.c:443: i++;
      0005FB DD 34 FB         [23] 1360 	inc	-5 (ix)
      0005FE C3rAFr04         [10] 1361 	jp	00123$
      000601                       1362 00125$:
                           000601  1363 	C$palettes.c$445$1_0$146	= .
                                   1364 	.globl	C$palettes.c$445$1_0$146
                                   1365 ;src/engine/palettes.c:445: setSpritePalette(target_palette, numcolors);
      000601 DD 7E 04         [19] 1366 	ld	a, 4 (ix)
      000604 F5               [11] 1367 	push	af
      000605 33               [ 6] 1368 	inc	sp
      000606 DD 6E F9         [19] 1369 	ld	l, -7 (ix)
                                   1370 ;	spillPairReg hl
                                   1371 ;	spillPairReg hl
      000609 DD 66 FA         [19] 1372 	ld	h, -6 (ix)
                                   1373 ;	spillPairReg hl
                                   1374 ;	spillPairReg hl
      00060C CDr43r00         [17] 1375 	call	_setSpritePalette
                           00060F  1376 	C$palettes.c$446$1_0$146	= .
                                   1377 	.globl	C$palettes.c$446$1_0$146
                                   1378 ;src/engine/palettes.c:446: }
      00060F DD F9            [10] 1379 	ld	sp, ix
      000611 DD E1            [14] 1380 	pop	ix
      000613 E1               [10] 1381 	pop	hl
      000614 F1               [10] 1382 	pop	af
      000615 E9               [ 4] 1383 	jp	(hl)
                                   1384 	.area _CODE
                                   1385 	.area _INITIALIZER
                                   1386 	.area _CABS (ABS)
