                                      1 ;--------------------------------------------------------
                                      2 ; File Created by SDCC : free open source ISO C Compiler 
                                      3 ; Version 4.2.12 #13827 (Linux)
                                      4 ;--------------------------------------------------------
                                      5 	.module saves
                                      6 	.optsdcc -mz80
                                      7 	
                                      8 ;--------------------------------------------------------
                                      9 ; Public variables in this module
                                     10 ;--------------------------------------------------------
                                     11 	.globl _flash_program
                                     12 	.globl _flash_sector_erase
                                     13 	.globl _flash_ids_get
                                     14 	.globl _SMS_SRAM
                                     15 	.globl _SRAM_bank_to_be_mapped_on_slot2
                                     16 	.globl _ROM_bank_to_be_mapped_on_slot0
                                     17 	.globl _ROM_bank_to_be_mapped_on_slot1
                                     18 	.globl _ROM_bank_to_be_mapped_on_slot2
                                     19 	.globl _init_savesystem
                                     20 	.globl _saveChanges
                                     21 ;--------------------------------------------------------
                                     22 ; special function registers
                                     23 ;--------------------------------------------------------
                                     24 ;--------------------------------------------------------
                                     25 ; ram data
                                     26 ;--------------------------------------------------------
                                     27 	.area _DATA
                           00FFFF    28 G$ROM_bank_to_be_mapped_on_slot2$0_0$0 == 0xffff
                           00FFFF    29 _ROM_bank_to_be_mapped_on_slot2	=	0xffff
                           00FFFE    30 G$ROM_bank_to_be_mapped_on_slot1$0_0$0 == 0xfffe
                           00FFFE    31 _ROM_bank_to_be_mapped_on_slot1	=	0xfffe
                           00FFFD    32 G$ROM_bank_to_be_mapped_on_slot0$0_0$0 == 0xfffd
                           00FFFD    33 _ROM_bank_to_be_mapped_on_slot0	=	0xfffd
                           00FFFC    34 G$SRAM_bank_to_be_mapped_on_slot2$0_0$0 == 0xfffc
                           00FFFC    35 _SRAM_bank_to_be_mapped_on_slot2	=	0xfffc
                           008000    36 G$SMS_SRAM$0_0$0 == 0x8000
                           008000    37 _SMS_SRAM	=	0x8000
                                     38 ;--------------------------------------------------------
                                     39 ; ram data
                                     40 ;--------------------------------------------------------
                                     41 	.area _INITIALIZED
                                     42 ;--------------------------------------------------------
                                     43 ; absolute external ram data
                                     44 ;--------------------------------------------------------
                                     45 	.area _DABS (ABS)
                                     46 ;--------------------------------------------------------
                                     47 ; global & static initialisations
                                     48 ;--------------------------------------------------------
                                     49 	.area _HOME
                                     50 	.area _GSINIT
                                     51 	.area _GSFINAL
                                     52 	.area _GSINIT
                                     53 ;--------------------------------------------------------
                                     54 ; Home
                                     55 ;--------------------------------------------------------
                                     56 	.area _HOME
                                     57 	.area _HOME
                                     58 ;--------------------------------------------------------
                                     59 ; code
                                     60 ;--------------------------------------------------------
                                     61 	.area _CODE
                           000000    62 	G$init_savesystem$0$0	= .
                                     63 	.globl	G$init_savesystem$0$0
                           000000    64 	C$saves.c$12$0_0$109	= .
                                     65 	.globl	C$saves.c$12$0_0$109
                                     66 ;src/libs/saves.c:12: bool init_savesystem(void) {
                                     67 ;	---------------------------------
                                     68 ; Function init_savesystem
                                     69 ; ---------------------------------
      000000                         70 _init_savesystem::
      000000 DD E5            [15]   71 	push	ix
      000002 DD 21 00 00      [14]   72 	ld	ix,#0
      000006 DD 39            [15]   73 	add	ix,sp
      000008 F5               [11]   74 	push	af
      000009 F5               [11]   75 	push	af
                           00000A    76 	C$saves.c$13$2_0$109	= .
                                     77 	.globl	C$saves.c$13$2_0$109
                                     78 ;src/libs/saves.c:13: bool saveToInitialize = false;
      00000A DD 36 FE 00      [19]   79 	ld	-2 (ix), #0x00
                           00000E    80 	C$saves.c$14$2_0$109	= .
                                     81 	.globl	C$saves.c$14$2_0$109
                                     82 ;src/libs/saves.c:14: bool failureToSave = false;
      00000E DD 36 FF 00      [19]   83 	ld	-1 (ix), #0x00
                           000012    84 	C$saves.c$15$1_0$109	= .
                                     85 	.globl	C$saves.c$15$1_0$109
                                     86 ;src/libs/saves.c:15: currentSaveSystem = NO_SAVE;
      000012 21r00r00         [10]   87 	ld	hl, #_currentSaveSystem
      000015 36 00            [10]   88 	ld	(hl), #0x00
                           000017    89 	C$saves.c$18$1_1$110	= .
                                     90 	.globl	C$saves.c$18$1_1$110
                                     91 ;src/libs/saves.c:18: flash_ids_get(ids);
      000017 21 00 00         [10]   92 	ld	hl, #0
      00001A 39               [11]   93 	add	hl, sp
      00001B CDr00r00         [17]   94 	call	_flash_ids_get
                           00001E    95 	C$saves.c$19$1_1$110	= .
                                     96 	.globl	C$saves.c$19$1_1$110
                                     97 ;src/libs/saves.c:19: if(ids[0]==0xBF && ids[1]==0xB7) {
      00001E DD 7E FC         [19]   98 	ld	a, -4 (ix)
      000021 D6 BF            [ 7]   99 	sub	a, #0xbf
      000023 20 19            [12]  100 	jr	NZ, 00102$
      000025 DD 7E FD         [19]  101 	ld	a, -3 (ix)
      000028 D6 B7            [ 7]  102 	sub	a, #0xb7
      00002A 20 12            [12]  103 	jr	NZ, 00102$
                           00002C   104 	C$saves.c$21$2_1$111	= .
                                    105 	.globl	C$saves.c$21$2_1$111
                                    106 ;src/libs/saves.c:21: currentSaveSystem = FLASH_SAVE;       
      00002C 21r00r00         [10]  107 	ld	hl, #_currentSaveSystem
      00002F 36 02            [10]  108 	ld	(hl), #0x02
                           000031   109 	C$saves.c$22$2_1$111	= .
                                    110 	.globl	C$saves.c$22$2_1$111
                                    111 ;src/libs/saves.c:22: SMS_mapROMBank(FLASH_SAVING_BANK);
      000031 21 FF FF         [10]  112 	ld	hl, #_ROM_bank_to_be_mapped_on_slot2
      000034 36 1F            [10]  113 	ld	(hl), #0x1f
                           000036   114 	C$saves.c$23$2_1$111	= .
                                    115 	.globl	C$saves.c$23$2_1$111
                                    116 ;src/libs/saves.c:23: highscore_table_backup = (highscore_struct*)(0x8000 | (FLASH_SAVING_ADDRESS & 0x3FFF));
      000036 21 00 80         [10]  117 	ld	hl, #0x8000
      000039 22r00r00         [16]  118 	ld	(_highscore_table_backup), hl
      00003C 18 10            [12]  119 	jr	00103$
      00003E                        120 00102$:
                           00003E   121 	C$saves.c$25$2_1$112	= .
                                    122 	.globl	C$saves.c$25$2_1$112
                                    123 ;src/libs/saves.c:25: currentSaveSystem = SRAM_SAVE; //tentative
      00003E 21r00r00         [10]  124 	ld	hl, #_currentSaveSystem
      000041 36 01            [10]  125 	ld	(hl), #0x01
                           000043   126 	C$saves.c$26$2_1$112	= .
                                    127 	.globl	C$saves.c$26$2_1$112
                                    128 ;src/libs/saves.c:26: highscore_table_backup = (highscore_struct*)(&SMS_SRAM);
      000043 21 00 80         [10]  129 	ld	hl, #_SMS_SRAM+0
      000046 22r00r00         [16]  130 	ld	(_highscore_table_backup), hl
                           000049   131 	C$saves.c$27$2_1$112	= .
                                    132 	.globl	C$saves.c$27$2_1$112
                                    133 ;src/libs/saves.c:27: SMS_enableSRAM();
      000049 21 FC FF         [10]  134 	ld	hl, #_SRAM_bank_to_be_mapped_on_slot2
      00004C 36 08            [10]  135 	ld	(hl), #0x08
      00004E                        136 00103$:
                           00004E   137 	C$saves.c$32$1_1$110	= .
                                    138 	.globl	C$saves.c$32$1_1$110
                                    139 ;src/libs/saves.c:32: memcpy(&highscore_table, highscore_table_backup, sizeof(highscore_table)); 
      00004E 11r00r00         [10]  140 	ld	de, #_highscore_table
      000051 2Ar00r00         [16]  141 	ld	hl, (_highscore_table_backup)
      000054 01 34 00         [10]  142 	ld	bc, #0x0034
      000057 ED B0            [21]  143 	ldir
                           000059   144 	C$saves.c$33$1_1$110	= .
                                    145 	.globl	C$saves.c$33$1_1$110
                                    146 ;src/libs/saves.c:33: if( highscore_table.marker1== 69 && highscore_table.marker2 == 148) {
      000059 3Ar00r00         [13]  147 	ld	a, (#_highscore_table + 0)
      00005C 01r01r00         [10]  148 	ld	bc, #_highscore_table + 1
      00005F D6 45            [ 7]  149 	sub	a, #0x45
      000061 20 0C            [12]  150 	jr	NZ, 00113$
      000063 0A               [ 7]  151 	ld	a, (bc)
      000064 D6 94            [ 7]  152 	sub	a, #0x94
      000066 20 07            [12]  153 	jr	NZ, 00113$
                           000068   154 	C$saves.c$35$2_1$113	= .
                                    155 	.globl	C$saves.c$35$2_1$113
                                    156 ;src/libs/saves.c:35: saveToInitialize = false;
      000068 DD 36 FE 00      [19]  157 	ld	-2 (ix), #0x00
      00006C C3r9Dr01         [10]  158 	jp	00114$
      00006F                        159 00113$:
                           00006F   160 	C$saves.c$38$2_1$114	= .
                                    161 	.globl	C$saves.c$38$2_1$114
                                    162 ;src/libs/saves.c:38: highscore_table.marker1 = 69;
      00006F 21r00r00         [10]  163 	ld	hl, #_highscore_table
      000072 36 45            [10]  164 	ld	(hl), #0x45
                           000074   165 	C$saves.c$39$2_1$114	= .
                                    166 	.globl	C$saves.c$39$2_1$114
                                    167 ;src/libs/saves.c:39: highscore_table.marker2 = 148;
      000074 3E 94            [ 7]  168 	ld	a, #0x94
      000076 02               [ 7]  169 	ld	(bc), a
                           000077   170 	C$saves.c$40$2_1$114	= .
                                    171 	.globl	C$saves.c$40$2_1$114
                                    172 ;src/libs/saves.c:40: if(currentSaveSystem == SRAM_SAVE) {
      000077 3Ar00r00         [13]  173 	ld	a, (_currentSaveSystem+0)
      00007A 3D               [ 4]  174 	dec	a
      00007B 20 0D            [12]  175 	jr	NZ, 00106$
                           00007D   176 	C$saves.c$42$3_1$115	= .
                                    177 	.globl	C$saves.c$42$3_1$115
                                    178 ;src/libs/saves.c:42: memcpy(highscore_table_backup, &highscore_table, sizeof(highscore_table));
      00007D ED 5Br00r00      [20]  179 	ld	de, (_highscore_table_backup)
      000081 C5               [11]  180 	push	bc
      000082 01 34 00         [10]  181 	ld	bc, #0x0034
      000085 ED B0            [21]  182 	ldir
      000087 C1               [10]  183 	pop	bc
      000088 18 1C            [12]  184 	jr	00107$
      00008A                        185 00106$:
                           00008A   186 	C$saves.c$45$3_1$116	= .
                                    187 	.globl	C$saves.c$45$3_1$116
                                    188 ;src/libs/saves.c:45: flash_sector_erase(FLASH_SAVING_ADDRESS);
      00008A C5               [11]  189 	push	bc
      00008B 11 00 C0         [10]  190 	ld	de, #0xc000
      00008E 21 07 00         [10]  191 	ld	hl, #0x0007
      000091 CDr00r00         [17]  192 	call	_flash_sector_erase
      000094 21 34 00         [10]  193 	ld	hl, #0x0034
      000097 E5               [11]  194 	push	hl
      000098 21r00r00         [10]  195 	ld	hl, #_highscore_table
      00009B E5               [11]  196 	push	hl
      00009C 11 00 C0         [10]  197 	ld	de, #0xc000
      00009F 21 07 00         [10]  198 	ld	hl, #0x0007
      0000A2 CDr00r00         [17]  199 	call	_flash_program
      0000A5 C1               [10]  200 	pop	bc
      0000A6                        201 00107$:
                           0000A6   202 	C$saves.c$49$2_1$114	= .
                                    203 	.globl	C$saves.c$49$2_1$114
                                    204 ;src/libs/saves.c:49: memcpy(&highscore_table, highscore_table_backup, sizeof(highscore_table));
      0000A6 2Ar00r00         [16]  205 	ld	hl, (_highscore_table_backup)
      0000A9 C5               [11]  206 	push	bc
      0000AA 11r00r00         [10]  207 	ld	de, #_highscore_table
      0000AD 01 34 00         [10]  208 	ld	bc, #0x0034
      0000B0 ED B0            [21]  209 	ldir
      0000B2 C1               [10]  210 	pop	bc
                           0000B3   211 	C$saves.c$51$2_1$114	= .
                                    212 	.globl	C$saves.c$51$2_1$114
                                    213 ;src/libs/saves.c:51: if(highscore_table.marker1 == 69 && highscore_table.marker2 == 148) {
      0000B3 3Ar00r00         [13]  214 	ld	a, (#_highscore_table + 0)
      0000B6 D6 45            [ 7]  215 	sub	a, #0x45
      0000B8 C2r99r01         [10]  216 	jp	NZ,00109$
      0000BB 0A               [ 7]  217 	ld	a, (bc)
      0000BC D6 94            [ 7]  218 	sub	a, #0x94
      0000BE C2r99r01         [10]  219 	jp	NZ,00109$
                           0000C1   220 	C$saves.c$52$3_1$117	= .
                                    221 	.globl	C$saves.c$52$3_1$117
                                    222 ;src/libs/saves.c:52: saveToInitialize = true;
      0000C1 DD 36 FE 01      [19]  223 	ld	-2 (ix), #0x01
                           0000C5   224 	C$saves.c$54$3_1$117	= .
                                    225 	.globl	C$saves.c$54$3_1$117
                                    226 ;src/libs/saves.c:54: highscore_table.table[0].name[0] = 9;
      0000C5 21r02r00         [10]  227 	ld	hl, #(_highscore_table + 2)
      0000C8 36 09            [10]  228 	ld	(hl), #0x09
                           0000CA   229 	C$saves.c$55$3_1$117	= .
                                    230 	.globl	C$saves.c$55$3_1$117
                                    231 ;src/libs/saves.c:55: highscore_table.table[0].name[1] = 12;
      0000CA 21r03r00         [10]  232 	ld	hl, #(_highscore_table + 3)
      0000CD 36 0C            [10]  233 	ld	(hl), #0x0c
                           0000CF   234 	C$saves.c$56$3_1$117	= .
                                    235 	.globl	C$saves.c$56$3_1$117
                                    236 ;src/libs/saves.c:56: highscore_table.table[0].name[2] = 18;
      0000CF 21r04r00         [10]  237 	ld	hl, #(_highscore_table + 4)
      0000D2 36 12            [10]  238 	ld	(hl), #0x12
                           0000D4   239 	C$saves.c$57$3_1$117	= .
                                    240 	.globl	C$saves.c$57$3_1$117
                                    241 ;src/libs/saves.c:57: highscore_table.table[0].score = 1000;
      0000D4 21 E8 03         [10]  242 	ld	hl, #0x03e8
      0000D7 22r05r00         [16]  243 	ld	((_highscore_table + 5)), hl
                           0000DA   244 	C$saves.c$59$3_1$117	= .
                                    245 	.globl	C$saves.c$59$3_1$117
                                    246 ;src/libs/saves.c:59: highscore_table.table[1].name[0] = 0;
      0000DA 21r07r00         [10]  247 	ld	hl, #(_highscore_table + 7)
      0000DD 36 00            [10]  248 	ld	(hl), #0x00
                           0000DF   249 	C$saves.c$60$3_1$117	= .
                                    250 	.globl	C$saves.c$60$3_1$117
                                    251 ;src/libs/saves.c:60: highscore_table.table[1].name[1] = 12;
      0000DF 21r08r00         [10]  252 	ld	hl, #(_highscore_table + 8)
      0000E2 36 0C            [10]  253 	ld	(hl), #0x0c
                           0000E4   254 	C$saves.c$61$3_1$117	= .
                                    255 	.globl	C$saves.c$61$3_1$117
                                    256 ;src/libs/saves.c:61: highscore_table.table[1].name[2] = 2;
      0000E4 21r09r00         [10]  257 	ld	hl, #(_highscore_table + 9)
      0000E7 36 02            [10]  258 	ld	(hl), #0x02
                           0000E9   259 	C$saves.c$62$3_1$117	= .
                                    260 	.globl	C$saves.c$62$3_1$117
                                    261 ;src/libs/saves.c:62: highscore_table.table[1].score = 900;
      0000E9 21 84 03         [10]  262 	ld	hl, #0x0384
      0000EC 22r0Ar00         [16]  263 	ld	((_highscore_table + 10)), hl
                           0000EF   264 	C$saves.c$64$3_1$117	= .
                                    265 	.globl	C$saves.c$64$3_1$117
                                    266 ;src/libs/saves.c:64: highscore_table.table[2].name[0] = 14;
      0000EF 21r0Cr00         [10]  267 	ld	hl, #(_highscore_table + 12)
      0000F2 36 0E            [10]  268 	ld	(hl), #0x0e
                           0000F4   269 	C$saves.c$65$3_1$117	= .
                                    270 	.globl	C$saves.c$65$3_1$117
                                    271 ;src/libs/saves.c:65: highscore_table.table[2].name[1] = 17;
      0000F4 21r0Dr00         [10]  272 	ld	hl, #(_highscore_table + 13)
      0000F7 36 11            [10]  273 	ld	(hl), #0x11
                           0000F9   274 	C$saves.c$66$3_1$117	= .
                                    275 	.globl	C$saves.c$66$3_1$117
                                    276 ;src/libs/saves.c:66: highscore_table.table[2].name[2] = 12;
      0000F9 21r0Er00         [10]  277 	ld	hl, #(_highscore_table + 14)
      0000FC 36 0C            [10]  278 	ld	(hl), #0x0c
                           0000FE   279 	C$saves.c$67$3_1$117	= .
                                    280 	.globl	C$saves.c$67$3_1$117
                                    281 ;src/libs/saves.c:67: highscore_table.table[2].score = 800;
      0000FE 21 20 03         [10]  282 	ld	hl, #0x0320
      000101 22r0Fr00         [16]  283 	ld	((_highscore_table + 15)), hl
                           000104   284 	C$saves.c$69$3_1$117	= .
                                    285 	.globl	C$saves.c$69$3_1$117
                                    286 ;src/libs/saves.c:69: highscore_table.table[3].name[0] = 9;
      000104 21r11r00         [10]  287 	ld	hl, #(_highscore_table + 17)
      000107 36 09            [10]  288 	ld	(hl), #0x09
                           000109   289 	C$saves.c$70$3_1$117	= .
                                    290 	.globl	C$saves.c$70$3_1$117
                                    291 ;src/libs/saves.c:70: highscore_table.table[3].name[1] = 1;
      000109 21r12r00         [10]  292 	ld	hl, #(_highscore_table + 18)
      00010C 36 01            [10]  293 	ld	(hl), #0x01
                           00010E   294 	C$saves.c$71$3_1$117	= .
                                    295 	.globl	C$saves.c$71$3_1$117
                                    296 ;src/libs/saves.c:71: highscore_table.table[3].name[2] = 2;
      00010E 21r13r00         [10]  297 	ld	hl, #(_highscore_table + 19)
      000111 36 02            [10]  298 	ld	(hl), #0x02
                           000113   299 	C$saves.c$72$3_1$117	= .
                                    300 	.globl	C$saves.c$72$3_1$117
                                    301 ;src/libs/saves.c:72: highscore_table.table[3].score = 700;
      000113 21 BC 02         [10]  302 	ld	hl, #0x02bc
      000116 22r14r00         [16]  303 	ld	((_highscore_table + 20)), hl
                           000119   304 	C$saves.c$74$3_1$117	= .
                                    305 	.globl	C$saves.c$74$3_1$117
                                    306 ;src/libs/saves.c:74: highscore_table.table[4].name[0] = 17;
      000119 21r16r00         [10]  307 	ld	hl, #(_highscore_table + 22)
      00011C 36 11            [10]  308 	ld	(hl), #0x11
                           00011E   309 	C$saves.c$75$3_1$117	= .
                                    310 	.globl	C$saves.c$75$3_1$117
                                    311 ;src/libs/saves.c:75: highscore_table.table[4].name[1] = 2;
      00011E 21r17r00         [10]  312 	ld	hl, #(_highscore_table + 23)
      000121 36 02            [10]  313 	ld	(hl), #0x02
                           000123   314 	C$saves.c$76$3_1$117	= .
                                    315 	.globl	C$saves.c$76$3_1$117
                                    316 ;src/libs/saves.c:76: highscore_table.table[4].name[2] = 1;
      000123 21r18r00         [10]  317 	ld	hl, #(_highscore_table + 24)
      000126 36 01            [10]  318 	ld	(hl), #0x01
                           000128   319 	C$saves.c$77$3_1$117	= .
                                    320 	.globl	C$saves.c$77$3_1$117
                                    321 ;src/libs/saves.c:77: highscore_table.table[4].score = 600;
      000128 21 58 02         [10]  322 	ld	hl, #0x0258
      00012B 22r19r00         [16]  323 	ld	((_highscore_table + 25)), hl
                           00012E   324 	C$saves.c$79$3_1$117	= .
                                    325 	.globl	C$saves.c$79$3_1$117
                                    326 ;src/libs/saves.c:79: highscore_table.table[5].name[0] = 0;
      00012E 21r1Br00         [10]  327 	ld	hl, #(_highscore_table + 27)
      000131 36 00            [10]  328 	ld	(hl), #0x00
                           000133   329 	C$saves.c$80$3_1$117	= .
                                    330 	.globl	C$saves.c$80$3_1$117
                                    331 ;src/libs/saves.c:80: highscore_table.table[5].name[1] = 12;
      000133 21r1Cr00         [10]  332 	ld	hl, #(_highscore_table + 28)
      000136 36 0C            [10]  333 	ld	(hl), #0x0c
                           000138   334 	C$saves.c$81$3_1$117	= .
                                    335 	.globl	C$saves.c$81$3_1$117
                                    336 ;src/libs/saves.c:81: highscore_table.table[5].name[2] = 18;
      000138 21r1Dr00         [10]  337 	ld	hl, #(_highscore_table + 29)
      00013B 36 12            [10]  338 	ld	(hl), #0x12
                           00013D   339 	C$saves.c$82$3_1$117	= .
                                    340 	.globl	C$saves.c$82$3_1$117
                                    341 ;src/libs/saves.c:82: highscore_table.table[5].score = 500;
      00013D 21 F4 01         [10]  342 	ld	hl, #0x01f4
      000140 22r1Er00         [16]  343 	ld	((_highscore_table + 30)), hl
                           000143   344 	C$saves.c$84$3_1$117	= .
                                    345 	.globl	C$saves.c$84$3_1$117
                                    346 ;src/libs/saves.c:84: highscore_table.table[6].name[0] = 12;
      000143 21r20r00         [10]  347 	ld	hl, #(_highscore_table + 32)
      000146 36 0C            [10]  348 	ld	(hl), #0x0c
                           000148   349 	C$saves.c$85$3_1$117	= .
                                    350 	.globl	C$saves.c$85$3_1$117
                                    351 ;src/libs/saves.c:85: highscore_table.table[6].name[1] = 18;
      000148 21r21r00         [10]  352 	ld	hl, #(_highscore_table + 33)
      00014B 36 12            [10]  353 	ld	(hl), #0x12
                           00014D   354 	C$saves.c$86$3_1$117	= .
                                    355 	.globl	C$saves.c$86$3_1$117
                                    356 ;src/libs/saves.c:86: highscore_table.table[6].name[2] = 12;
      00014D 21r22r00         [10]  357 	ld	hl, #(_highscore_table + 34)
      000150 36 0C            [10]  358 	ld	(hl), #0x0c
                           000152   359 	C$saves.c$87$3_1$117	= .
                                    360 	.globl	C$saves.c$87$3_1$117
                                    361 ;src/libs/saves.c:87: highscore_table.table[6].score = 400;
      000152 21 90 01         [10]  362 	ld	hl, #0x0190
      000155 22r23r00         [16]  363 	ld	((_highscore_table + 35)), hl
                           000158   364 	C$saves.c$89$3_1$117	= .
                                    365 	.globl	C$saves.c$89$3_1$117
                                    366 ;src/libs/saves.c:89: highscore_table.table[7].name[0] = 3;
      000158 21r25r00         [10]  367 	ld	hl, #(_highscore_table + 37)
      00015B 36 03            [10]  368 	ld	(hl), #0x03
                           00015D   369 	C$saves.c$90$3_1$117	= .
                                    370 	.globl	C$saves.c$90$3_1$117
                                    371 ;src/libs/saves.c:90: highscore_table.table[7].name[1] = 18;
      00015D 21r26r00         [10]  372 	ld	hl, #(_highscore_table + 38)
      000160 36 12            [10]  373 	ld	(hl), #0x12
                           000162   374 	C$saves.c$91$3_1$117	= .
                                    375 	.globl	C$saves.c$91$3_1$117
                                    376 ;src/libs/saves.c:91: highscore_table.table[7].name[2] = 12;
      000162 21r27r00         [10]  377 	ld	hl, #(_highscore_table + 39)
      000165 36 0C            [10]  378 	ld	(hl), #0x0c
                           000167   379 	C$saves.c$92$3_1$117	= .
                                    380 	.globl	C$saves.c$92$3_1$117
                                    381 ;src/libs/saves.c:92: highscore_table.table[7].score = 300;
      000167 21 2C 01         [10]  382 	ld	hl, #0x012c
      00016A 22r28r00         [16]  383 	ld	((_highscore_table + 40)), hl
                           00016D   384 	C$saves.c$94$3_1$117	= .
                                    385 	.globl	C$saves.c$94$3_1$117
                                    386 ;src/libs/saves.c:94: highscore_table.table[8].name[0] = 4;
      00016D 21r2Ar00         [10]  387 	ld	hl, #(_highscore_table + 42)
      000170 36 04            [10]  388 	ld	(hl), #0x04
                           000172   389 	C$saves.c$95$3_1$117	= .
                                    390 	.globl	C$saves.c$95$3_1$117
                                    391 ;src/libs/saves.c:95: highscore_table.table[8].name[1] = 8;
      000172 21r2Br00         [10]  392 	ld	hl, #(_highscore_table + 43)
      000175 36 08            [10]  393 	ld	(hl), #0x08
                           000177   394 	C$saves.c$96$3_1$117	= .
                                    395 	.globl	C$saves.c$96$3_1$117
                                    396 ;src/libs/saves.c:96: highscore_table.table[8].name[2] = 15;
      000177 21r2Cr00         [10]  397 	ld	hl, #(_highscore_table + 44)
      00017A 36 0F            [10]  398 	ld	(hl), #0x0f
                           00017C   399 	C$saves.c$97$3_1$117	= .
                                    400 	.globl	C$saves.c$97$3_1$117
                                    401 ;src/libs/saves.c:97: highscore_table.table[8].score = 200;
      00017C 21 C8 00         [10]  402 	ld	hl, #0x00c8
      00017F 22r2Dr00         [16]  403 	ld	((_highscore_table + 45)), hl
                           000182   404 	C$saves.c$99$3_1$117	= .
                                    405 	.globl	C$saves.c$99$3_1$117
                                    406 ;src/libs/saves.c:99: highscore_table.table[9].name[0] = 9;
      000182 21r2Fr00         [10]  407 	ld	hl, #(_highscore_table + 47)
      000185 36 09            [10]  408 	ld	(hl), #0x09
                           000187   409 	C$saves.c$100$3_1$117	= .
                                    410 	.globl	C$saves.c$100$3_1$117
                                    411 ;src/libs/saves.c:100: highscore_table.table[9].name[1] = 21;
      000187 21r30r00         [10]  412 	ld	hl, #(_highscore_table + 48)
      00018A 36 15            [10]  413 	ld	(hl), #0x15
                           00018C   414 	C$saves.c$101$3_1$117	= .
                                    415 	.globl	C$saves.c$101$3_1$117
                                    416 ;src/libs/saves.c:101: highscore_table.table[9].name[2] = 18;
      00018C 21r31r00         [10]  417 	ld	hl, #(_highscore_table + 49)
      00018F 36 12            [10]  418 	ld	(hl), #0x12
                           000191   419 	C$saves.c$102$3_1$117	= .
                                    420 	.globl	C$saves.c$102$3_1$117
                                    421 ;src/libs/saves.c:102: highscore_table.table[9].score = 100;
      000191 21 64 00         [10]  422 	ld	hl, #0x0064
      000194 22r32r00         [16]  423 	ld	((_highscore_table + 50)), hl
      000197 18 04            [12]  424 	jr	00114$
      000199                        425 00109$:
                           000199   426 	C$saves.c$105$3_1$118	= .
                                    427 	.globl	C$saves.c$105$3_1$118
                                    428 ;src/libs/saves.c:105: failureToSave = true;
      000199 DD 36 FF 01      [19]  429 	ld	-1 (ix), #0x01
      00019D                        430 00114$:
                           00019D   431 	C$saves.c$108$1_1$110	= .
                                    432 	.globl	C$saves.c$108$1_1$110
                                    433 ;src/libs/saves.c:108: if(!failureToSave) {
      00019D DD CB FF 46      [20]  434 	bit	0, -1 (ix)
      0001A1 20 39            [12]  435 	jr	NZ, 00120$
                           0001A3   436 	C$saves.c$109$2_1$119	= .
                                    437 	.globl	C$saves.c$109$2_1$119
                                    438 ;src/libs/saves.c:109: if(currentSaveSystem == SRAM_SAVE) {
      0001A3 3Ar00r00         [13]  439 	ld	a, (_currentSaveSystem+0)
      0001A6 3D               [ 4]  440 	dec	a
      0001A7 20 0E            [12]  441 	jr	NZ, 00117$
                           0001A9   442 	C$saves.c$111$3_1$120	= .
                                    443 	.globl	C$saves.c$111$3_1$120
                                    444 ;src/libs/saves.c:111: memcpy(highscore_table_backup, &highscore_table, sizeof(highscore_table));
      0001A9 ED 5Br00r00      [20]  445 	ld	de, (_highscore_table_backup)
      0001AD 21r00r00         [10]  446 	ld	hl, #_highscore_table
      0001B0 01 34 00         [10]  447 	ld	bc, #0x0034
      0001B3 ED B0            [21]  448 	ldir
      0001B5 18 1A            [12]  449 	jr	00118$
      0001B7                        450 00117$:
                           0001B7   451 	C$saves.c$114$3_1$121	= .
                                    452 	.globl	C$saves.c$114$3_1$121
                                    453 ;src/libs/saves.c:114: flash_sector_erase(FLASH_SAVING_ADDRESS);
      0001B7 11 00 C0         [10]  454 	ld	de, #0xc000
      0001BA 21 07 00         [10]  455 	ld	hl, #0x0007
      0001BD CDr00r00         [17]  456 	call	_flash_sector_erase
                           0001C0   457 	C$saves.c$115$3_1$121	= .
                                    458 	.globl	C$saves.c$115$3_1$121
                                    459 ;src/libs/saves.c:115: flash_program(FLASH_SAVING_ADDRESS, (char*)&highscore_table, sizeof(highscore_table));
      0001C0 21 34 00         [10]  460 	ld	hl, #0x0034
      0001C3 E5               [11]  461 	push	hl
      0001C4 21r00r00         [10]  462 	ld	hl, #_highscore_table
      0001C7 E5               [11]  463 	push	hl
      0001C8 11 00 C0         [10]  464 	ld	de, #0xc000
      0001CB 21 07 00         [10]  465 	ld	hl, #0x0007
      0001CE CDr00r00         [17]  466 	call	_flash_program
      0001D1                        467 00118$:
                           0001D1   468 	C$saves.c$118$2_1$119	= .
                                    469 	.globl	C$saves.c$118$2_1$119
                                    470 ;src/libs/saves.c:118: memcpy(&highscore_table, highscore_table_backup, sizeof(highscore_table));
      0001D1 2Ar00r00         [16]  471 	ld	hl, (_highscore_table_backup)
      0001D4 11r00r00         [10]  472 	ld	de, #_highscore_table
      0001D7 01 34 00         [10]  473 	ld	bc, #0x0034
      0001DA ED B0            [21]  474 	ldir
      0001DC                        475 00120$:
                           0001DC   476 	C$saves.c$120$1_1$110	= .
                                    477 	.globl	C$saves.c$120$1_1$110
                                    478 ;src/libs/saves.c:120: if(currentSaveSystem == SRAM_SAVE) {     
      0001DC 3Ar00r00         [13]  479 	ld	a, (_currentSaveSystem+0)
      0001DF 3D               [ 4]  480 	dec	a
      0001E0 20 07            [12]  481 	jr	NZ, 00122$
                           0001E2   482 	C$saves.c$121$2_1$122	= .
                                    483 	.globl	C$saves.c$121$2_1$122
                                    484 ;src/libs/saves.c:121: SMS_disableSRAM();
      0001E2 21 FC FF         [10]  485 	ld	hl, #_SRAM_bank_to_be_mapped_on_slot2
      0001E5 36 00            [10]  486 	ld	(hl), #0x00
      0001E7 18 05            [12]  487 	jr	00123$
      0001E9                        488 00122$:
                           0001E9   489 	C$saves.c$123$2_1$123	= .
                                    490 	.globl	C$saves.c$123$2_1$123
                                    491 ;src/libs/saves.c:123: SMS_mapROMBank(CONSTANT_DATA_BANK);
      0001E9 21 FF FF         [10]  492 	ld	hl, #_ROM_bank_to_be_mapped_on_slot2
      0001EC 36 02            [10]  493 	ld	(hl), #0x02
      0001EE                        494 00123$:
                           0001EE   495 	C$saves.c$125$1_1$110	= .
                                    496 	.globl	C$saves.c$125$1_1$110
                                    497 ;src/libs/saves.c:125: if(failureToSave) {
      0001EE DD CB FF 46      [20]  498 	bit	0, -1 (ix)
      0001F2 28 05            [12]  499 	jr	Z, 00125$
                           0001F4   500 	C$saves.c$126$2_1$124	= .
                                    501 	.globl	C$saves.c$126$2_1$124
                                    502 ;src/libs/saves.c:126: currentSaveSystem = NO_SAVE;
      0001F4 21r00r00         [10]  503 	ld	hl, #_currentSaveSystem
      0001F7 36 00            [10]  504 	ld	(hl), #0x00
      0001F9                        505 00125$:
                           0001F9   506 	C$saves.c$128$1_1$110	= .
                                    507 	.globl	C$saves.c$128$1_1$110
                                    508 ;src/libs/saves.c:128: return saveToInitialize;
      0001F9 DD 7E FE         [19]  509 	ld	a, -2 (ix)
                           0001FC   510 	C$saves.c$129$1_1$109	= .
                                    511 	.globl	C$saves.c$129$1_1$109
                                    512 ;src/libs/saves.c:129: }
      0001FC DD F9            [10]  513 	ld	sp, ix
      0001FE DD E1            [14]  514 	pop	ix
                           000200   515 	C$saves.c$129$1_1$109	= .
                                    516 	.globl	C$saves.c$129$1_1$109
                           000200   517 	XG$init_savesystem$0$0	= .
                                    518 	.globl	XG$init_savesystem$0$0
      000200 C9               [10]  519 	ret
                           000201   520 	G$saveChanges$0$0	= .
                                    521 	.globl	G$saveChanges$0$0
                           000201   522 	C$saves.c$132$1_1$126	= .
                                    523 	.globl	C$saves.c$132$1_1$126
                                    524 ;src/libs/saves.c:132: void saveChanges(void) {
                                    525 ;	---------------------------------
                                    526 ; Function saveChanges
                                    527 ; ---------------------------------
      000201                        528 _saveChanges::
                           000201   529 	C$saves.c$133$1_0$126	= .
                                    530 	.globl	C$saves.c$133$1_0$126
                                    531 ;src/libs/saves.c:133: switch (currentSaveSystem)
      000201 3Ar00r00         [13]  532 	ld	a, (_currentSaveSystem+0)
      000204 B7               [ 4]  533 	or	a, a
      000205 C8               [11]  534 	ret	Z
      000206 3Ar00r00         [13]  535 	ld	a, (_currentSaveSystem+0)
      000209 3D               [ 4]  536 	dec	a
      00020A 28 08            [12]  537 	jr	Z, 00102$
      00020C 3Ar00r00         [13]  538 	ld	a, (_currentSaveSystem+0)
      00020F D6 02            [ 7]  539 	sub	a, #0x02
      000211 28 1A            [12]  540 	jr	Z, 00103$
      000213 C9               [10]  541 	ret
                           000214   542 	C$saves.c$137$2_0$127	= .
                                    543 	.globl	C$saves.c$137$2_0$127
                                    544 ;src/libs/saves.c:137: case SRAM_SAVE:
      000214                        545 00102$:
                           000214   546 	C$saves.c$138$2_0$127	= .
                                    547 	.globl	C$saves.c$138$2_0$127
                                    548 ;src/libs/saves.c:138: SMS_enableSRAM();
      000214 FD 21 FC FF      [14]  549 	ld	iy, #_SRAM_bank_to_be_mapped_on_slot2
      000218 FD 36 00 08      [19]  550 	ld	0 (iy), #0x08
                           00021C   551 	C$saves.c$139$2_0$127	= .
                                    552 	.globl	C$saves.c$139$2_0$127
                                    553 ;src/libs/saves.c:139: memcpy(highscore_table_backup, &highscore_table, sizeof(highscore_table));
      00021C ED 5Br00r00      [20]  554 	ld	de, (_highscore_table_backup)
      000220 21r00r00         [10]  555 	ld	hl, #_highscore_table
      000223 01 34 00         [10]  556 	ld	bc, #0x0034
      000226 ED B0            [21]  557 	ldir
                           000228   558 	C$saves.c$140$2_0$127	= .
                                    559 	.globl	C$saves.c$140$2_0$127
                                    560 ;src/libs/saves.c:140: SMS_disableSRAM();
      000228 FD 36 00 00      [19]  561 	ld	0 (iy), #0x00
                           00022C   562 	C$saves.c$141$2_0$127	= .
                                    563 	.globl	C$saves.c$141$2_0$127
                                    564 ;src/libs/saves.c:141: break;
      00022C C9               [10]  565 	ret
                           00022D   566 	C$saves.c$142$2_0$127	= .
                                    567 	.globl	C$saves.c$142$2_0$127
                                    568 ;src/libs/saves.c:142: case FLASH_SAVE:
      00022D                        569 00103$:
                           00022D   570 	C$saves.c$143$2_0$127	= .
                                    571 	.globl	C$saves.c$143$2_0$127
                                    572 ;src/libs/saves.c:143: SMS_mapROMBank(FLASH_SAVING_BANK);
      00022D 21 FF FF         [10]  573 	ld	hl, #_ROM_bank_to_be_mapped_on_slot2
      000230 36 1F            [10]  574 	ld	(hl), #0x1f
                           000232   575 	C$saves.c$144$2_0$127	= .
                                    576 	.globl	C$saves.c$144$2_0$127
                                    577 ;src/libs/saves.c:144: flash_sector_erase(FLASH_SAVING_ADDRESS);
      000232 11 00 C0         [10]  578 	ld	de, #0xc000
      000235 21 07 00         [10]  579 	ld	hl, #0x0007
      000238 CDr00r00         [17]  580 	call	_flash_sector_erase
                           00023B   581 	C$saves.c$145$2_0$127	= .
                                    582 	.globl	C$saves.c$145$2_0$127
                                    583 ;src/libs/saves.c:145: flash_program(FLASH_SAVING_ADDRESS, (char*)&highscore_table, sizeof(highscore_table));
      00023B 21 34 00         [10]  584 	ld	hl, #0x0034
      00023E E5               [11]  585 	push	hl
      00023F 21r00r00         [10]  586 	ld	hl, #_highscore_table
      000242 E5               [11]  587 	push	hl
      000243 11 00 C0         [10]  588 	ld	de, #0xc000
      000246 21 07 00         [10]  589 	ld	hl, #0x0007
      000249 CDr00r00         [17]  590 	call	_flash_program
                           00024C   591 	C$saves.c$146$2_0$127	= .
                                    592 	.globl	C$saves.c$146$2_0$127
                                    593 ;src/libs/saves.c:146: SMS_mapROMBank(CONSTANT_DATA_BANK);
      00024C 21 FF FF         [10]  594 	ld	hl, #_ROM_bank_to_be_mapped_on_slot2
      00024F 36 02            [10]  595 	ld	(hl), #0x02
                           000251   596 	C$saves.c$150$1_0$126	= .
                                    597 	.globl	C$saves.c$150$1_0$126
                                    598 ;src/libs/saves.c:150: }
                           000251   599 	C$saves.c$151$1_0$126	= .
                                    600 	.globl	C$saves.c$151$1_0$126
                                    601 ;src/libs/saves.c:151: }
                           000251   602 	C$saves.c$151$1_0$126	= .
                                    603 	.globl	C$saves.c$151$1_0$126
                           000251   604 	XG$saveChanges$0$0	= .
                                    605 	.globl	XG$saveChanges$0$0
      000251 C9               [10]  606 	ret
                                    607 	.area _CODE
                                    608 	.area _INITIALIZER
                                    609 	.area _CABS (ABS)
